documento;nombre;apellido;email;direccion;telefono;celular;ciudad;depto;master;visa;tarjeta;tipo
31267977;MARIA A;ARANGO GARCIA;notiene@notiene.com;DG 65 # 33 - 09 BR LA ALBORADA;0;3154137209;CALI;VALLE DEL CAUCA;27;0;9000;2
31268028;PLATA TAVERA;CARMEN ELISA;carmen@hotmail.com;CR 80 b # 42 - 43 BR Caney;0;3172251422;CALI;VALLE DEL CAUCA;7;0;4002;2
31268238;GLORIA EUGENIA;BOENHEIM;boenheim@yahoo.com;CALLE 50 NUM 3FN 20;0;3104711432;CALI;VALLE DEL CAUCA;26;5;9973;2
31268242;MARIA C;OSSA F;mariaceossa@hotmail.com;CL 22 A # 122 - 118;0;3156971464;CALI;VALLE DEL CAUCA;25;0;3614;2
31268251;MARIA DEL;P RIVERA;mrivera288@gmail.com;CR 8 # 127 B - 05 AP 201 ED MARIA JULIANA II BR BELLA SUIZA;0;3133911475;BOGOTA;BOGOTA D.C.;0;4;6448;2
31268432;LADY SEPULVEDA;DE ARROYO;ladysepulveda@hotmail.com;CR 77 NRO 238 - 40 CASA 11 HDA SAN SIN CONJUNTO MACAGUA;0;3155742872;BOGOTA;BOGOTA D.C.;26;0;0999;2
31268458;LUZ S;MONJE V;lusmovas@hotmail.com;DG 15 OE  # T 10 - 30 URB AGUACATAL;0;3183923520;CALI;VALLE DEL CAUCA;0;4;1431;2
31268463;CLARA I;L;clarai@msn.com;AV 9 # 25 - 85 AP 101;0;3155635296;CALI;VALLE DEL CAUCA;7;4;0002;2
31268531;MARGARITA SAENZ;VIDAL;msaenzvidal@hotmail.com;CR 85 B # 14 - 56  INGENIO;0;3104703913;CALI;VALLE DEL CAUCA;27;0;3990;2
31268650;MARIA ISABEL;DUQUE NUNEZ;isabelitaduque@hotmail.com;CL 13 A BIS # 80 - 45 TRR B AP 603 TORRES DE BADALONA BR CIUDADELA DE LA PASOANCHO;0;3137082639;CALI;VALLE DEL CAUCA;25;0;7893;2
31268865;LIGIA M;LUCIO CALDERON;ligialucio1957@yahoo.es;CL 12 C # 43 - 29 BR PANAMERICANO;0;3053251844;CALI;VALLE DEL CAUCA;2;0;0400;2
31269180;ALMA PATRICIA;VILLA V;alpavive@yahoo.com;CL 2B # 66 - 56 AP 501A UNRES KIMAYU;0;3155617178;CALI;VALLE DEL CAUCA;26;5;3019;2
31269341;RUBY ROJAS;GUERRERO;rojasruby1@gmail.com;CL 59  1  30;0;3168252967;CALI;VALLE DEL CAUCA;0;3;5323;2
31269478;MARIA P;CARVAJAL CADAVID;patriciacarvajalc@hotmail.com;CL 45 NTE  # 4 A N - 10;0;3166294472;CALI;VALLE DEL CAUCA;0;4;9998;2
31269502;EMMA ROSA;GUEVARA;eguevara28@gmail.com;CL 13C # 45 - 01 PORT 1 UNRES MULTIFAMILIARES LA SELVA TRR 7F AP 201;0;3104400062;CALI;VALLE DEL CAUCA;22;0;6424;2
31269513;BEATRIZ C;NAVIA;bcnavia@hotmail.com;CR 35 A # 3 BIS - 36 AP 102;0;3104584293;CALI;VALLE DEL CAUCA;0;5;6995;2
31269517;CARMENZA SANTAMARIA;C;csantacaba@hotmail.com;CL 47 BN # 5 AN - 48;0;3113680139;CALI;VALLE DEL CAUCA;28;5;5009;2
31269521;ESPERANZA CASTRILLON;V;hubermolina570@gmail.com;VEREDA EL TABLON;0;3207717524;CALI;VALLE DEL CAUCA;0;3;9603;2
31269620;VICTORIA E;CHONA S;toyachona4@hotmail.com;AV 4 NORTE # 24N - 68;0;3155578265;CALI;VALLE DEL CAUCA;24;0;0016;2
31269693;PATRICIA CAMACHO;ROBLEDO;patriciacamacho@gmail.com;EDF BOQUILLA MARINA CLUB AP;0;3117510996;CARTAGENA;BOLIVAR;25;0;3744;2
31269723;GLORIA E;CHAVEZ ARAGON;gechaves2010@gmail.com;CL 18 A # 130 - 121 BR PANCE;0;3155562569;CALI;VALLE DEL CAUCA;25;0;0185;2
31269736;JULIA ROSA;GOMEZ Q;juliagomez90@hotmail.com;CL 2 OE  # 53 - 129 BR BELISARIO C;0;3146226832;CALI;VALLE DEL CAUCA;0;4;3937;2
31269744;MARTHA ELENA;VALDES P;marthahvaldes@hotmail.com;CL 7# 47 - 168;0;3163089749;CALI;VALLE DEL CAUCA;3;3;5007;2
31269904;MARIA FERNANDA;DIEZ R;mdiezr@hotmail.com;CR 36 OE # 7 - 40;0;3155789342;CALI;VALLE DEL CAUCA;5;5;9004;2
31269955;MARIA ASCENETH;REINOSA C;aceneth96@yahoo.es;CL 134 # 17 - 40 202;0;3153483051;BOGOTA;BOGOTA D.C.;21;0;1015;2
31269995;ALBA LILIANA;SILVA DE;alsderoa@gmail.com;CL 4  125  97 CS  BR PANCE;0;3155512317;CALI;VALLE DEL CAUCA;4;4;0418;2
31270057;LUCY DELGADO;DELGADO DE;lucydelgado001@hotmail.com;CR 62 # 2 B - 56 PS 2 LC 18;0;3046802791;CALI;VALLE DEL CAUCA;23;4;2009;2
31270111;LUCY GONZALEZ;DE RIVERA;cafelu31@hotmail.com;AV 6 AN # 38 - 60 AP 906;0;3104137726;CALI;VALLE DEL CAUCA;0;1;1895;2
31270259;MARTHA L;ARROYO DE;notiene@notiene.com;CR 1 E # 45 - 82 CS  BR LA ALIANZA;0;3155308461;CALI;VALLE DEL CAUCA;2;0;6005;2
31270264;MARIA RAMIREZ;G;soqui81@hotmail.com;KM 3 VIA CHIPAYA CONDM LAS MERCEDEZ CS 59;0;3006172437;JAMUNDI;VALLE DEL CAUCA;0;2;6295;2
31270268;PILAR MARTINEZ;RIVERA;pilarmartinez@cox.net;19 Longfield Lane;0;3155869295;BARRANQUILLA;ATLANTICO;23;3;6010;2
31270281;GONZALEZ G;GONZALEZ;fabiolagonzal@hotmail.com;AV 6 BN  35  -34 APTO102;0;3155722341;CALI;VALLE DEL CAUCA;13;5;3017;2
31270296;MARIA LURY;MENA OSSA;marialurym@hotmail.com;CL 28 # 96 - 161 CS 05 BR VALLE DEL LILI;0;3122448801;CALI;VALLE DEL CAUCA;25;4;8005;2
31270348;IVONNE RESTREPO;SANDOVAL;restrepo_ivonne@hotmail.com;BR BGRANDE CR 2 # 9-95 AP 603 ED EL CONDOR;0;3157495796;CARTAGENA;BOLIVAR;3;0;2842;2
31270352;ARACELLY RESTREPO;FRANCO;ararestrepo@live.com;CL 13A # 64 - 50 CJRES LOS YARUMOS AP 202 E;0;3117486610;CALI;VALLE DEL CAUCA;3;0;8614;2
31270409;MORELIA MENDEZ;URIBE;moreliamendez@hotmail.com;CR 4E # 31-67 PS 2 BR MUNICIPAL;0;3006776927;CALI;VALLE DEL CAUCA;0;4;2649;2
31270724;BEATRIZ PROANO;ROJAS;patyproano@hotmail.com;CR 22 # 1 A - 34;0;3147949709;CALI;VALLE DEL CAUCA;4;0;0011;2
31270766;ROSALBA HOYOS;BOLANOS;rosalba59@gmail.com;CR 46 # 2 A - 60 AP 1146;0;3137374402;CALI;VALLE DEL CAUCA;0;5;3685;2
31270832;AMALFI ORDONEZ;DE S;amalfyordonez@outlook.com;CL 3 # 24 C - 06 BR SAN FERNANDO;0;3103738992;CALI;VALLE DEL CAUCA;0;5;7232;2
31270918;ELIZABETH BENITEZ;ANGULO;beanel22@hotmail.com;CL 53 # 98 - 91 BR ALAMEDA CENTRAL TRR 4 AP 304;0;3147226906;CALI;VALLE DEL CAUCA;2;2;3386;2
31270981;GLORIA GURUMENDI;L;gurumendy@hotmail.com;CL 44 # 35 N - 00;0;3168781937;CALI;VALLE DEL CAUCA;0;1;2809;2
31271078;MARIA C;SOTO GAMBOA;macris_soto@hotmail.com;CR 115 # 6 - 226 CS 2 BR CIUDAD JARDIN;0;3216402141;CALI;VALLE DEL CAUCA;27;0;7563;2
31271125;CLARA ARCILA;JIMENEZ;carcila2002@hotmail.com;CR 113 # 11 - 49;0;3155512620;CALI;VALLE DEL CAUCA;25;0;0009;2
31271132;ANA L;REBOLLEDO ARBELAEZ;analuciarebolledo@gmail.com;CR 89 # 10 - 80 AP 217 TRR 9  CJ MULTICENTRO UN 202;0;3006106316;CALI;VALLE DEL CAUCA;0;4;7028;2
31271138;NUBIA AGUDELO;BUSTAMANTE;nubagu@hotmail.com;CR 60 A# 11 - 93;0;3113566811;CALI;VALLE DEL CAUCA;15;0;2112;2
31271140;VICTORIA E;CABALLERO C;eugenita120@yahoo.com;CR 79 A # 6 - 84 BR CAPRI;0;3007803732;CALI;VALLE DEL CAUCA;16;0;5006;2
31271327;STELLA VILLEGAS;SOLIS;svillegassolis@hotmail.com;CL 13 B # 50 - 56 BRIO 1 MA;0;3168713038;CALI;VALLE DEL CAUCA;0;3;3744;2
31271372;MARIA M;ORTEGA DE;notiene@notiene.com;CL 47B NO 3CN-57;0;3164487122;CALI;VALLE DEL CAUCA;18;0;1627;2
31271376;ANA M;VARELA DE;liceosan@hotmail.com;CR 22 # 33 E - 194;0;3017284941;CALI;VALLE DEL CAUCA;1;0;4097;2
31271439;LUZ M;GARCIA DE;luzmarygz@hotmail.com;CR 79B #9 18 AP 601 TRR B  RESIDENCIA TORRE ALTO;0;3136490166;CALI;VALLE DEL CAUCA;22;0;1018;2
31271558;CARMEN AVILA;LOZANO;grlinzal@gmail.com;CR 6 CON CL 9 Y 10;0;3115923072;CALI;VALLE DEL CAUCA;0;5;7514;2
31271601;MARIA HURTATIZ;DE ORTIZ;irmahur72@gmail.com;CR 1 C 1# 70 - 106 BR SAN LUIS;0;3113088323;CALI;VALLE DEL CAUCA;1;0;6508;2
31271624;LILIA MARMOLEJO;COBO;lm.cobo@hotmail.es;CR 57 # 11 A - 50;0;3164902736;CALI;VALLE DEL CAUCA;7;0;0554;2
31271704;BLANCA LUCIA;MENA S;blancalucia.mena@gmail.com;CR 64 A # 9 - 18 EL LIMONAR;0;3165261162;CALI;VALLE DEL CAUCA;26;4;0485;2
31271818;SONIA GHITIS;MERA;SEGHITIS@HOTMAIL.COM;CR 83 # 48 A - 22;0;3162821347;CALI;VALLE DEL CAUCA;4;0;9808;2
31272126;GLORIA I;CASTRO R;gicastrorodriguez@hotmail.com;CR 54 # 12 OESTE - 39  AP 102  ED CALIFORNIA  BR BELLA SUIZA;0;3103961489;CALI;VALLE DEL CAUCA;0;5;5493;2
31272184;LUZ E;RAMIREZ ALVAREZ;leramirezal@outlook.com;CL 103 # 13 - 00 AP 404;0;3153359259;BOGOTA;BOGOTA D.C.;25;0;1794;2
31272247;ESTHER J;CAICEDO A;estherjcaicedo@hotmail.com;CL 6 A # 61 - 120 AP 503 D CJ CANAVERALEJO IV BR GRAN LIMONAR;0;3147019431;CALI;VALLE DEL CAUCA;1;1;9774;2
31272610;VELASCO ARANGO;PILAR VELASCO;092geren@bancodeoccidente.com.co;CRA 65 NRO13F-40 CASA 9;0;3164826006;CALI;VALLE DEL CAUCA;6;5;0029;2
31272709;ESPERANZA RIVERA;MUNOZ;espe00@hotmail.com;CR 46 # 52 - 36 PS 14;0;3007752955;MEDELLIN;ANTIOQUIA;20;0;6517;2
31272724;MARIA C;RIOS GARCIA;consueloriosgarcia@hotmail.com;CR 66 B # 13 B 13 A - 49 EX 3589;0;3155038785;CALI;VALLE DEL CAUCA;21;0;8012;2
31273081;RUBRIA M;OCHOA DE;lulivallejo@hotmail.com;AV 4 A OES # 4 - 03 AP 202;0;3104936414;CALI;VALLE DEL CAUCA;20;0;4165;2
31273257;BLANCA NURY;CABRALES F;nuryca1204@hotmail.com;AV CIUDAD JARDIN CS 30 0 CIUDAD JARDIN;0;3104273839;CALI;VALLE DEL CAUCA;0;4;2196;2
31273273;ISABEL OCHOA;PAEZ;tatiana.daza@bsnmedical.com.co;CL 21 # 17 D - 14 BR BELALCAZAR;0;3128711354;CALI;VALLE DEL CAUCA;28;5;8612;2
31273297;GLADYS T;RAMOS GARBIRAS;ramosgladys1@hotmail.com;AV 4 NTE  # 6 - 67 OF 205 TRR EMPRESARIAL SIGLO 21;0;3148721194;CALI;VALLE DEL CAUCA;6;5;0057;2
31273323;MARICEL LABRADA;S;academialabrada@hotmail.com;CR 5 # 1 - 10 BR SAN ANTONIO;0;3155443510;CALI;VALLE DEL CAUCA;27;0;5005;2
31273408;OFELIA VALENCIA;ARBELAEZ;ofevalencia@hotmail.com;CL 13 # 98 - 10 BR MULTICENTRO II AP 103;0;3154768891;CALI;VALLE DEL CAUCA;24;1;9586;2
31273503;LUZ M;TAMAYO ESCOBAR;juandacar@hotmail.com;CL 14 C # 79 - 20 CS 22 BR PRADOS DE LIMONAR;0;3154923298;CALI;VALLE DEL CAUCA;0;5;2206;2
31273526;GICELA DE;FATIMA TROCHEZ;giselatro9@hotmail.com;AV 4 BN # 58N - 62 AP 602 BQ C;0;3155714587;CALI;VALLE DEL CAUCA;23;0;3464;2
31273575;MARTHA SOFIA;MONROY G;notiene@notiene.com;AV ROOSEVELT # 42 - 20;0;3164824638;CALI;VALLE DEL CAUCA;19;4;1608;2
31273634;NEICY LOAIZA;RENDON;neicyloaiza@hotmail.com;CL 62 B # 1 A 6 - 185 SEC 7 AGR 3  TRR F AP 3F23;0;3104941146;CALI;VALLE DEL CAUCA;0;1;9698;2
31273965;OLGA LUCIA;SANDOVAL S;osandoval3@hotmail.com;CL 9 NOR # 8 N - 40 AP 304 TO DE  GRAN;0;3176807896;CALI;VALLE DEL CAUCA;8;0;6122;2
31274096;SILVIA MARTINEZ;R;symarron01@gmail.com;CR 2 A OE  # 7 - 154 AP 502;0;3104321911;CALI;VALLE DEL CAUCA;3;0;4738;2
31274097;CLARA GUTIERREZ;ECHEVERRY;clarastellage@gmail.com;CR 2 OE # 13 - 97 AP 401 ED EL ALIZAL;0;3127771812;CALI;VALLE DEL CAUCA;25;0;6525;2
31274135;MERCEDES BALCAZAR;B;mechita.1954@hotmail.com;CR 8 NTE  # 70A - 16;0;3225420792;CALI;VALLE DEL CAUCA;2;0;4009;2
31274211;JULIA EMMA;JULIA EMMA;CANDREAV83@HOTMAIL.COM;CR 59 # 1D - 31 AP 102 ED APOSENTO BR SEMINARIO;0;3007740536;CALI;VALLE DEL CAUCA;12;5;1002;2
31274227;MILENA DE;LA C;milena.chaves@outlook.com;CL 17 # 86 - 82 AP 102 TRR C BR INGENIO;0;3155522687;CALI;VALLE DEL CAUCA;22;5;6394;2
31274311;GLORIA JIMENEZ;BOTERO;gajimenez@uao.edu.co;CL 25 # 115 - 85;0;3148115430;CALI;VALLE DEL CAUCA;0;3;4031;2
31274338;MARINA QUINTERO;MENDEZ;marinaquin@hotmail.com;CL 15 A # 67 - 35 AP 503 B  UNRES BALCONES DE LIMONAR;0;3148216206;CALI;VALLE DEL CAUCA;25;0;5761;2
31274481;MARIAM MAYA;RODRIGUEZ;mariam24_43@hotmail.com;CR 83 # 6 - 50 AP 1003 TO A;0;3174046850;CALI;VALLE DEL CAUCA;0;3;7918;2
31274513;MARIA EDITH;RIVERA PEREZ;medithrp@yahoo.es;CL 5B # 25 - 91;0;3108487761;CALI;VALLE DEL CAUCA;5;3;2006;2
31274813;YOLANDA PEREZ;LOPEZ;yolixx58@hotmail.com;CR 44 # 2 - 04 BR EL LIDO;0;3178625579;CALI;VALLE DEL CAUCA;2;0;9460;2
31274820;NANCY BONILLA;VIDAL;nancybonilla1120@hotmail.com;AV 2 C # 39 - 41;0;3155334688;CALI;VALLE DEL CAUCA;5;2;3018;2
31274903;CASTRO CARVAJAL;CARVAJAL;becastro@chasqui.univalle.edu.co;CL 84A # 8 - 43 AP 401;0;3154132364;BOGOTA;BOGOTA D.C.;12;4;0482;2
31275044;ZULAMITA ANA;KAIM TORRES;crecefamilia@hotmail.com;LABORAGINE PANCE PARCELACION  CHORRO DE PLATA CS 118;0;3206785772;CALI;VALLE DEL CAUCA;1;0;5014;2
31275260;FANNY ALMEIDA;DE FIERRO;fannyalmeyda@gmail.com;AV 6 Norte # 23N - 99;0;3002805396;CALI;VALLE DEL CAUCA;0;2;9124;2
31275304;MARIA LUZ;PELAEZ B;luzdarypelaez55@gmail.com;CL 9 C Q 40 A - 107;0;3154121687;CALI;VALLE DEL CAUCA;5;3;1406;2
31275333;MARIA ZORRILLA;HERNANDEZ;mariaartonia.zorilla@yahoo.com;CL 4 73 120;0;3154121687;CALI;VALLE DEL CAUCA;5;0;7157;2
31275457;MARIA VICTORIA;PENA DE;febesa@hotmail.com;AV 4 A OES # 5 - 186 AP 302;0;3113344194;CALI;VALLE DEL CAUCA;10;0;9456;2
31275721;MARGARITA GUZMAN;TORRES;mguzman@mejiaasociados.com;CL 100 # 17 - 09 PS 4 BR CHICO-PRIMER PISO QUEDA - OLIMPICA-ENTRADA POR PARQUEADE;0;3002095201;BOGOTA;BOGOTA D.C.;23;5;8015;2
31275956;BIENVENIDA BONFANTE;B;notiene@notiene.com;CL 15 A # 66 - 51 AP 104 D UN BALCONES EL LIMONAR 1 BR LA HACIENDA;0;3013163673;CALI;VALLE DEL CAUCA;10;0;0356;2
31275975;GLORIA E;CASTRO D;gcastro3101@gmail.com;CR 76# 6 - 34 AP 203 ED FERRARA BR CAPR;0;3005176144;CALI;VALLE DEL CAUCA;0;1;4326;2
31275982;LIDA S;LLANOS B;lidastellanos@gmail.com;CR 113 BIS  # 5 - 80 CS 21;0;3155547187;CALI;VALLE DEL CAUCA;26;0;1602;2
31275993;CONSTANZA PRADO;RODRIGUEZ;constanzaprador@hotmail.com;CL 4 B # 95 - 200 CS H 6  MELENDEZ;0;3147846232;CALI;VALLE DEL CAUCA;9;5;0104;2
31276021;AMPARO PINZON;NIETO;amparopinzonn@gmail.com;avenida 4N #6N-67 Oficina 209;0;3155330803;CALI;VALLE DEL CAUCA;23;0;5367;2
31276074;MARIELA GARCIA;MENESES;magarcime@hotmail.com;CR 6 # 9 - 10;0;3104685451;CALI;VALLE DEL CAUCA;15;0;9009;2
31276179;MARTHA CECILIA;RUIZ G;marceru1188@hotmail.com;CR 83 NO 30 - 20 CS 3 CJ E CIUDADELA COMFANDI;0;3147062152;CALI;VALLE DEL CAUCA;9;5;5005;2
31276281;MIRYAN OSPINA;HINCAPIE;miryam.ospina@hotmail.com;CALLE 12 B N`32A-86 CASA 17;0;3147943948;CALI;VALLE DEL CAUCA;0;4;7658;2
31276289;GLORIA BASTO;REYES;glorita1503@yahoo.es;CL 20 # 116 - 105 CS DEL ALFEREZ BR CIUDAD JARDIN;0;3155551445;CALI;VALLE DEL CAUCA;18;0;6644;2
31276472;MARIA N;GIRALDO CASTANEDA;camy1955@hotmail.com;CL 10 # 56 - 90 AP 503  1 A;0;3164245195;CALI;VALLE DEL CAUCA;3;3;3769;2
31276474;OLGA L;GARCES DE;olgarces@gmail.com;CL 11 A # 100 B - 85;0;3155513898;CALI;VALLE DEL CAUCA;28;0;4588;2
31276478;GLORIA PARDO;S;alglo0716@hotmail.com;CL 113 # 11 - 130  BR CIUDAD JARDIN  UN PIEDRA GRANDE CS 3;0;3207271616;CALI;VALLE DEL CAUCA;0;1;2736;2
31276522;MARIA VIDALINA;ZUNIGA;iberoamerica.s.a.s@hotmail.com;CR 38 E # 4 - 107;0;3153023934;CALI;VALLE DEL CAUCA;2;2;1126;2
31276726;MARIA C;VICTORIA E;CRISVICTORIA10@HOTMAIL.COM;CL 16 NOR # 9 N - 52;0;3173471107;CALI;VALLE DEL CAUCA;0;5;8878;2
31276742;MARTHA L;MORENO G;marthaluciamorenog@hotmail.com;AV 11 AN # 54 - 32 COLINAS DEL;0;3046709002;CALI;VALLE DEL CAUCA;0;2;5034;2
31276745;BEATRIZ CARRENO;CORDOBA;BeatrizCarreno@bancodeoccidente.com.co;CR 4 # 7 - 63;0;3148223800;CALI;VALLE DEL CAUCA;27;5;1775;2
31276762;MARTHA MADRINAN;JIMENEZ;malumaji19@hotmail.com;CL 66 # 1 BIS - 60 CS 102 BL 6;0;3155702283;CALI;VALLE DEL CAUCA;20;0;6009;2
31276976;GISLEINE;MORENO;gismorenof@yahoo.com.co;CL 70# 2 A N - 271 BALCONES  VALDEPENAS;0;3016237337;CALI;VALLE DEL CAUCA;13;0;2007;2
31277115;AURORA DEL;R CAMACHO;a.rosariocamacho@gmail.com;CL 77 # 12-03 AP 402  BR EL NOGAL;0;3213618109;BOGOTA;BOGOTA D.C.;23;0;9022;2
31277189;NANCY ORDONEZ;CH;n.ordonez@hotmail.com;CR 22 # 10 - 54;0;3155222912;CALI;VALLE DEL CAUCA;0;2;8942;2
31277251;ADELA VALENCIA;TRUJILLO;adevat@hotmail.com;CL 6 OE N` 29 - 111 BR TEJARES;0;3113498543;CALI;VALLE DEL CAUCA;3;3;9612;2
31277371;MARLENI;RODRIGUEZ;mrodrig10@hotmail.com;CR 98 # 48 - 30 AP 210 TRR 2 UN SAN GABRIEL VALLE DEL LILI;0;3155584093;CALI;VALLE DEL CAUCA;16;0;8002;2
31277564;GONZALEZ L;MARGARITA;gary_gonzalez_l@hotmail.com;CL 5 NORTE # 1 - 20  ED TRR CENTENARIO PS 9  BR CENTENARIO;0;3104142572;CALI;VALLE DEL CAUCA;0;4;9077;2
31277658;JANETH SOLANO;PADILLA;yanetica1956@gmail.com;CR 4 B # 26 - 13;0;3113092476;CALI;VALLE DEL CAUCA;19;5;2007;2
31277978;PILAR QUINTANA;MUNOZ;piliqm@hotmail.com;AV 3 OE  # 13 - 86 AP 302 BR SANTA RITA;0;3155664347;CALI;VALLE DEL CAUCA;15;0;1004;2
31278012;LUZ MARINA;SERNA QUINTERO;luzmaserna-58@hotmail.com;CR 12 # 12 - 71 BR CENTENARIO;0;3146122759;SANTANDER DE QUILICHAO;CAUCA;3;3;9158;2
31278076;GLORIA AMPARO;RUBIO A;notiene@notiene.com;CR 63C # 42B - 11 AP 301 ED AR;0;3166104722;MEDELLIN;ANTIOQUIA;24;0;1052;2
31278138;NURY BERMUDEZ;GONZALEZ;nurbergo@hotmail.com;CR 68 # 3 C - 14 BR CALDAS;0;3207269128;CALI;VALLE DEL CAUCA;0;1;4854;2
31278257;INES ELVIRA;APARICIO C;innet2005@yahoo.com;CL 24 # 7 A - 45 PS 2 BR SAN NICOLAS;0;3155397139;CALI;VALLE DEL CAUCA;22;0;8142;2
31278429;MARIA S;NARANJO C;stellan.c@hotmail.com;CL 13 N` 44 - 32 PS 3;0;3015111289;CALI;VALLE DEL CAUCA;0;5;1254;2
31278471;MARIA CLARA;MONTALVO F;m.montalvo@montalvoforero.com;CL 8 # 3 - 14 OF 1405;0;0;CALI;VALLE DEL CAUCA;25;0;6004;2
31278672;NURIA BLANCO;MUNOZ;nuriablancom@hotmail.com;CL 42 A # 68 - 35  BR CIUDAD 2000;0;3006082440;CALI;VALLE DEL CAUCA;28;0;0804;2
31278735;CLARA M;LINCE C;claramarialince@gmail.com;CL 5 OE #  5 A - 41 AP 205;0;3155597999;CALI;VALLE DEL CAUCA;0;5;8231;2
31278843;MARTHA LUCIA;ARIZA ARIZA;marthaluciariza@gmail.com;CR 21B # 20B - 13 ED SENDEROS DE MADEIRA AP 202;0;3175474207;PEREIRA;RISARALDA;25;0;2000;2
31278847;DEYANIRA RODRIGUEZ;DE T;yanira2953@hotmail.com;CR 101 # 11 - 50 BALCON DE;0;3127636811;CALI;VALLE DEL CAUCA;24;4;1330;2
31279122;MYRIAM ROSERO;GELPUD;myriane@emcali.net.co;CR 65 # 14 C - 90 CS 72;0;3172457348;CALI;VALLE DEL CAUCA;0;3;1683;2
31279147;ROSA Y;MORENO RAMOS;yolymor2405@hotmail.com;CR 66 # 13 B - 29 AP 701 BR LIMONAR;0;3143545163;CALI;VALLE DEL CAUCA;26;0;5006;2
31279233;MARTHA C;TAMAYO OSORIO;liatamayo@hotmail.com;AV 6CN NO 42 - 49 BR VERSALLES N;0;3163419956;CALI;VALLE DEL CAUCA;5;3;5004;2
31279372;MARIA CRISTINA;IBARRA R;mciracines@yahoo.com;Catres 16A #85-37 Ecos del Nevado;0;3187351568;BOGOTA;BOGOTA D.C.;12;0;3956;2
31279373;ANA M;GUTIERREZ G;anamg1@hotmail.com;AV 9 NT # 66 34 AP 203 ED LOMAS DE MENGA BR MENGA;0;3115250113;CALI;VALLE DEL CAUCA;0;5;1423;2
31279375;PATRICIA CASTRELLON;M;castrellonpatty@hotmail.com;AV 4 BN # 52 - 76 AP 409;0;3182165463;CALI;VALLE DEL CAUCA;21;0;2773;2
31279432;SONIA E;ZAPATA;scastro@ingeniolacabana.com;CR   53  14C   31;0;3155260669;CALI;VALLE DEL CAUCA;3;4;4007;2
31279441;ROSALBA ALVAREZ;DE P;vmpisciontti@yahoo.com;CL 18 # 2 - 12;0;3168766559;CALI;VALLE DEL CAUCA;1;1;0708;2
31279448;MARIA RESTREPO;DE S;notiene@notiene.com;CL 126 # 49 - 41 AP 302;0;3112141126;BOGOTA;BOGOTA D.C.;21;0;6613;2
31279488;NANCY NAVARRETE;SILVA;consiespecial@gmail.com;CL 1 B OE # 4 OE - 200 AP 502;0;3164979474;CALI;VALLE DEL CAUCA;0;2;6558;2
31279495;CRUZ D;CARVAJAL OSPINA;cruzcarvajal2011@hotmail.com;CL 14 OESTE # 24 D - 70 AP 402B UNRES MONTE LUGANO;0;3148934710;CALI;VALLE DEL CAUCA;0;4;3069;2
31279700;NANCY CARDOZO;CONDE;nacar801@hotmail.com;CR 79 # 13 B - 159 AP 801;0;3155073011;CALI;VALLE DEL CAUCA;27;0;8003;2
31279913;LUZ A;ERAZO ROSERO;erazo.luz@gmail.com;CR 4 D # 48 - 110;0;3136661064;CALI;VALLE DEL CAUCA;0;5;8074;2
31279978;ANGELY NUNEZ;CHAVEZ;notiene@notiene.com;CL 14 A OESTE# 55 - 175 CS 35 B PARC BE;0;3154132350;CALI;VALLE DEL CAUCA;5;0;9678;2
31280071;JOSEFINA BUSTILLO;PARDEY;josefinabustillopardey@gmail.com;VER La Bella FINCA La Karolina VIA Potosi;0;3008149953;CALARCA;QUINDIO;14;0;4015;2
31280144;LUZ M;ROJAS RESTREPO;dajupa@emcali.net.co;CL 55 AN # 2 AN - 107 AP 10403;0;3128432220;CALI;VALLE DEL CAUCA;6;0;3016;2
31280199;RESTREPO LOPEZ;RESTREPO LOPEZ;blancalrestrepo@hotmail.com;AV 4 A OES # 1 - 06;0;3122573632;CALI;VALLE DEL CAUCA;11;5;6069;2
31280352;MARIA ROSA;RIGLOVICS J;briglovics@cable.net.co;CR 2 D OESTE #12-94;0;3155501662;CALI;VALLE DEL CAUCA;15;5;2940;2
31280395;ESPERANZA GONZALEZ;B;esperanza_9g@hotmail.com;AV 6 DN # 38 N 201 AP 302 B  RESERVAS DE CHIPICHAPE;0;3108461543;CALI;VALLE DEL CAUCA;2;2;0872;2
31280406;AMPARO MEDINA;ALBAN;amparomedinaalban@gmail.com;CR 3A NO 4 - 08 OESTE CALI;0;3104275806;CALI;VALLE DEL CAUCA;20;0;5726;2
31280782;LILIANA NARANJO;MADRIGAL;liliananaranjo@hotmail.com;AV 9 # 51 - 27;0;3006119216;CALI;VALLE DEL CAUCA;26;5;2003;2
31280824;BLANCA V;GARRIDO VALENCIA;bvgarrido@hotmail.com;CR 54 A # 5 A - 21 CJ RINCON D;0;3155522690;CALI;VALLE DEL CAUCA;19;0;9018;2
31280862;MARIA H;JARAMILLO E;helenitajara@gmail.com;KM 26 FINCA LA DURANIA CRRGM BORRERO AYE;0;3177101998;DAGUA;VALLE DEL CAUCA;23;0;4521;2
31280883;MABEL ORTIZ;IMITOLA;mabel.ortiz@aerocivil.gov.co;AV EL DORADO # 103 - 15;0;3105084332;BOGOTA;BOGOTA D.C.;0;2;0043;2
31280920;BARBARA MELBA;CHAUX A;notiene@notiene.com;CL 71A # 8 N - 59 BR GUADUALES;0;3188448396;CALI;VALLE DEL CAUCA;18;5;1621;2
31281072;MARIA X;CALERO;ximenazca@gmail.com;CR 2 OE  # 10 - 20 AP 801 BR SANTA TERESITA;0;3148944476;CALI;VALLE DEL CAUCA;17;1;1879;2
31281162;AURELINA SILVA;GONZALEZ;notiene@notiene.com;CL 75 AN # 2 - 30;0;3122159362;CALI;VALLE DEL CAUCA;0;3;5275;2
31281407;JULIA ELVIRA;CHACON MELO;juliaelvira1956@hotmail.com;COLEGIO TOMAS CARASQUILLA;0;3164129397;BOGOTA;BOGOTA D.C.;22;4;1821;2
31281441;MARIA V;DE LIMA;mavirlima@gmail.com;CL 22 NTE  # 6 A N - 24;0;3155566333;CALI;VALLE DEL CAUCA;25;4;0047;2
31281472;AMPARITO GONZALEZ;A;amalgon54@hotmail.com;CL 51 # 11 D  - 24;0;3113587316;CALI;VALLE DEL CAUCA;23;0;1006;2
31281541;AMPARO VELASQUEZ;C;amparov12@hotmail.com;CR 57 # 3 - 57 AP 403;0;3127765839;CALI;VALLE DEL CAUCA;0;2;7934;2
31281617;ZENEIRE CADENA;DE CANTERA;zejac@yahoo.com;CR 142 # 18 A - 80;0;3154122362;CALI;VALLE DEL CAUCA;7;4;9008;2
31281670;LUZ VILLAMARIN;DE HERRAN;luz.villamarin@correounivalle.edu.co;CL 13 # 100 - 00;0;3117528232;CALI;VALLE DEL CAUCA;9;0;6830;2
31281866;MARIA C;GUZMAN CASTILLO;mariacrisguzman@hotmail.com;CL 17 # 86 - 82 AP 402 - D;0;3154453442;CALI;VALLE DEL CAUCA;20;0;3004;2
31281876;ALICE JANETH;BLUM G;myriamocampo@sameco.org;CL 70 # 2 AN - 620;0;3104288760;YUMBO;VALLE DEL CAUCA;20;0;4690;2
31282232;NANCY C;BERNAL GONZALEZ;nacebe4@hotmail.com;CR 85 C # 14 A - 116 AP 1001 T;0;3103951107;CALI;VALLE DEL CAUCA;5;3;6600;2
31282308;ELIZABETH RADA;ORTIZ;elirada@hotmail.com;CR 8 AN # 18 - 10;0;3108262883;CARTAGO;VALLE DEL CAUCA;23;5;6019;2
31282320;AMPARO DUENAS;S;amparo@amparoduenas.com;CL 83 # 5 - 57 AP 1305 TRR C BR ROSALES;0;3153128702;BOGOTA;BOGOTA D.C.;1;0;2692;2
31282368;SONNIA PEREZ;WEINBERG;soperez2@hotmail.com;CR 4 # 12 - 41 OF 811;0;3155080505;CALI;VALLE DEL CAUCA;10;5;4750;2
31282449;ELIZABETH HORMAZA;O;e.hormazaospina@hotmail.com;CL 3 OE # 56 - 350 CS 9;0;3113248046;CALI;VALLE DEL CAUCA;27;0;5138;2
31282518;PENA HERRERA;GLORIA;gmargarita.p@hotmail.com;CR 18 C # 118 - 22 AP 401;0;3000000000;BOGOTA;BOGOTA D.C.;0;5;6602;2
31282597;GLORIA ESTUPINAN;MENDEZ;glorisme@hotmail.com;CL 34 # 74 - 13;0;3154497311;CALI;VALLE DEL CAUCA;25;4;5972;2
31282663;MARIA ZAMBRANO;GOMEZ;zambranomaria03@gmail.com;CL 40  A # 59 - 16 BR CIUDAD 2000;0;3194704968;CALI;VALLE DEL CAUCA;1;0;7616;2
31282770;BERTHA L;CEBALLOS DE;berthalucia1824@hotmail.com;CR 15n 11b-05 FerreteriaUniversal;0;3012416695;CALI;VALLE DEL CAUCA;0;1;3170;2
31283240;LUZ DARY;FLOREZ DE;luzdaryflorez54@hotmail.com;CR 65 B # 13 B - 17 BOSQUES LI;0;3022947878;CALI;VALLE DEL CAUCA;8;0;2018;2
31283288;MARIA ELENA;RAMIREZ S;audiformacolombia@gmail.com;CL 9 # 44 - 56 AP 702B CJRES Torres de alicante;0;3108309360;CALI;VALLE DEL CAUCA;3;4;9169;2
31283511;CONSTANZA MARGARITA;HOYOS;conideromero@hotmail.com;CL 95 # 71-31 TORRE 4 APTO 1104  PORTERIA 2;0;3142453544;BOGOTA;BOGOTA D.C.;27;5;1925;2
31283621;YOLANDA DE;LA TORRE;notiene@notiene.com;CL 42 N # 3 CN - 150;0;3172556209;CALI;VALLE DEL CAUCA;9;0;0009;2
31283682;ESTHER AMERICA;PAZ M;eapazm@gmail.com;CR 5 # 73 - 82 AP 901;0;3155731233;BOGOTA;BOGOTA D.C.;20;0;2341;2
31283731;ELSA URREA;CALDAS;eurraca02@gmail.com;CL 14 A OES# 55 - 59 CS 11;0;3137327025;CALI;VALLE DEL CAUCA;0;2;1118;2
31283795;MARIA LUCIA;LLANO R;cristinallano55@msn.com;AV 10 A NORTE # 12 N - 36 TRR I AP 10-01;0;3168749856;CALI;VALLE DEL CAUCA;5;5;3686;2
31283975;MERCEDES OTERO;REYES;morconsultores@gmail.com;CL 5 E # 43 - 45 BR TEQUENDAMA;0;3162922767;CALI;VALLE DEL CAUCA;25;0;7589;2
31284036;GLADYS OLIVIA;TARAZONA;lilianlorenajurado@hotmail.com;CL 2 OESTE # 7 - 89 BR ALTOS DE NORMANDIA;0;3184567491;CALI;VALLE DEL CAUCA;18;5;7002;2
31284039;ARACELLY HERRERA;OSPINA;araherro@yahoo.com;CR 61  7  65 AP 211 B;0;3113245535;CALI;VALLE DEL CAUCA;25;0;1025;2
31284048;RUBY PIEDRAHITA;CUERVO;ruby_piedrahita@coomeva.com.co;CR 42 D # 52 - 53;0;3178002136;CALI;VALLE DEL CAUCA;3;0;0000;2
31284058;MARTHA HOYOS;CAJIAO;martha_fanny@yahoo.com;CL 14 A # 50-07 CS 6 CJRES LAS SUELAS DE LA 50 BR PRIMERO DE MAYO;0;3168207711;CALI;VALLE DEL CAUCA;18;3;1722;2
31284103;AMANDA ACEVEDO;MORALES;nomina@romulomontes.com.co;CL 61 A NTE  # 2 CN - 88 CS  BR LOS ALAMOS;0;3154525039;CALI;VALLE DEL CAUCA;1;0;6711;2
31284112;MARIA E;BETANCOURT R;mariaeugenia262@hotmail.com;CL 34 A NORTE # 2 B - 30;0;3008197077;CALI;VALLE DEL CAUCA;0;2;0582;2
31284135;BELARMINA BARONA;SANCHEZ;CONTABILIDAD@INELCA.COM.CO;CR 82 # 43 - 76;0;3166975179;CALI;VALLE DEL CAUCA;13;0;6368;2
31284266;CONSUELO RAMOS;ACEVEDO;consueloramos_acevedo@hotmail.com;AV 3 # 37 - 26 AP 101 TRR B;0;3174397691;CALI;VALLE DEL CAUCA;3;1;9180;2
31284453;LILIANA ABADIA;OSSA;lilianaabadiaossaq@hotmail.com;CR 111 # 22A - 250 CJRES HACIENDA ALFEREZ CS C1;0;3157799703;CALI;VALLE DEL CAUCA;11;0;7023;2
31284460;FANNY GOMEZ;RESTREPO;fannygomezr@yahoo.com;Cll 26 1-48 Ap 503 ed Baltia P Salguero;0;3157246984;SANTA MARTA;MAGDALENA;18;0;6003;2
31284495;NOHEMY BACALL;WIEDER;nohemybacall@hotmail.com;AVCR 22 # 37 - 26;0;3155920020;BOGOTA;BOGOTA D.C.;20;0;3017;2
31284623;MARIA F;MORA GOMEZ;notiene@notiene.com;CL 2 A # 64 D - 15 CS 22;0;3108411588;CALI;VALLE DEL CAUCA;25;0;2005;2
31284646;ADELAIDA;CHICA;sofiapiedrahita54@hotmail.com;CR 7 # 13 - 49;0;3158706056;LA TEBAIDA;QUINDIO;16;0;7016;2
31284857;BLANCA I;HINCAPIE ARANGO;isabel.hincapie.@hotmail.com;CR 68 # 16 - 07 AP 202 B BR LA HACIENDA;0;3122176872;CALI;VALLE DEL CAUCA;0;1;1250;2
31285076;NUBIA VICTORIA;REINA;nubeluz7@gmail.com;CR 48 BIS  # 12 - 71 PANAMERICANO;0;3155118397;CALI;VALLE DEL CAUCA;0;4;7947;2
31285313;MARIA RAMOS;DE BENVIDES;marisramos56@hotmail.com;CR 13  # 1 -79 OESTE;0;3172972032;CALI;VALLE DEL CAUCA;14;0;0458;2
31285344;MARIA MARGOTH;RIVERA V;rmargoth2003@yahoo.com;CL 75 CN # 2 A BIS - 63;0;3155015102;CALI;VALLE DEL CAUCA;10;0;5016;2
31285351;MARGARITA GUTIERREZ;DE R;margarita_gu@hotmail.com;CR 41 A# 45 - 44 BR ANTONIO NARINO;0;3117671858;CALI;VALLE DEL CAUCA;1;0;6075;2
31285395;CLARA INES;QUINTERO DE;quintero.claraines@gmail.com;AV 19 # 128 B - 66 CS 28 BR LA CALLEJA;0;3122598846;BOGOTA;BOGOTA D.C.;0;4;3928;2
31285447;ALBA BURBANO;TORRES;aldobuto@hotmail.com;CL 36AN # 2BN - 84 PRADOS DEL NORTE;0;3147921396;CALI;VALLE DEL CAUCA;14;0;6017;2
31285451;MARIA E;BOLANOS ARANA;mariae.bolanos@hotmail.com;CR 6 CL 9 Y 10 M 29;0;3148796557;CALI;VALLE DEL CAUCA;0;3;1991;2
31285725;LUZ DARY;PAREDES;lpludapa@gmail.com;CL 12 A # 23 A - 69 BR JUNIN;0;3166164943;CALI;VALLE DEL CAUCA;11;0;7945;2
31285877;ROSMIRA GARCIA;DE GALVIS;rossgarve8@hotmail.com;CR 69 # 14 - 46 UNRES HDA MZ 8;0;3148332822;CALI;VALLE DEL CAUCA;19;4;6314;2
31286053;MELBA SALAZAR;ZAPATA;balsilla@cable.net.co;CR 98 # 4 C - 246;0;3148979229;CALI;VALLE DEL CAUCA;15;4;9043;2
31286168;ROCIO CARDONA;BEDOYA;notiene@notiene.com;CL 61 NORTE # 3A - 80 BQ 8 AP 202 UN BALCONES DE CATALUÑA BR LA FLORA;0;3178863784;CALI;VALLE DEL CAUCA;5;0;8600;2
31286290;LUZ A;RENGIFO C;luzarengifocruz@hotmail.com;CL 10 # 4 - 47;0;3154529797;CALI;VALLE DEL CAUCA;0;3;7138;2
31286321;MARIA DEL;P SARRIA;DDIEGO2008@HOTMAIL.COM;CR 80 # 6 A - 60 AP 126 BL 8;0;3155424721;CALI;VALLE DEL CAUCA;19;0;5022;2
31286525;CIELO SAAVEDRA;R;cielo_saavedra_1@hotmail.com;AV 4 B NORTE # 58 - 62 AP 701- A CJRES PASEO REAL 2 BR LA FLORA;0;3128960925;CALI;VALLE DEL CAUCA;18;0;7019;2
31286573;MARIELA VINASCO;DE P;marielavinasco@gmail.com;CL 67 # 6 N - 85;0;3155559869;CALI;VALLE DEL CAUCA;26;0;3736;2
31286737;CARMEN ROSA;ARBOLEDA R;crarboledar@hotmail.com;CR 113 # 28 - 71 AP 302 BL A  CJRES PUNTA DEL ESTE CIUDAD  BOCHALEMA;0;3176424140;CALI;VALLE DEL CAUCA;23;4;9653;2
31286738;AMPARO MOLINA;NARVAEZ;amparomolina1@hotmail.com;CL 10A 39 42 BR DEPARTAMENTAL;0;3162561436;CALI;VALLE DEL CAUCA;19;0;5002;2
31286758;AURA L;CAICEDO BENAVIDES;aulicabe@hotmail.com;CL 2 A # 64 A - 15 CS 2 CJ CON;0;3155272640;CALI;VALLE DEL CAUCA;22;0;4016;2
31286793;PAULINA CAMPO;DE C;pcarvajal@planvisual.com.co;CL 9 # 48 81 OF 10  CENTRO PROFESIONAL PALMETO  CC PALMETO PLAZA;0;3155438874;CALI;VALLE DEL CAUCA;24;0;0192;2
31286951;LILIANA PAGANESSI;DE G;lpaganessi@telmex.net.co;AV 4 B OES # 3 - 91 BR NORMANDIA;0;3155763370;CALI;VALLE DEL CAUCA;26;0;8012;2
31287054;MARICELA ASTUDILLO;G;marastugo@gmail.com;CR 79 # 11 A - 54 BR CIUDAD CAPRI;0;3012558565;CALI;VALLE DEL CAUCA;1;0;8901;2
31287244;ALICIA VELASQUEZ;URIBE;alicevelasquez16@gmail.com;AV 5 OES# 5 - 330;0;3104932801;CALI;VALLE DEL CAUCA;22;0;4735;2
31287277;HILDA VESGA;CALA;hiveca@hotmail.com;CL 8 # 9 - 66 - NOTARIA PRIMERA BR CENTRO;0;3103411525;GARZON;HUILA;23;5;1007;2
31287464;AMPARO HOYOS;PENA;amparohoyosp@hotmail.com;CL 53 # 50 - 25 PS 1;0;3166296323;CALI;VALLE DEL CAUCA;0;3;9950;2
31287695;GLADYS RENGIFO;HERNANDEZ;notiene@notiene.com;CL 18 A # 56 - 20 AP Q  266 BR CA  AVERALES  4;0;3007423737;CALI;VALLE DEL CAUCA;26;0;4221;2
31287821;FRANCIA RENGIFO;DE M;franciarengifo24@hotmail.com;CL 17 A # 50 S  - 47;0;3175323779;JAMUNDI;VALLE DEL CAUCA;0;2;3220;2
31287854;ISABEL C;ROJAS GONZALEZ;isacris_ro@yahoo.com;CL 17 # 86 - 82  CJ TORRES DE SAN JOAQUIN 1  TRR F AP 404 BR SAN JOAQUIN;0;3155557813;CALI;VALLE DEL CAUCA;0;3;4248;2
31287910;ASCENETH;CIFUENTES C;notiene@notiene.com;AV 2 B # 44 A - 22 BR VIPASA;0;3148219275;CALI;VALLE DEL CAUCA;21;4;0005;2
31287987;NORALBA VASQUEZ;DE R;farodva3@hotmail.com;PARCELA CHORRO DE PLATA CS 172;0;3052228646;CALI;VALLE DEL CAUCA;0;1;0504;2
31288038;ELIZABETH ECHEVERRY;L;ELIZACHEVE1@HOTMAIL.COM;CR 60A # 11B - 31 AP 402A,;0;3154868680;CALI;VALLE DEL CAUCA;0;2;6985;2
31288071;ALICIA BARRERA;RENGIFO;nmayorb.@gmail.com;CL 18 A # 56 - 20 AP S - 576 BR LOS SAMANES;0;3104716283;CALI;VALLE DEL CAUCA;0;4;0184;2
31288156;LUZ STELLA;MUNOZ DIAZ;pachecon@telesat.com.co;CR 72 # 13 A - 56 AP 804 A BR QUINTAS DE DON SIMON;0;3217562682;CALI;VALLE DEL CAUCA;2;0;4976;2
31288322;MARIA AYALA;VALENCIA;notiene@notiene.com;CL 4 # 38 A - 07;0;3006127474;CALI;VALLE DEL CAUCA;24;4;2021;2
31288323;LUZ DARY;ARIZALA RUIZ;luzdaryarizala@hotmail.com;CL 1 A OE  # 66 B - 135 AP 502 B BR COLINAS DEL VIENTO;0;3105390490;CALI;VALLE DEL CAUCA;0;2;6404;2
31288371;MARIA C;QUINTERO DE;notiene@notiene.com;CR 101 # 11 - 55 AP 902 BR CIUDAD JARDIN;0;3178950692;CALI;VALLE DEL CAUCA;0;2;0004;2
31288507;LUZ REGINA;JIMENES PIMENTE;luzrjimenez@yahoo.es;CL 5 # 38-25 OF 502-503;0;3122580433;CALI;VALLE DEL CAUCA;10;0;9646;2
31288578;MARIA E;VALLEJO DE;mavabe.90@hotmail.com;CR 100 B # 11 A - 50  UNRES PLAZA CAMPESTRE I  AP 301 C BR CIUDAD JARDIN;0;3022875420;CALI;VALLE DEL CAUCA;27;0;7015;2
31288594;AMPARO GALLEGO;CARDONA;lagallegoc@gmail.com;CR 80 # 5 - 120 AP 317 VALLE DE LA FERREIRA UN 4;0;3104730060;CALI;VALLE DEL CAUCA;24;0;4002;2
31288879;ISABEL PELAEZ;DE LA;isabel.pelaez@gmail.com;CR 142 # 18A - 80 CS 21 CJRES BOSQUES DEL LAGO;0;3206749370;CALI;VALLE DEL CAUCA;17;0;0622;2
31288885;ADELAIDA M;AYERBE MUNOZ;mariadelsocorro_ayerbe@hotmail.com;AV COLOMBIA # 1 - 59 AP 402;0;3155859982;CALI;VALLE DEL CAUCA;0;5;1553;2
31288894;LILIANA HERNANDEZ;DE S;liliherva@gmail.com;CR 104 # 11 - 25 TRR 1 AP 602 ED PUERTA DE HIERRO BR CIUDAD JARDIN;0;3008101137;CALI;VALLE DEL CAUCA;4;5;6008;2
31288958;CARMEN SANTACRUZ;E;mela-129@hotmail.com;CR 83 # 6 - 50 AP 802 B;0;3165236044;CALI;VALLE DEL CAUCA;11;0;7550;2
31289062;NELSY R;JARAMILLO;nelsyrossana@gmail.com;CL   13C  68  90;0;0;CALI;VALLE DEL CAUCA;3;5;0001;2
31289153;MARIA I;ARISTIZABAL J;aristigatica@gmail.com;CL 12 A OESTE # 2A - 50 ED MONTJUIC AP 510;0;3136779500;CALI;VALLE DEL CAUCA;20;5;1007;2
31289170;LIBIA MARIA;LLANOS GARZON;libia.llanos@yahoo.es;CL 15 # 83 A - 10 AP 301 ED BONAIRE;0;3113005049;CALI;VALLE DEL CAUCA;19;0;1004;2
31289179;DORA L;MOLINA BARRIENTOS;riviera-2009@hotmail.com;CR 15# 10 - 02 ED SANTA MARIA AP 302 BR;0;3164802316;PEREIRA;RISARALDA;0;5;2398;2
31289390;GLORIA VILLA;ALVAREZ;gloriavillaalvarez@yahoo.com;CR 3 A OE # 5 - 86 BR ARBOLEDAS;0;3183397395;CALI;VALLE DEL CAUCA;1;0;5137;2
31289424;GLORIA SOLANILLA;DE V;notiene@notiene.com;AV 9N # 7-27 AP 802 ED ALTOS DE LA PLAZUELA;0;3148887873;CALI;VALLE DEL CAUCA;7;1;1004;2
31289484;MARIA E;SANCHEZ ESTRADA;meses@une.net.co;CL 6 SUR # 43 A - 200 OF 1609 ED LUGO B;0;3113241338;MEDELLIN;ANTIOQUIA;19;0;9330;2
31289660;LILIANA ESTEVEZ;RIVERA;lilianaestevez7@hotmail.com;CL 16 # 53 - 51 AP E -203 BR SAMANES DE GUADALUPE;0;3166201760;CALI;VALLE DEL CAUCA;1;0;2174;2
31289718;MABEL VALDERRAMA;BONILLA;mabelrai@hotmail.com;CR 24 D # 6 - 190 OE  AP 201;0;3162827791;CALI;VALLE DEL CAUCA;24;4;8864;2
31289762;LILIAN HELENA;JENSEN M;lilian.h.jensen@gmail.com;AV 4 # 4 N - 46;0;3207889748;CALI;VALLE DEL CAUCA;25;0;5887;2
31290109;MARIA APONTE;DE MORENO;mariomoreno6224@hotmail.com;CR 33 # 29 - 75 BR SAN CARLOS;0;3225443500;CALI;VALLE DEL CAUCA;2;0;6375;2
31290145;ROSA M;DE ARBELAEZ;manyi28@hotmail.com;CL 6 OE # 4 OE - 210 ED PORTEON DE LA CEIBA AP 802;0;3155748146;CALI;VALLE DEL CAUCA;23;0;3847;2
31290194;NIDIA R;GIRALDO DIAZ;nigidi27@hotmail.com;CR 68 # 13 E - 93;0;3147821957;CALI;VALLE DEL CAUCA;9;0;1603;2
31290216;CLAUDIA CHACON;GONZALEZ;claudia.patricia.777@hotmail.com;CL 66 # 1 A - 10 91;0;3127940263;CALI;VALLE DEL CAUCA;13;0;0011;2
31290285;LUZ S;RIVERA RODAS;Panantra06@hotmail.com;CARRERA 57 # 11A - 50 APTO 303;0;3107070470;CALI;VALLE DEL CAUCA;10;0;5007;2
31290417;NIDIA VEGA;DE MAESTRE;notiene@notiene.com;CL 15 # 63-01 BQ 60 AP 503 ET 2 UNIDAD LIMONAR;0;3162983079;CALI;VALLE DEL CAUCA;4;0;8009;2
31290462;TERESITA NARVAEZ;SOLARTE;dis_cosasricas@hotmail.com;CR 74 # 6 - 16 BR CAPRI;0;3154997134;CALI;VALLE DEL CAUCA;8;1;0763;2
31290541;PASTORA ECHEVERRY;DE C;pec99@hotmail.com;CR 102 # 11 - 45 AP 801 TO I;0;3158995248;CALI;VALLE DEL CAUCA;22;0;6924;2
31290627;ANA M;ORDONEZ MOSQUERA;anamilenaordonez@yahoo.com;CL 7 OES # 2 - 116 AP 101;0;3155570545;CALI;VALLE DEL CAUCA;0;5;9450;2
31290802;VICTORIA SINISTERRA;M;sinis56@hotmail.com;CL 4 OE  # 25 AP 1002;0;3147909561;CALI;VALLE DEL CAUCA;28;0;1430;2
31290806;CLEMENCIA GUZMAN;DE LA;clemenciaguzman@hotmail.com;AV 3 OESTE NO 13-86 APTO 502;0;3108259922;CALI;VALLE DEL CAUCA;13;0;6016;2
31291003;MARLENE TELLO;O;mateo.mto@gmail.com;DG 23# 17 A - 12 BR SANTA ELENA;0;3154678003;CALI;VALLE DEL CAUCA;0;1;9300;2
31291140;LILY SALGUERO;MARTINEZ;lsaguero@noti5.tv;CR 38 D # 4 - 25 BR SANTA ISABEL;0;3104147527;CALI;VALLE DEL CAUCA;17;0;4583;2
31291530;MARIA B;GIRALDO PEREZ;beatriz.g1956@hotmail.com;CR 68 # 16 - 07 PORTON DE  ASTURIAS AP 203 E;0;3155670058;CALI;VALLE DEL CAUCA;24;0;5023;2
31291821;ANA EMILIA;ZUNIGA V;aezuniga@zetco.net;AV COLOMBIA # 1 A - 30 OES;0;3155892228;CALI;VALLE DEL CAUCA;0;4;2473;2
31291832;NELLY QUINTERO;FALLA;nequisa@hotmail.com;CR 10 A # 58 - 53;0;3164433073;CALI;VALLE DEL CAUCA;25;0;5233;2
31291961;ALICIA CEBALLOS;DE B;aliceballos@gmail.com;CL 28N # 6Bis - 15 AP 602;0;3006523479;CALI;VALLE DEL CAUCA;14;0;7007;2
31292011;MARINA GOMEZ;DE G;antojitosvallunos@hotmail.com;CR 35 # 45 - 14;0;3173777672;VILLAVICENCIO;META;0;5;5769;2
31292141;LUZ DOLLY;CARO GOMEZ;ldollyc@yahoo.com;CR 39 # 13B - 46 AP 304  6   ALAMBRADA IV BR GUABAL;0;3007840820;CALI;VALLE DEL CAUCA;0;2;4952;2
31292142;CLARA INES;CORTES;ccortesj55@hotmail.com;CR 4 # 7 - 61 PS 11;0;3004338709;CALI;VALLE DEL CAUCA;19;4;0460;2
31292357;ANA MIREYA;CASTRO A;anacastro1985@live.com;CL 9 C BIS # 28 - 35;0;3217310600;CALI;VALLE DEL CAUCA;3;3;8512;2
31292458;NIDIA RAMIREZ;CORREA;nidiaramirez1301@hotmail.com;CL 62B # 1A6 - 185 AP 3G53 SEC 7 BR chiminangos 2;0;3006033543;CALI;VALLE DEL CAUCA;0;5;0705;2
31292625;ESNEDA;CASTRILLON;esnedacasati@hotmail.com;CR 7 H BIS # 76 - 12;0;3155236383;CALI;VALLE DEL CAUCA;23;0;9110;2
31292667;CARMEN VALENCIA;G;nene_mejia@yahoo.com;CR 37 OE  # 1 - 25 AP 501 B BR LOS CRISTALES;0;3155762944;CALI;VALLE DEL CAUCA;22;0;3328;2
31292916;MYRIAM PRIETO;CORTES;myriampto@yahoo.com;CR 83 C1 45-18  BR PALMERA REAL II;0;3008003977;CALI;VALLE DEL CAUCA;23;0;1911;2
31292948;NHORA DEL;C OSORIO;osorioangel2706@hotmail.com;CALLE 14D  44 22 LAS GRANJAS;0;3113950259;CALI;VALLE DEL CAUCA;21;0;5067;2
31292979;LUZ DAISY;GUERRERO V;patade10@hotmail.com;CR 1F NO 58 - 50 AP 506A NO REGISTRA;0;3167515378;CALI;VALLE DEL CAUCA;12;0;9003;2
31293545;JOSEFINA OBANDO;DUENAS;chin157@hotmail.com;CR 4 A # 55 - 42 AP 601 B BR CHAPINERO ALTO;0;3003676820;BOGOTA;BOGOTA D.C.;22;0;0016;2
31293613;MARIA NELLY;GONZALEZ U;notiene@notiene.com;CR 1 # 24 - 56 OF 712;0;3155511724;CALI;VALLE DEL CAUCA;24;4;7357;2
31293717;CLAUDIA MERIZALDE;E;clanase@gmail.com;CR 15 # 15 - 105 GUAYAC 22;0;3203460214;CHIA;CUNDINAMARCA;17;0;0611;2
31293763;NANCY LOPEZ;CARDENAS;nlopezcardenas@gmail.com;CR 100B # 11 - 20  APT 1001 TR A  CJUNTO GOL CLUB   BR  CIUDAD CAMPRESTRE;0;3155736530;CALI;VALLE DEL CAUCA;0;2;4897;2
31294063;SONNIA YANGUAS;ARAGON;lachiqui57@gmail.com;CR 35 A # 11 B OESTE 288 ED CRISTALLO TR A AP 301;0;3164459177;CALI;VALLE DEL CAUCA;2;0;6247;2
31294069;FLORENCIA DELGADO;OTERO;chelo0206@hotmail.com;CR 47 # 2 A - 75 TRR D AP 202 BR LIDO;0;3154905907;CALI;VALLE DEL CAUCA;17;2;7390;2
31294088;ANA MILENA;LORZA DE;amilo39@yahoo.com.ar;AV 6 A NOR # 38 - 60 AP 714;0;3013050286;CALI;VALLE DEL CAUCA;1;1;4210;2
31294209;RUTH MARINA;VILLARREAL B;mvillareal@hotmail.com;CL 18 # 41 C - 72 PS 2;0;3166220187;CALI;VALLE DEL CAUCA;0;4;9219;2
31294306;OLGA LUCIA;GAMBOA TASAMA;oscarlucy2004@yahoo.com;CL 9 # 42-130 B/LosCambulos  multfamiliarloscerezos APT202;0;3155612900;CALI;VALLE DEL CAUCA;20;3;4002;2
31294340;SONIA GONZALEZ;DE BARRERA;soniagonzalez05@gmail.com;CL 113# 51 - 29 BR ALHAMBRA;0;3208378901;BOGOTA;BOGOTA D.C.;18;0;6248;2
31294369;CARMEN ORTEGA;R;carmenortega0413@hotmail.com;CL 28 # 86 - 70 TRR 3 AP 210  CJ MANZANARES DE LILI  BR VALLE DE LILI;0;3122298581;CALI;VALLE DEL CAUCA;27;5;3006;2
31294426;DORIS CASTRO;VALLEJO;puertaycastro@puertaycastro.com;AV 5 C NTE  # 23 D - 04 OF 301 ED AVENDA ESTACION;0;3148887071;CALI;VALLE DEL CAUCA;25;0;8338;2
31294500;GLORIA INES;LASSO AGUAYO;lassoaguayo38@gmail.com;KM 7 VIA ARMENIA CONDM LAS CABAÑAS CS 4 VER TRIBUNAS;0;3004942470;PEREIRA;RISARALDA;0;5;5626;2
31294526;NANCY OCHOA;MARIN;nancyochoamarin@hotmail.com;CR 11 # 12 - 67;0;3135428276;CALI;VALLE DEL CAUCA;22;5;4004;2
31294558;PIEDAD CONCHA;VALENCIA;piedad_concha@yahoo.es;CL 13 C # 70 - 87 AP 303 B 3;0;3136916808;CALI;VALLE DEL CAUCA;23;0;9008;2
31294568;LUISA CONCHA;VALENCIA;conchita.lu@hotmail.com;CL 58 # 5 N - 80;0;3104913487;CALI;VALLE DEL CAUCA;26;0;8018;2
31294646;ALICIA JARAMILLO;B;pedrobaquita@yahoo.ca;CR 60 A # 2 A - 167 BR PAMPALINDA;0;3173470898;CALI;VALLE DEL CAUCA;27;0;4604;2
31294876;MARTHA L;CADAVID B;marthaluciacadavidb11@gmail.com;CL 14 OESTE # 2 B1 -45 AP 701B  CJRES TERRAZAS DE SANTA  TERESITA;0;3155758352;CALI;VALLE DEL CAUCA;27;0;0581;2
31294974;MARTHA L;POLO BUSTAMANTE;marlupobus@gmail.com;CR 21# 9 E - 63 BR BRETAÑA;0;3146291643;CALI;VALLE DEL CAUCA;4;0;3725;2
31295038;MARIA N;HERRERA MEJIA;sindamanoy1@hotmail.com;CL 62# 1 A - 21 AP 522 TRR 6  VILLA DEL;0;3007402020;CALI;VALLE DEL CAUCA;26;0;4191;2
31295071;GLORIA LIBREROS;CAICEDO;notiene@notiene.com;AV COLOMBIA # 2 - 33 OE;0;0;CALI;VALLE DEL CAUCA;20;0;3004;2
31295119;MARTHA MEDINA;FERNANDEZ;marlume@gmail.com;CL 1 B # 55 - 02 AP 601 A BR EL SEMINARIO;0;3137205026;CALI;VALLE DEL CAUCA;11;0;8029;2
31295209;LILIANA CALERO;DE C;tialili21@hotmail.com;CL DE LA ESCOPETA CASA # 1;0;3168302461;CALI;VALLE DEL CAUCA;20;0;6005;2
31295631;ADRIANA HOLGUIN;RAMOS;holguinadriana@gmail.com;CL 4# 27 - 79;0;0;CALI;VALLE DEL CAUCA;4;0;8544;2
31295683;LOZANO BOYA;LIGIA MARLEN;ligialozano@hotmail.com;CR 17 A# 127 - 71 IN 3 BR CALLEJA ALTA;0;3153893200;BOGOTA;BOGOTA D.C.;0;4;7313;2
31295778;MARIA ELENA;BONELL G;me.bonell@harineradelvalle.com;CR 1 A # 47 - 20;0;3183675387;CALI;VALLE DEL CAUCA;8;5;7008;2
31295848;MYRIAM CABAL;SATIZABAL;azcarive@emcali.net.co;CL 8 # 3 - 14 OF 1104;0;0;CALI;VALLE DEL CAUCA;19;0;2700;2
31296008;LUZ STELLA;MESA LEMA;chiquimele@hotmail.com;KM 3 LA BUITRERA PORTERMA  CEM;0;3136575226;CALI;VALLE DEL CAUCA;28;0;0011;2
31296027;PATRICIA FERNANDA;ZEA;patriciazeas@hotmail.com;CR 43 A # 5 C - 105;0;3118822560;CALI;VALLE DEL CAUCA;8;0;7821;2
31296680;MARIA PINO;TABARES;lic.consuelopino@hotmail.com;CL 44 # 26 L - 18  BR NUEVA FLORESTA;0;3174375553;CALI;VALLE DEL CAUCA;25;0;7004;2
31296803;LUZ DARY;BARONA C;notiene@notiene.com;CL 5 DG 50 # D 50 - 28;0;3162893755;CALI;VALLE DEL CAUCA;0;5;0530;2
31297137;MARIA GARZON;RAYO;mpgarzon@hotmail.com;CR 46 1 54 AP126;0;3155855298;CALI;VALLE DEL CAUCA;15;4;3124;2
31297183;ALICIA I;CONCHA S;aliciaconcha113@gmail.com;CR 38D # 4B - 36 BR SANTA ISABEL;0;3016582113;CALI;VALLE DEL CAUCA;0;3;5990;2
31297334;NELLY PELAEZ;M;nellypelaez57@gmail.com;CL 19 N #5-N-16 APT 501  INDIA CATALINA;0;3137444343;CALI;VALLE DEL CAUCA;0;5;8727;2
31297367;MARGARITA DIAZ;AGREDO;natazapata1@hotmail.com;CAM TRR ALCALDIA PS 16;0;3158633846;CALI;VALLE DEL CAUCA;0;3;1003;2
31297391;SONIA MOLINA;DE RESTUCCI;lamoli1929@hotmail.com;CL 27 # 10 - 22;0;3108498265;CALI;VALLE DEL CAUCA;17;0;5988;2
31297403;LUZ MARINA;CASTILLO V;lacastillo@emcali.com.co;CR 85 B # 28 - 13;0;3122591659;CALI;VALLE DEL CAUCA;2;0;2546;2
31297576;LUZ MARINA;MEDINA VELEZ;lm_medinaluz@yahoo.com.mx;CR 37 A # 3 BIS  - 19 BQ 1 AP 202 BR SANTA ISABEL;0;3145267703;CALI;VALLE DEL CAUCA;1;0;5097;2
31297756;CLARA INES;PORRAS ABADIA;ciporras60@gmail.com;CR 39 # 5 A - 77;0;3014302328;CALI;VALLE DEL CAUCA;2;2;1177;2
31297783;LUZ MARINA;ARCILA TORRES;mariarcila@hotmail.es;CL 32 A # 13 A - 56;0;3106184836;BOGOTA;BOGOTA D.C.;23;3;2020;2
31297952;MARIA RENDON;QUINTERO;maria.eugenia.rendon@hotmail.com;CL 13 A # 76 - 21 AP 212 BR  QUINTAS DE DON SIMON;0;3165341989;CALI;VALLE DEL CAUCA;2;0;9660;2
31298072;YOLANDA MIRANDA;LABRADA;YMIRANDA@INGENIOLACABANA.COM;CLL 1  47 15  BLOQ  B  APTO 403  DORADO;0;3006100977;CALI;VALLE DEL CAUCA;19;0;2000;2
31298081;PIEDAD BONILLA;MOSQUERA;piebon54@gmail.com;CR 101 A 19-40 TRR 3 APTO 709;0;3185923090;CALI;VALLE DEL CAUCA;3;2;9213;2
31298178;INES ROJAS;CLAROS;notiene@notiene.com;CL 56 #5N-22 FLORA INDUSTRIAL;0;0;CALI;VALLE DEL CAUCA;23;0;1600;2
31298278;MARIA P;VELEZ VALENCIA;mapive_918@hotmail.com;CL 26 # 83 C - 40 CS 10 B CJRES ROSEAL D;0;3182932729;CALI;VALLE DEL CAUCA;3;4;3003;2
31298292;LADY PATRICIA;MAYA C;lapama99@hotmail.com;CR 117 # 9 - 67 ED LA ESCALA AP 103B BR CIUDAD JARDIN;0;3206768014;CALI;VALLE DEL CAUCA;25;0;9973;2
31298297;KHOURY LIAN;LEYLA;notiene@notiene.com;CL 52 # 3 - 80;0;3155742633;CALI;VALLE DEL CAUCA;0;5;0518;2
31298347;MARIA CECILIA;ANGEL G;mayeangelgomez@yahoo.com;COLEGIO BOLIVAR;0;3103898688;CALI;VALLE DEL CAUCA;21;0;7722;2
31298528;LUZ MARINA;CASTILLO G;lcastillo@bancodeccidente.com.co;CR 68 # 13 B - 61 AP 403 F;0;3188274961;CALI;VALLE DEL CAUCA;0;3;3760;2
31298537;ELIZABETH VELASQUEZ;VERA;elivelasquez0201@gmail.com;CL 6 A  61  120 AP 204 B NO REGISTRA;0;3166217974;BOGOTA;BOGOTA D.C.;0;1;2055;2
31298921;IBETH TENORIO;TORRES;ivette_te@yahoo.es;CL 12 A # 50 - 25 AP 104 B UN PQ 50;0;3108393852;CALI;VALLE DEL CAUCA;3;0;7072;2
31299006;ESPERANZA ROSALES;DE G;esperanzarosales1@hotmail.com;AV 8 NORTE # 25 N - 159 BR SANTA MONICA RESIDENCIAL OF PACTO INMOBILIARIO;0;3137749507;CALI;VALLE DEL CAUCA;0;2;4943;2
31299053;ANA M;MADRINAN I;anitamadrinan@gmail.com;CR 4 OESTE  # 7 - 101  AP 202  CJ BELLA VISTA  BR ALTO DE ARBOLEDA,;0;3185007186;CALI;VALLE DEL CAUCA;0;3;7702;2
31299055;GLORIA MIRYAM;PATINO DE;jefe_contable@rxsa.co;CR 101 # 11 - 35  APT 701;0;3217015559;CALI;VALLE DEL CAUCA;24;0;9428;2
31299111;MARIA TORO;RODRIGUEZ;mariaro125@yahoo.com.co;AV 5 OES # 5 - 330 AP 502;0;3173313805;CALI;VALLE DEL CAUCA;28;3;7022;2
31299248;GLORIA I;JARAMILLO LOPEZ;gloriainesjara2@hotmail.com;CL 1 OE # 1 - 11 AP 601 ED EL MIRADOR D;0;3006187137;CALI;VALLE DEL CAUCA;3;3;7005;2
31299470;SORAYA LLANOS;V;sllanosv@hotmail.com;CR 13 # 70 - 51 PS 2 BR 7 DE AGOSTO;0;3136689329;CALI;VALLE DEL CAUCA;0;5;5876;2
31299488;ROSA EMILIA;POTES SEGURA;rosapotes1@hotmail.com;CR 40 A # 32 A - 59  BR CIUDAD MODELO;0;3155786459;CALI;VALLE DEL CAUCA;0;2;2794;2
31299516;LUZ M;GUTIERREZ HENAO;luzmagutierrez@emcali.net.co;CR 35B # 15 - 120 BG 15;0;3165238136;YUMBO;VALLE DEL CAUCA;19;3;7001;2
31299725;GRACIELA MAFLA;BOHORQUEZ;gmaflab@gmail.com;CL 62A 1 BIS 91 AP404 BL 9;0;0;CALI;VALLE DEL CAUCA;0;3;0434;2
31300291;CLARA I;LLANO JARAMILLO;semillaja@hotmail.com;CL 6 A # 61 - 109;0;3127073214;CALI;VALLE DEL CAUCA;0;3;0041;2
31300395;MIRYAM;COLORADO;miryanc216853@hotmail.com;CR 84 # 5 - 83;0;3162320615;CALI;VALLE DEL CAUCA;14;2;3121;2
31300409;LUZ MIRIAM;BURBANO;luzmiriamb@hotmail.com;CR 83 # 13a1 - 22 AP 508 ED park avenium;0;3104023620;CALI;VALLE DEL CAUCA;3;0;3007;2
31300488;GLORIA RODRIGUEZ;J;notiene@notiene.com;CL 4 OE # 1 - 25 AP 602 ED KORINTIOS BR EL PENON;0;3173673860;CALI;VALLE DEL CAUCA;0;4;8964;2
31300509;NANCY QUINTERO;PEREZ;NANCYQP6@HOTMAIL.COM;CARRERA 17 B  NO 18  63 0 0;0;3136453254;CALI;VALLE DEL CAUCA;8;0;6028;2
31300528;BEATRIZ H;TRUJILLO R;btrujillo@colegiobolivar.edu.co;CL 5 # 122 - 21 VIA PONCE;0;3175010062;CALI;VALLE DEL CAUCA;2;0;1303;2
31300749;PATRICIA GALARZA;C;patrigal65@hotmail.com;CR 53 # 11 A 71 AP 303 A BARRIO SANTA ANITA;0;3007922969;CALI;VALLE DEL CAUCA;8;0;4008;2
31300763;OLGA CECILIA;GARAY MENDEZ;olgaraym2@hotmail.com;CR 37 BIS  # 1 A - 49 AP 503 C BR SANTA ISABEL;0;3173833742;CALI;VALLE DEL CAUCA;0;1;0763;2
31301050;ANA ELVIRA;GONZALEZ G;anagonzalezgallego22@hotmail.com;CL 1 B OESTE # 4 A 201  AP 803 TRR A CONJ CIERRA  DE NORMANDIA BR NORMANDIA;0;3128203485;CALI;VALLE DEL CAUCA;23;0;8706;2
31301339;ELIZABETH PADILLA;PEREZ;elizabethpadilla50@yahoo.com;CR 40# 4 - 30 CS E 10;0;3104368760;CALI;VALLE DEL CAUCA;9;4;5064;2
31301373;ADELINA HUERTAS;GARCIA;nenah125@hotmail.com;AV 4 # 23 BN - 22;0;3113288449;CALI;VALLE DEL CAUCA;27;5;8004;2
31301681;ALICIA GIRALDO;REINA;alicia_lina_andres@hotmail.com;CR 1 B # 54 A - 39 AP 4 - 103;0;3117027094;CALI;VALLE DEL CAUCA;3;0;8975;2
31301759;MARIELA VALENCIA;DE R;producirinmobiliaria@hotmail.com;CL 18 # 69 - 100  301 C BR LA HACIENDA;0;3166280974;CALI;VALLE DEL CAUCA;28;3;6525;2
31301779;CARMEN ELENA;VALENCIA GARC;carmencitavalencia2010@hotmail.com;CL 55 # 1 E - 121 BR LOS A;0;3162522439;CALI;VALLE DEL CAUCA;0;4;8428;2
31302031;LUZ A;VARGAS ESCOBAR;gerencia@pto19.com;CR 117 # 11 A - 175 CS 6  ALTOS DE UMBRIA 2 BR PANSE;0;3116320170;CALI;VALLE DEL CAUCA;0;1;0992;2
31302134;ROCIO LIBRADA;MEDINA L;rocimeliza@hotmail.com;CR 125 # 16 A - 70;0;3148116857;CALI;VALLE DEL CAUCA;26;3;0011;2
31302487;MARIA N;PLAZAS G;ruben.rayo@hotmail.es;CR 73 B # 1 C - 04;0;3103982433;CALI;VALLE DEL CAUCA;0;5;6398;2
31302516;LILIANA REYES;DE MUNERA;nanamunera24@gmail.com;CR 13 B # 4 B S - 190;0;3104420590;MEDELLIN;ANTIOQUIA;24;1;1597;2
31302876;MARINA DEL;PILAR DIAZ;mpilardiazs@gmail.com;AV 5 CN # 48 - 60;0;3174395229;CALI;VALLE DEL CAUCA;11;1;0003;2
31302995;GLORIA;ISAZA;notiene@notiene.com;CR 84 # 15 - 20 BR EL INGENI;0;3234676769;CALI;VALLE DEL CAUCA;4;0;7182;2
31303174;ELSA GARCIA;R;notiene@notiene.com;AV 5 OESTE # 5-145 AP C5 BR NORMANDIA;0;0;CALI;VALLE DEL CAUCA;0;4;8447;2
31303219;ALBA L;MONTOYA M;notiene@notiene.com;CL 53 # 12 - 34 BR VILLA COLOMBIA;0;3137625581;CALI;VALLE DEL CAUCA;0;4;0080;2
31303508;OFFIR GOMEZ;GARCIA;rodrigocarrillo53@hotmail.com;CL 42 # 83 A - 29;0;3146819898;CALI;VALLE DEL CAUCA;0;5;6578;2
31303563;MARIELA ASTUDILLO;A;marielaastu2009@hotmail.com;CR 46 A # 13 - 53 BR SANTO DOMINGO;0;3138656697;CALI;VALLE DEL CAUCA;11;0;8018;2
31303601;EUGENIA CARDENAS;FRANKY;luzeu28@hotmail.com;CR 12 # 145 - 17 AP 901 ED PALATINO II BR CEDRITOS;0;3204915252;BOGOTA;BOGOTA D.C.;27;2;3317;2
31303807;ELIZABETH TORO;DE LEMOS;julilemos@hotmail.com;CL 14 OE  # 2 D - 04 AP 904  UNRES BALCONES DE SANTA  TERESITA BR SANTA TERESITA;0;3007773894;CALI;VALLE DEL CAUCA;8;3;0007;2
31304285;MARTHA LUZ;TURBAY HIGUERA;martaluz57@hotmail.com;CR 38 # 51 - 59;0;3124822981;BUCARAMANGA;SANTANDER;0;3;0848;2
31304426;MARIA V;MATURANA BECHARA;mvictoriam2722@hotmail.com;CR 53 # 14C - 31 AP 402F CJRES GRATAMIRA K BR EL LIMONAR;0;3173730899;CALI;VALLE DEL CAUCA;28;5;3255;2
31304486;FABIOLA NUNEZ;SUAREZ;fosia0222@hotmail.com;CONDM SOL MORADA III Y IV BR LA MORADA;0;3155518753;JAMUNDI;VALLE DEL CAUCA;0;3;6052;2
31304611;MARTHA INES;DUQUE H;notiene@notiene.com;CL 40 N #6 AN - 144 TR F AP801  BALCONES CHIPICHAPE;0;3117644157;CALI;VALLE DEL CAUCA;19;0;9218;2
31304695;PATRICIA CHACON;CARDOZO;patry.chacon@gmail.com;CR 105 # 11 - 56 AP 202 TO 4;0;3155640716;CALI;VALLE DEL CAUCA;0;5;0273;2
31304728;LUZ MARINA;VELASQUEZ V;luzmv2@hotmail.com;CL 6 # 114 - 170 AP 203B CJRES REMANSO DE LA COLINA PANCE;0;3155392185;CALI;VALLE DEL CAUCA;14;0;8761;2
31304936;NELSY MARIA;DUQUE T;notiene@notiene.com;AV 2 # 7 N - 55 OF 603;0;3155250831;CALI;VALLE DEL CAUCA;17;0;2011;2
31304989;TERESA BERNA;MACIAS;terebern@hotmail.com;CL 18 # 69 - 100 AP 604 TRR A;0;3147638748;CALI;VALLE DEL CAUCA;0;5;7062;2
31305135;CLAUDIA KATHERINE;CANAR;katherinc10@gmail.com;CL 13 A 1 # 70 - 61 AP 103 TRR D QUINTAS DE DON SIMON;0;3155651444;CALI;VALLE DEL CAUCA;8;0;4170;2
31305204;YURI L;MEDINA RIVAS;ymedinar@bancodeoccidente.com.co;CR 4 # 7 - 61;0;3156017499;CALI;VALLE DEL CAUCA;7;0;2356;2
31305291;IVONNE L;PIEDRAHITA C;ilpiedra@hotmail.com;CL 28 # 85 - 36 AP 303 TRR 4 BR URBANIZACION LOS ROBLES - EL CANEY;0;3168766494;CALI;VALLE DEL CAUCA;7;3;4004;2
31305343;ALEJANDRA QUINTERO;S;ALLYA2024@YAHOO.COM;CL 2DA # 116-650 BR PANCE;0;0;CALI;VALLE DEL CAUCA;13;0;9769;2
31305673;GUIOMAR ALVAREZ;GARCIA;segicolombia@gmail.com;CR 4# 41 - 31;0;3176750439;CALI;VALLE DEL CAUCA;0;2;8897;2
31305991;LINA V;VASQUEZ V;LVasquez@bancodeoccidente.com.co;CL 69 # 4 C - 73 BR SANTA BARBARA;0;3104037793;CALI;VALLE DEL CAUCA;0;4;7788;2
31306063;DIANA X;ARIAS ZULETA;ximearias4@hotmail.com;CL 18 A # 50 - 97 TRR 10 AP 501;0;3162594595;CALI;VALLE DEL CAUCA;3;0;2787;2
31306115;CAROLINA REYES;B;karolrey9@gmail.com;CR 94 # 34 - 55 CJ BALCONES DE LILI AP 103F BR VALLE DE LILI;0;3158767651;CALI;VALLE DEL CAUCA;0;3;5867;2
31306145;LILIANA CLEVES;VARELA;liliana4103@hotmail.com;CL 72 F # 3 N - 95;0;3167479197;CALI;VALLE DEL CAUCA;1;1;8911;2
31306451;DIANA MARCELA;MORALES M;dianamar2084@hotmail.com;CL 70 A # 1 i BIS  - 30 BR LA RIVERA ET 1;0;3186700797;CALI;VALLE DEL CAUCA;3;0;5291;2
31306545;LAURA JAIMY;HERNANDEZ E;laurahernandez_2011@hotmail.com;CR 1 E# 14 A - 52 BR HUMARIZAL;0;3192332176;LETICIA;AMAZONAS;0;1;9667;2
31306593;ANGELA CARMEN;RIOS;akela21@gmail.com;CR 41 # 5 A - 17  TEQUENDAMA;0;3184889471;CALI;VALLE DEL CAUCA;1;0;4896;2
31306613;LADY Y;GUTIERREZ MORENO;leidy403@hotmail.com;CL 46 # 111 - 59 BQ 2 AP 511;0;3113729210;CALI;VALLE DEL CAUCA;2;0;5138;2
31306671;MONICA BURBANO;BERNAL;monikaburbano@gmail.com;CR 1 A 13 # 72 - 07 BR SAN LUIS;0;3168326373;CALI;VALLE DEL CAUCA;2;0;3159;2
31306773;MONICA JULIE;CALDAS ZEA;mcaldas@bancodeoccidente.com.co;CL 14 # 22 - 41;0;3187946358;CALI;VALLE DEL CAUCA;1;0;6766;2
31306783;LADY V;MEJIA U;ladyvi.mejia@gmail.com;CR 5 # 12 - 42;0;3154280695;CALI;VALLE DEL CAUCA;0;3;0595;2
31306787;MARCELA OROZCO;ALVAREZ;marcela__84@hotmail.com;CR 4 # 7 - 61;0;3108204740;CALI;VALLE DEL CAUCA;0;3;0933;2
31307011;CAROLINA LEITON;SANCHEZ;c_leitons@hotmail.com;CL 26 NTE  # 6 N - 46 LC 101;0;3176693454;CALI;VALLE DEL CAUCA;1;1;9679;2
31307293;LADY AZCUNTAR;DURAN;askuntar@yahoo.com;CR 42 BIS  # 13 C - 59;0;3127089815;CALI;VALLE DEL CAUCA;2;0;7269;2
31307313;PAOLA LUCUMI;GONZALEZ;gonzalezp_2284@hotmail.com;CR 9 # 12 - 141 SENA;0;3176954547;CARTAGO;VALLE DEL CAUCA;2;1;4041;2
31307832;KATHERINE FIGUEROA;B;k-aty03@hotmail.com;CL 3 OESTE # 56 - 350 CONDM CAMPESTRE ALTOS DE GUADALUPE CS 83 BR SEMINARIO;0;3183413018;CALI;VALLE DEL CAUCA;1;3;8685;2
31307947;JENNIFER ORTEGA;MAJE;jenniortega123@hotmail.com;CR 41 G # 42 - 54 BR UNION DE VIVIENDA;0;3166030048;CALI;VALLE DEL CAUCA;2;0;7073;2
31308256;LINA PEREZ;MONTOYA;lina_perez23@hotmail.com;CL 64N# 4N-35 AP 1204D;0;3128717811;CALI;VALLE DEL CAUCA;1;1;0830;2
31308431;MARYURI DAYANA;HUERTAS S;yayidh@gmail.com;CR 65# 13 B - 125 AP C 304;0;3102151336;CALI;VALLE DEL CAUCA;0;3;9812;2
31308891;NICOL LOZANO;REYES;nicky0611@hotmail.com;CL 62 # 1 B - 90 AP 20  501;0;3183998123;CALI;VALLE DEL CAUCA;0;1;2879;2
31309074;VERONICA AGUDELO;BOTINA;veronikagudelo2007@gmail.com;CR 74 A # 1 B - 111;0;3104921960;CALI;VALLE DEL CAUCA;5;3;4001;2
31309191;LUZ MERY;AGUDELO CORDOBA;luz_mery_agudelo@hotmail.com;CL 77 # 14 - 31;0;3125261411;BOGOTA;BOGOTA D.C.;0;2;6682;2
31309234;JOHANNA C;MARTINEZ B;camaba13@hotmail.com;CR 53 # 1 A - 50 TO 13 AP 849;0;3193371416;CALI;VALLE DEL CAUCA;0;3;9033;2
31309386;ANGELA M;BETANCOURT G;amabeta@hotmail.es;CR 83 C # 14 A - 60 BR EL INGENIO;0;3004569867;CALI;VALLE DEL CAUCA;0;1;9424;2
31309564;CAROLINA VEGA;CALVO;carovega2127@gmail.com;AV 2 c norte # 51 norte - 37 CS 1 BR la merced;0;3052999547;CALI;VALLE DEL CAUCA;0;2;1871;2
31309841;SUSAN T;POSADA MONTOYA;susanpos@gmail.com;CL 18 # 67 - 48 AP 517 PRADOS DE ZARAGOZA BR HACIENDA;0;3168144871;CALI;VALLE DEL CAUCA;0;1;1411;2
31309906;DIANA LUCIA;FERNANDEZ L;DIANAFERNANDEZ8@HOTMAIL.COM;CL 64 NTE # 4 - 35 AP 1001 D BR LA FLORA;0;3206892103;CALI;VALLE DEL CAUCA;5;0;9005;2
31309910;LADY PAMELA;GARCES BEDON;ladypamela21@hotmail.com;CR 46 A # 56 D - 32 BR MORICHAL;0;3163903482;CALI;VALLE DEL CAUCA;0;1;4365;2
31320537;CAROL VIVIANA;QUINTERO;kari-2002@hotmail.com;CL 3# 122 - 70 CS 1  ENTRE RIOS BR PANC;0;3116506218;CALI;VALLE DEL CAUCA;0;2;6277;2
31320780;ADRIANA E;CARDONA B;notiene@notiene.com;CL 50 # 3 FN - 20;0;3155621552;CALI;VALLE DEL CAUCA;10;0;8625;2
31321049;GLORIA HERNANDEZ;M;cacharreriamariana@hotmail.com;CL 14 A  67  37  CS F 1 NO REGISTRA;0;3165322783;CALI;VALLE DEL CAUCA;0;2;2473;2
31321117;ANGELA HAIDY;VILLEGAS G;angelavillegas.gu@gmail.com;CR carrera 98 #48-38 AP apto 516   torre 2 UN unidad san rafael;0;3165322783;CALI;VALLE DEL CAUCA;1;1;9520;2
31321758;ORIANA TORRES;O;orianat01@hotmail.com;CL 13 # 57 - 50;0;3012223261;CALI;VALLE DEL CAUCA;1;0;8789;2
31321863;DIANA MORALES;PARRA;dcaromoralesp@gmail.com;CR 3 NORTE # 72B - 22 BR FLORALIA;0;3182653455;CALI;VALLE DEL CAUCA;1;2;4799;2
31321899;MARIA I;RODRIGUEZ P;mariairodri83@hotmail.com;CR 121 B 4C - 40 CS 15 UN UNIDAD PORTON DE LA RIVERA;0;3137372866;CALI;VALLE DEL CAUCA;0;3;1699;2
31321997;DAYRA FAISURY;DORADO G;dafcdo@gmail.com;CL 90 # 24 G - 12  BR COMPARTIR;0;3015634137;CALI;VALLE DEL CAUCA;2;0;9313;2
31321998;PAMELA M;GUTIERREZ O;pamelitagu@hotmail.com;CL 18 NTE  # 4 - 09;0;3104144431;CALI;VALLE DEL CAUCA;0;2;2742;2
31322166;KARYN Y;CASTILLO GARCES;KAYURANY@YAHOO.COM;CR 54 NO54-110 CIUDADELA;0;3185573497;BUENAVENTURA;VALLE DEL CAUCA;5;0;5776;2
31322268;FRANCELLY RIOS;RODRIGUEZ;francellyrios@hotmail.com;CR 22 # 39 - 99 PS 1 BR SANTAFE;0;3017841641;CALI;VALLE DEL CAUCA;2;5;0304;2
31322304;LINA MARIA;MONTEALEGRE S;limon927@gmail.com;CL 14 OE  # 24 D - 70 AP 602 TRR B ED MONTELUGANO;0;3013533927;CALI;VALLE DEL CAUCA;4;0;6729;2
31322478;MARIA D;CADAVID J;kadavid83@gmail.com;CL 9 NORTE # 8 - 40 AP 302 ED TORRES DE GRANA II;0;3007862102;CALI;VALLE DEL CAUCA;2;0;1540;2
31322514;MARIA FERNANDA;SOTO G;mafersoto391@hotmail.com;CL 8A # 44A 108 B NUEVA  TEQUENDAMA;0;3174378922;CALI;VALLE DEL CAUCA;0;2;1989;2
31322549;LORENA CHAVES;NORENA;lorena.chaves@manuelita.com;CL 13 OESTE # 4 A - 24;0;3188044136;CALI;VALLE DEL CAUCA;0;3;5313;2
31322648;NATHALIE VINASCO;M;naty_312@hotmail.com;CL 5 E # 41 - 32;0;3162501016;CALI;VALLE DEL CAUCA;0;1;0021;2
31323055;KATHERINE;OSPINA;katherine_ospina@yahoo.com;Cll 12A 50 25 Apto 101A;0;3127578639;CALI;VALLE DEL CAUCA;1;2;0845;2
31323093;ANGELA M;GUTIERREZ GARCIA;angelmar2510@hotmail.com;CL 33 A # 2 A - 73 AP 402 A BR;0;3215273862;CALI;VALLE DEL CAUCA;0;5;0386;2
31323189;PAOLA A;LENIS IZQUIERDO;pao-lennis@hotmail.com;CR 81 # 13A - 125 CJ CUIDADELA PASO ANCHO SEC 2 CS 21;0;0;CALI;VALLE DEL CAUCA;8;0;7000;2
31323381;PAOLA TORRES;PADILLA;andretp05@gmail.com;CL 12 OE # 10 OE - 50 AP 401 TRR 3 BR COLINAS DEL AGUACATAL;0;3017818393;CALI;VALLE DEL CAUCA;2;0;3754;2
31323519;MARIA A;LARA J;alelara83@yahoo.com;CL 3 C # 66 - 60 AP 202  REFUGIO;0;3006104209;CALI;VALLE DEL CAUCA;0;4;5262;2
31323532;LADY J;GASCA T;gasca83@yahoo.com.mx;CL 49 # 2 GN - 88;0;3184895140;CALI;VALLE DEL CAUCA;0;4;1687;2
31323570;MARIA ISABEL;YEPEZ;mariaisabel@almacenesla13.com;CL 13 # 8 - 52 CRISTALERIA;0;3146617548;CALI;VALLE DEL CAUCA;10;5;7973;2
31323600;YANIRA M;OVIEDO G;yanirovi@gmail.com;CR 65 # 103 - 81 IN 2 AP 102 BR ANDES NTE;0;3183853060;BOGOTA;BOGOTA D.C.;0;1;9577;2
31323807;LEIDY JOHANNA;BUITRAGO L;johanna.buitrago@hotmail.com;CL 15 # 69 - 81 CS C-5 BR LA HACIENDA;0;3105424843;CALI;VALLE DEL CAUCA;7;0;7000;2
31324017;SANDRA LOPEZ;GARCIA;sandravlopez@hotmail.com;CL 9 # 46 - 69;0;3164966128;CALI;VALLE DEL CAUCA;1;0;4356;2
31324045;CLAUDIA PATRICIA;PAZ Z;claudia_paz2002@yahoo.com;CR 4 # 7 - 61;0;3186424115;CALI;VALLE DEL CAUCA;0;2;3314;2
31324123;LUZ NEDY;GUARIN ALVAREZ;luzalva123@hotmail.com;CR 4 # 7 - 61;0;3148741937;CALI;VALLE DEL CAUCA;1;0;2357;2
31324457;HASLY P;OLIVEROS LLANOS;hpato84@hotmail.com;CL 10 # 8 - 26 BR URIBE;0;3016131560;CALI;VALLE DEL CAUCA;1;0;7486;2
31324584;JULIETH BUENDIA;QUICENO;SOFIABUENDIA84@YAHOO.COM.CO;CL 22  4  44 NO REGISTRA;0;3128923513;CALI;VALLE DEL CAUCA;3;0;0379;2
31370207;MARIA QUINTERO;ARBOLEDA;mquinteroa@dian.gov.co;CL 6 C# 9 A - 68 BR NAYITA;0;3167471449;BUENAVENTURA;VALLE DEL CAUCA;7;0;1312;2
31370259;MARIA GONZALEZ;GONZALEZ C;hbgbanco@hotmail.com;CR 24 18 B 77;0;3155862348;CALI;VALLE DEL CAUCA;20;3;6001;2
31370353;NOHORA YANES;DE Q;nohrayanes@hotmail.com;CL 6 # 33 - 04 AUT SIMON BOLIVAR PS 3;0;3156310951;PALMIRA;VALLE DEL CAUCA;17;0;9010;2
31370506;MARIA DEL;ROSARIO RAYO;marirayo2003@yahoo.com;CL 34 # 96 - 79 CS A2 UNRES SAMANES DEL LILI 2 BR VALLE DEL LILI;0;3137564393;CALI;VALLE DEL CAUCA;16;0;8235;2
31370880;OFIR GONZALEZ;DE PENA;notiene@notiene.com;CR 56# 13 - 34 OESTE ED CLARITA AP 101;0;3164222142;CALI;VALLE DEL CAUCA;8;0;2060;2
31370881;LEONOR BOLIVAR;LOPEZ;leonor7@hotmail.es;CL 14 A # 49 - 123;0;3045881482;CALI;VALLE DEL CAUCA;10;5;3000;2
31371460;YOLANDA MORENO;HUEPA;notiene@notiene.com;CR 53 # 1 A - 50 AP 839 TRR 10;0;3116258050;CALI;VALLE DEL CAUCA;4;0;6011;2
31371716;ESPERANZA VICTORIA;FRANCO;feloss@hotmail.com;AV EL LAGO # 28-106 CJ casa azul 2 CS 84;0;3007107697;JAMUNDI;VALLE DEL CAUCA;5;4;6637;2
31371926;FLORELBA RUBIO;CAICEDO;florita5211@hotmail.com;CL 12 # 1 - 12;0;3128047944;CALI;VALLE DEL CAUCA;24;0;7498;2
31372325;LUZ DIUZA;RIASCOS;luz-iri@hotmail.com;CR 83 D # 48 A - 119 BR CANEY;0;3155400591;CALI;VALLE DEL CAUCA;12;0;4007;2
31372654;PARMENIA;VIVEROS;notiene@notiene.com;CLL 62 N 1 B 90;0;3154322709;CALI;VALLE DEL CAUCA;19;0;1630;2
31372909;ROSA ELVIRA;GUTIERREZ L;vicvaleriana@gmail.com;CR 102 # 34 - 133 AP 903 TRR 3 UN capriali;0;3167461604;CALI;VALLE DEL CAUCA;0;3;2568;2
31373367;MARIA L;VALENZUELA M;marialeandravalenzuela@hotmail.com;TV 87# 35 - 40;0;3154871905;BUENAVENTURA;VALLE DEL CAUCA;0;1;0594;2
31373413;GRACIELA IBARGUEN;M;graimur14@hotmail.com;DG 4B#6-56 PASAJE PRIMAVERA,  BR SORVAZQUEZ PARTE ALTA;0;3155401018;BUENAVENTURA;VALLE DEL CAUCA;20;0;7717;2
31374690;MARGARITA CAMACHO;H;mas.com07@hotmail.com;CL 13B # 70 - 105 Apto 201  Torre 1 CJRES Samanes  de la M  BR Quintas de Don Simon;0;3185634824;CALI;VALLE DEL CAUCA;0;2;8560;2
31374708;OLIVIA RIASCOS;F;olivitaf@hotmail.com;CR 53 # 13E - 31 UNRES PRIMERO DE MAYO BQ 502E;0;3185063146;CALI;VALLE DEL CAUCA;0;1;7793;2
31374805;MARTHA E;MORENO PELAEZ;notiene@notiene.com;CL 1 B OESTE # 4A-201 AP 603 TRR F ED SIERRA DE NORMANDIA;0;3128276921;CALI;VALLE DEL CAUCA;24;0;0071;2
31375115;MARIA GLADYS;LEDESMA O;cootransmart1@yahoo.com;CL 14 # 65 - 39;0;3116057968;BUENAVENTURA;VALLE DEL CAUCA;5;0;4019;2
31375821;MERCEDES MIRANDA;DE R;mercedes_miranda24@hotmail.com;CR 76 # 16 - 41 AP 103 BL 5 UND PORT;0;3002953021;CALI;VALLE DEL CAUCA;20;5;1970;2
31376111;NIDIA;DURAN;ESPANIDIA@HOTMAIL.COM;CL 11 # 87 - 31 AP 207;0;3178460134;CALI;VALLE DEL CAUCA;15;0;6030;2
31376129;DORIS CORDOBA;ARBOLEDA;dorcoar957@hotmail.com;AV SIMON BOLIVAR # 17 - 40;0;3173754215;BUENAVENTURA;VALLE DEL CAUCA;0;4;9735;2
31376234;MARIA V;MARIA V;maria_victoria_bernal@hotmail.com;CL 32 OE  # 35 - 42;0;3155755191;CALI;VALLE DEL CAUCA;11;5;3653;2
31376376;CLARA INES;BENALCAZAR B;cibenalcazar@hotmail.com;CL 39 # 42 - 83;0;3103972839;PALMIRA;VALLE DEL CAUCA;14;0;2536;2
31376466;NANCY SANCHEZ;SANCHEZ LOZANO;tocota.123@hotmail.com;CR 53# 1 A 50 AP 522 BQ 6 CJ GUADALUPE;0;3132634919;CALI;VALLE DEL CAUCA;25;2;8410;2
31377223;TERESA DE;J CASTRO;tjcr52@hotmail.com;CR 24C # 33C - 17 CS 56;0;3155928077;CALI;VALLE DEL CAUCA;0;3;0727;2
31377470;BEATRIZ PRADILLA;ORDONEZ;beabril14@hotmail.com;CR 3 # 46 - 05;0;3002856022;CALI;VALLE DEL CAUCA;4;4;6677;2
31377780;GLORIA JARAMILLO;APEEL;gloriajaramillof@hotmail.com;CL 15N # 121 - 25 UN ACUARELA DE UMBRIA CS 18 BR PANCE;0;3012256693;CALI;VALLE DEL CAUCA;17;3;3931;2
31378263;AMALIA VALENZUELA;M;notiene@notiene.com;CR 65 # 11 - 23 BR INDEPENDENCIA;0;3153394191;BUENAVENTURA;VALLE DEL CAUCA;13;0;0024;2
31378601;MERCEDES RENTERIA;R;merceder@sprbun.com;CL 7 # 31 - 49 BR KENNEDY PARTE  ALTA;0;3185579394;BUENAVENTURA;VALLE DEL CAUCA;11;0;9027;2
31378982;CLARA LUZ;SANCHEZ;claritasaga@hotmail.com;CR 62 B # 11 - 15;0;3108499224;BUENAVENTURA;VALLE DEL CAUCA;4;0;7017;2
31379022;LEIDY F;CAICEDO ARIAS;lecarias6763@hotmail.com;CR 38 B # 4 - 87;0;3154834064;BUENAVENTURA;VALLE DEL CAUCA;26;0;5241;2
31379069;DOLLY OROBIO;RIASCOS;dollymary27@gmail.com;CL 3 # 17 - 52  BR EL FIRME;0;3165461429;BUENAVENTURA;VALLE DEL CAUCA;14;0;3649;2
31379141;PATRICIA VELEZ;V;paveve1950@hotmail.com;CR 53 # 1A - 50 TR 6 AP 124  GUADALUPE REAL;0;3122975164;CALI;VALLE DEL CAUCA;0;1;0559;2
31379269;ANA BEIBA;ANGULO M;anna_amosqu@hotmail.com;CL 26 # 66 - 41 BR CIUDAD 2000;0;3164919735;CALI;VALLE DEL CAUCA;2;2;7182;2
31379350;LOURDES C;CIFUENTES A;conchitalagordita@hotmail.com;CR 126 # 5 - 264 UN FARALLONES  22 CS C2 BR PANCE ENSEGUIDA  DEL COLEGIO JUANANBU;0;3175028923;CALI;VALLE DEL CAUCA;3;0;8033;2
31379357;ANA LUCELLY;GARZON M;minik_1656@hotmail.com;CR 53 # 1A-50 AP 429 TRR 8 unidad guadalupe real;0;3177605416;CALI;VALLE DEL CAUCA;0;2;9115;2
31379713;NORA LUCIA;MORENO BANOS;nory.13@hotmail.com;CR 22 # 13 A - 79 PS 2 BR JUNIN;0;3174315646;CALI;VALLE DEL CAUCA;18;0;7006;2
31379983;MARIA RAMIREZ;GONGORA;esrago313@hotmail.com;CR 85 NO 42 - 39 EL CANEY;0;3188473063;CALI;VALLE DEL CAUCA;0;5;4355;2
31380002;MARIA ADRIANA;BARRERA T;maadbate@gmail.com;CR 18 # 22 - 20 BR LA PRADERA JAMUNDI;0;3108460851;CALI;VALLE DEL CAUCA;3;2;7921;2
31380937;MARTHA GONZALEZ;G;marhelgongar20@hotmail.com;CR 92 #151 B -86 TRR 2 apto 208;0;3165320427;BOGOTA;BOGOTA D.C.;17;0;1244;2
31380961;NANCY HELENA;ANGULO LEON;nangulo@dimar.mil.co;AV EL DORADO # 52 - 00;0;3167523485;BOGOTA;BOGOTA D.C.;0;3;9624;2
31381147;MARIA ELENA;CORREA VIVES;malenac2@hotmail.com;CL 9 # 29 - 13;0;3158123558;CALI;VALLE DEL CAUCA;24;4;3016;2
31381232;DORA ARANGO;DE VERA;dora.arango@cafedecolombia.com;CR 22# 42 - 102 AP 101 ED MANZANILLO DE;0;3156829129;CARTAGENA;BOLIVAR;22;4;2006;2
31381274;STELLA AGUDELO;DE CHAVEZ;stellaag58@hotmail.com;CR 51 D # 2 - 04 CS TRANSFORMACION EN BUENVENTURA;0;3188018390;BUENAVENTURA;VALLE DEL CAUCA;20;0;4184;2
31381440;LUZ MARINA;VARGAS VILLA;luzmarina716@hotmail.com;CL 61 # 2GN  - 114 AP 301A CJ BL PACARA SANTA ANGELA BR ALAMOS;0;3103819865;CALI;VALLE DEL CAUCA;10;0;3006;2
31381490;ANA M;AVELLANEDA M;amavella_054@hotmail.com;CALLE 59N NUM 3BN BIS 62;0;3155394070;CALI;VALLE DEL CAUCA;0;2;0895;2
31382849;LILIANA VAN;KAN;lilianavankan@hotmail.com;CL 1 A # 8 A - 18 BR PUEBLO NUEVO;0;3155754525;BUENAVENTURA;VALLE DEL CAUCA;23;0;7274;2
31383953;ANTONIA MARIA;QUINONEZ E;antoniaerbas2@hotmail.com;CR 47 # 1 - 88;0;3177178563;BUENAVENTURA;VALLE DEL CAUCA;0;4;0948;2
31384053;ALBA R;VALDIVIESO MAVESOY;rocio.valdivieso.m@gmail.com;CL 1 A # 60 - 24 BR PAMPALINDA;0;3155962169;CALI;VALLE DEL CAUCA;8;0;3001;2
31385156;ANA CECILIA;CARABALI G;acarabalig@dian.gov.co;CL 3 # 2 A - 18 ED DIAN BUENAVENTURA;0;3002765280;BUENAVENTURA;VALLE DEL CAUCA;2;1;7834;2
31385215;CARMEN E;SINISTERRA DE;carmensinisterra500@gmail.com;CL 7 # 14 A - 106 BR SAN BOSCO;0;3217007198;CALI;VALLE DEL CAUCA;0;1;6583;2
31385223;MARGARITA CHAVEZ;LOZANO;margothchavez12@hotmail.com;CRA  9A  49  32;0;3154003827;BUENAVENTURA;VALLE DEL CAUCA;21;0;0954;2
31385794;ELIDA BLANDON;P;eblandonp@dian.gov.co;CR 67 # 45 - 12;0;3148211912;CALI;VALLE DEL CAUCA;0;1;0424;2
31385856;MARIA E;GONZALEZ C;mariaeligoca@hotmail.com;CL 38 # 5N - 84 AP 012 BQ 1 BR BUENO MADRID;0;3137464678;CALI;VALLE DEL CAUCA;0;5;9263;2
31385883;AMPARO DAVILA;M;nenadavila123@hotmail.com;CR 1 A OESTE # 6 - 10 ED TORRE DE FENICIA AP 804 TRR 3;0;3155624154;CALI;VALLE DEL CAUCA;23;0;6110;2
31386012;ROSA E;COPETE COSSIO;notiene@notiene.com;CR 42 B # 26 - 66;0;3154698980;CALI;VALLE DEL CAUCA;0;3;7192;2
31386080;MARIA E;RIVAS ZAMORA;mariaerivasz@hotmail.com;CR 10 # 12 - 15 JZ 22 PENAL CIRCUITO;0;3103640752;CALI;VALLE DEL CAUCA;0;1;4164;2
31386204;ARNOLIA M;CASTRO VALLEJO;ARNOLIA_CASTRO@HOTMAIL.COM;CL 13 # 4 - 13;0;3157642013;CALI;VALLE DEL CAUCA;13;0;7004;2
31386608;JUDITH LILI;ALVAREZ R;lilo0118@hotmail.es;CL 55 BN # 2 FN - 74 BR LOS ALAMOS;0;3017395987;CALI;VALLE DEL CAUCA;0;2;3037;2
31387071;CLARA INES;RIASCOS;notiene@notiene.com;AV 4 OES # 7 - 180;0;3104758171;CALI;VALLE DEL CAUCA;17;0;9019;2
31387400;MARIA LEONORA;BANGUERA M;leonora2979@hotmail.com;CR 46 # 1 S-50 BR BELLAVISTA;0;3154893984;BUENAVENTURA;VALLE DEL CAUCA;17;0;3019;2
31387798;OLGA M;MARTINEZ IBARGUEN;maritza19640@hotmail.com;DG 4 # 7 - 69 CL SORVASQUEZ;0;3155006320;BUENAVENTURA;VALLE DEL CAUCA;0;4;0320;2
31387835;ELIZABETH FERNANDEZ;S;exitoner@hotmail.com;CL 5B1 # 36A - 07;0;3113065718;CALI;VALLE DEL CAUCA;4;0;8000;2
31387878;MARTHA L;ORTIZ;marthalucy99@gmail.com;CL 2 # 10 - 101;0;3128159824;BUENAVENTURA;VALLE DEL CAUCA;0;4;8790;2
31387946;MILADYS VALENCIA;C;lamariposa-cefe@hotmail.com;CR 12# 3 - 56;0;3166211132;BUENAVENTURA;VALLE DEL CAUCA;0;1;4257;2
31388256;TERESITA D;CAICEDO A;tersitali23@hotmail.com;CR 1 BIS  # 59 - 21;0;3148626068;CALI;VALLE DEL CAUCA;3;0;8247;2
31388843;SHIRLEY TREJOS;PADILLA;shirleytrejos@gmail.com;CL 1 B # 68 - 65 AP 203 CJ HAR;0;3184726383;CALI;VALLE DEL CAUCA;9;0;6017;2
31389439;MYRIAN CARDONA;VANEGAS;micardona1129@gmail.com;KM 7 FRENTE TRANSFORMACION;0;3226509563;BUENAVENTURA;VALLE DEL CAUCA;0;2;5670;2
31395317;MARIA SARMIENTO;MAFLA;nurianp21@yahoo.com;CR 3 # 23 - 10 STA MARIA;0;3173852676;CARTAGO;VALLE DEL CAUCA;0;2;2789;2
31395449;LORENCITA RAMIREZ;G;lorenzaramirez@hotmail.com;CL 152 A # 46 - 60 IN 4 AP 102;0;3183121441;BOGOTA;BOGOTA D.C.;0;3;9037;2
31395520;MARIA DE;LAS M;notiene@notiene.com;LA BUITRERA;0;0;CALI;VALLE DEL CAUCA;12;0;6023;2
31396309;ESPERANZA MEJIA;C;esperanza1956@hotmail.com;CR 68A # 43 - 06  OF 202 BR SAN JOAQUIN;0;3113972555;CARTAGO;VALLE DEL CAUCA;26;5;0004;2
31396438;DOLLY BOLIVAR;RAMIREZ;dollyhaziel@hotmail.com;CL 19 CR 9 N;0;3136858234;CARTAGO;VALLE DEL CAUCA;0;2;5041;2
31396454;BEATRIZ BEDOYA;HURTADO;beatriz.bedoya.hurtado@gmail.com;CR 35 A N 20 - 17;0;3015106824;TULUA;VALLE DEL CAUCA;0;3;3196;2
31396580;LUZ M;PUENTES A;lopapua@hotmail.com;CR 23 # 1 N - 03 CS 36 CJRES MILAN;0;3183744040;CARTAGO;VALLE DEL CAUCA;0;3;0157;2
31397269;MARIA GONZALEZ;RAMIREZ;notiene@notiene.com;CR 30 B # 50 - 51;0;3113725812;PALMIRA;VALLE DEL CAUCA;5;4;2008;2
31397586;MARIA JESUS;DIAZ SUAREZ;jesusita_diaz@yahoo.com;CL 20 # 6 - 43 OF 4AA BR CENTRO PEREIRA;0;3155335952;PEREIRA;RISARALDA;11;4;0098;2
31397702;LUZ MARINA;ECHEVERRY G;lme3139@GMAIL.COM;TV 1 A # 68-95 AP 102;0;3112327831;BOGOTA;BOGOTA D.C.;12;0;7447;2
31397990;LUCY VARGAS;D;lucyvado@hotmail.com;EL PEAON CS 198 - 5  PRIMER SECTOR EL PALMAR;0;3163313477;GIRARDOT;CUNDINAMARCA;17;3;3023;2
31398007;ESPERANZA VALENCIA;DIEZ;ESPERAVADI@HOTMAIL.COM;CR 3 # 11 - 28;0;3137755828;CARTAGO;VALLE DEL CAUCA;17;0;9009;2
31398139;ORFINZA POSADA;ZAPATA;orfinza10@hotmail.com;CL 16 A # 13 N - 99 PS 2;0;3104591674;CARTAGO;VALLE DEL CAUCA;7;4;4010;2
31398200;LILIANA VARGAS;BENITEZ;cardonavargas1702@hotmail.com;CL 23 D # 1 N - 03 CS 89 CJRES MILAN;0;3122962446;CARTAGO;VALLE DEL CAUCA;7;3;3004;2
31398417;GLADYS ARANGO;ANGEL;gladys_arango@angel.com.co;AV 2 N # 22 - 19;0;3006758363;CALI;VALLE DEL CAUCA;0;1;8237;2
31398807;MARIA OLGA;HENAO DELGADO;mariahenaod55@hotmail.com;CR 45 CL 44 ESQUINA;0;3166270417;BARRANQUILLA;ATLANTICO;0;4;1919;2
31398869;GYDSELA RESTREPO;DE O;gyreri03@yahoo.com.co;AV 4 N # 8 N - 37 AP 502;0;3155574606;CALI;VALLE DEL CAUCA;19;0;1015;2
31399111;RODRIGUEZ VICTORIA;LUZ STE;lsrodriguezv@gmail.com;CL 22 # 3 - 04 LAS FLORES;0;3116463159;PALMIRA;VALLE DEL CAUCA;6;0;0325;2
31399346;MARIA E;CARDONA Q;esperanzac299@hotmail.com;CR 81 # 13 A - 25 TO 1 CS 3 BR CIUDADELA PASO ANCHO;0;3207257045;CALI;VALLE DEL CAUCA;0;3;9337;2
31399352;GABRIELA BOHORQUEZ;G;gabibohorquezgutierrez@gmail.com;CR 43 A # 56 SUR - 32;0;3146891679;SABANETA;ANTIOQUIA;18;0;1000;2
31399457;GLORIA ELENA;NARANJO G;ajpined@yahoo.com;CR 64 C # 48 - 87 ED BRASILIA 4 AP 201 BR SURAMERICANA;0;3165319981;MEDELLIN;ANTIOQUIA;0;5;9082;2
31399567;BERTHA ISABEL;SUAREZ G;berthaisuarez@gmail.com;CR 22 A # 151 - 63 AP 201;0;3112366949;BOGOTA;BOGOTA D.C.;3;3;1730;2
31400088;ESPERANZA AGUDELO;L;nicolas_alberto96@hotmail.com;CR 103A # 78 - 15 AP 306;0;3176997852;BOGOTA;BOGOTA D.C.;21;0;3033;2
31400142;OBDULIA JARAMILLO;DE G;notiene@notiene.com;PASAJE LA MARINA PAPELES NAL;0;3173492080;CARTAGO;VALLE DEL CAUCA;9;0;4008;2
31400619;GLORIA OSORIO;RIOS;yolo256@hotmail.com;CR 17 # 5 - 57 AP 603 ED MONTECANELA;0;3187936131;PEREIRA;RISARALDA;3;0;2066;2
31402081;MARIA ESNEDA;RAMIREZ T;maryramirez703@hotmail.com;CR 63 # 72 A - 12;0;3007747373;BELLO;ANTIOQUIA;20;0;0002;2
31402178;MARIA LEON;GARCIA;mariaelenaleongarcia@gmail.com;CR 53 # 1 A - 50 AP 321 TRR 6 GUADALUPE REAL BR EL LIDO;0;3186079521;CALI;VALLE DEL CAUCA;0;1;6298;2
31402180;MARTHA CECILIA;CADAVID M;notiene@notiene.com;CL 30A # 5N - 22 BR LAS PALMAS;0;3227776251;CARTAGO;VALLE DEL CAUCA;14;0;0009;2
31402811;LUZ ENIT;MONTOYA CONTRERA;lemc1961@hotmail.com;CR 3 N  # 18 - 65  BR la Independencia;0;3186238011;CARTAGO;VALLE DEL CAUCA;0;2;3544;2
31403616;LUDIVIA PATINO;LANCHEROS;ludypala@gmail.com;CR 31A # 39 - 45;0;3006204318;PALMIRA;VALLE DEL CAUCA;4;0;6384;2
31403829;PATRICIA BEDOYA;GARCIA;pbedoya@misena.edu.co;CL 18 A# 24 - 44 BR SANTA ELENA;0;3113677630;CALI;VALLE DEL CAUCA;0;2;9316;2
31403867;ELSA PATRICIA;NUNEZ BONILL;edupombo2008@hotmail.com;CL 13 # 19 - 76 BR LAURELES;0;3116429618;CARTAGO;VALLE DEL CAUCA;5;0;8008;2
31406195;CASTANO AGUDELO;ESPERANZA;escas17@hotmail.com;CL 18 NO 34 - 21 NUEVO ALVERNIA;0;3167424974;TULUA;VALLE DEL CAUCA;8;0;9915;2
31406316;LUZ VANEGAS;ACEVEDO;luzaydee6319@hotmail.com;MZ 6 CS 4 ET 1  CJ BULEVAR DEL CAFE;0;3113613021;PEREIRA;RISARALDA;0;3;7706;2
31406464;BEATRIZ E;GUTIERREZ MEJIA;b.y566@hotmail.com;CR 18 NORTE # 16B - 112 BR ENTRERIO;0;3103889732;CARTAGO;VALLE DEL CAUCA;1;0;3009;2
31406532;MARTHA LUCIA;VEGA OSORIO;marthalvega@hotmail.com;CL 15 # 7 - 47 BR LA LIBERTAD;0;3008035991;CARTAGO;VALLE DEL CAUCA;20;0;1882;2
31407948;MARTHA ROJAS;VELASQUEZ;mrojas@caracol.com.co;MZ 45 CS 21 BR VILLA DEL PRADO;0;3167559919;PEREIRA;RISARALDA;1;1;7216;2
31408323;GLORIA P;VICTORIA R;glopavira@gmail.com;CR 3 G NORTE # 18 - 51  BR ALAMOS;0;3013708726;CARTAGO;VALLE DEL CAUCA;0;2;9913;2
31408367;LUZ CARDONA;DELGADO;lecardona5820@gmail.com;AV 2 N # 10 - 70;0;3113185678;CALI;VALLE DEL CAUCA;2;0;8647;2
31408368;RUTH JANETH;TAMAYO RUIZ;jantamayo13@hotmail.com;CL 18 31 82 M 2 BL 1 A 102;0;3104524643;PEREIRA;RISARALDA;4;0;2008;2
31408650;FABIOLA ESCOBAR;R;ariana1175@hotmail.com;CR 3 # 17 - 02;0;3122007456;CARTAGO;VALLE DEL CAUCA;0;1;4094;2
31408686;SANDRA ARROYAVE;TRIVINO;sandra.arroyave4@gmail.com;CR 20 NORTE # 17 - 52;0;3155678428;CARTAGO;VALLE DEL CAUCA;0;1;3355;2
31409260;MARIA E;CEBALLOS AVIVI;dtpavivi@gmail.com;CR 16 NORTE # 16 B - 68;0;3155773681;CARTAGO;VALLE DEL CAUCA;6;4;1128;2
31410091;DORA P;CASTANO H;patricia.felseb@hotmail.com;CR 5 # 18 - 70 BR EL LLANO;0;3154110220;CARTAGO;VALLE DEL CAUCA;0;5;9420;2
31410116;MARIA NANCY;MONTOYA Q;namoquin@hotmail.com;CL 93 # 28 - 60 MZ 1 CS 12;0;3165796461;PEREIRA;RISARALDA;4;0;1148;2
31410215;LIDA F;AGUDELO G;life4230@hotmail.com;CR 8 A NORTE  # 19 - 43  BR SANTA LUCIA;0;3117137866;CARTAGO;VALLE DEL CAUCA;0;3;0575;2
31410309;ANA FRANCIS;MEJIA E;anafrancism@hotmail.es;AV 3A BIS# 52N - 61 BR LA FLORA;0;3117492185;CALI;VALLE DEL CAUCA;18;2;1007;2
31410344;GLADYS NARANJO;SANTA;gnaranjos29@gmail.com;CR 15 # 88 - 97;0;3196391797;BOGOTA;BOGOTA D.C.;1;0;2329;2
31411057;MARIA L;VILLAREAL YEPES;lilianavillarreal2@hotmail.com;CL 30# 2 AN - 29 LC 147;0;3166192551;CALI;VALLE DEL CAUCA;0;4;4160;2
31411251;ESTER J;CARDENAS G;ejuliacg@hotmail.com;CL 21 # 2 - 16;0;3148534732;PEREIRA;RISARALDA;11;0;7005;2
31411330;YINED CEDENO;SALAZAR;yincedsa@hotmail.com;CR 51 # 66 A - 51 AP 1207 TO 2;0;3134182446;BOGOTA;BOGOTA D.C.;21;5;1023;2
31411910;MONICA MARIA;ESCUDERO ECHE;monikescudero@hotmail.com;CR 3 # 2 - 20 AP 202 NATALIA 94;0;3154259792;CALI;VALLE DEL CAUCA;9;0;4373;2
31412318;DORA P;MUNOZ BOTERO;patrim_69@hotmail.com;BR CIUDAD COUNTRY VIA COMERCIAL # 370 CS;0;3176411678;JAMUNDI;VALLE DEL CAUCA;8;0;8002;2
31412377;MARIA TERESA;PARRA GIL;parra.gil2@gmail.com;CR CR 27 # 10 - 20 COLG Instituto # 10 - 20 COLG INSTITUTO TECNICO SUPERIOR;0;3206032665;PEREIRA;RISARALDA;7;0;4003;2
31412535;TERESITA BEDOYA;FIERRO;juancarlosgc8@hotmail.com;CR 4# 10 - 90;0;3147932836;CARTAGO;VALLE DEL CAUCA;11;0;6718;2
31412654;MARIA S;TAMAYO HENAO;tamayosirley@gmail.com;AV BELLMONTE # 93-10 TRR 2 AP 505 CJRES SERREZUELA;0;3113100641;PEREIRA;RISARALDA;19;5;8973;2
31412851;DAMARIS CARDENAS;RAMIREZ;tabatacr@gmail.com;CR 9 NTE # 16B - 22 BR PRADO NORTE;0;3206981110;CARTAGO;VALLE DEL CAUCA;9;0;0009;2
31413140;GLORIA E;GARCIA JIMENEZ;notiene@notiene.com;CR 15A # 11B - 27 MZ G CS 5 BR RESERVAS DEL SAMAN;0;3106710219;CARTAGO;VALLE DEL CAUCA;0;4;4147;2
31413676;ALICIA TABARES;LOPEZ;atabares2008@hotmail.com;AV 6 NT NOR # 16 - 21 OF 30;0;3104529977;CALI;VALLE DEL CAUCA;10;3;0006;2
31413932;LUCY EDITH;VALENCIA A;leva.2007@hotmail.com;CR 1 # 7 - 40 BR CENTENARIO;0;3155135655;CALI;VALLE DEL CAUCA;19;0;8639;2
31414416;PIEDAD C;DIAZ LOPEZ;moniata88@hotmail.com;CR 4 # 11 - 28;0;3155145879;CARTAGO;VALLE DEL CAUCA;10;0;2730;2
31414570;MARTHA NORA;GOMEZ ZUL;norag69@hotmail.com;CR 17 NTE # 17 - 38 CS 5 BR PRADO NORTE;0;3155462969;CARTAGO;VALLE DEL CAUCA;10;0;1005;2
31415046;ADRIANA ANGEL;OCAMPO;adrianaaocampo@hotmail.com;CL 18 # 1 - 19NTE BR LA INDEPENDENCIA;0;3116060744;CARTAGO;VALLE DEL CAUCA;14;0;8005;2
31415090;OLGA ISABEL;ZABALA R;isabelzabala@berryglobal.com;ZFC DEL PACIFICO  KM 6 VIA YUMBO;0;3155771685;PALMIRA;VALLE DEL CAUCA;18;0;0007;2
31415391;LUZ EVELIN;MARIN;gerencia@transportesje.com;AVDA 9 NORTE 6 34;0;3116456161;CALI;VALLE DEL CAUCA;16;0;6018;2
31416284;CELENE TRUJILLO;CASTRO;luna20-06@hotmail.com;CJ NUEVO HORIZONTE MZ B CS 5;0;3137249635;QUIMBAYA;QUINDIO;5;2;4166;2
31416328;MONICA SALAZAR;TAMAYO;monicasalazartamayo@hotmail.com;CR 4 # 16 B - 34;0;3202079626;CARTAGO;VALLE DEL CAUCA;0;3;4566;2
31417388;MARIA A;JIMENEZ BEDOYA;contadormajb@gmail.com;CR 35 # 53 - 17 AP 102 ED MONTERO;0;3218167794;BOGOTA;BOGOTA D.C.;2;2;2621;2
31418303;MARIA ARGENIS;ROJAS CUELLA;mariaargenis@hotmail.com;CR 5 NTE  # 24 - 30  BR VILLA JULIANA MA;0;3206930726;CARTAGO;VALLE DEL CAUCA;4;4;0000;2
31418588;MARTA C;OROZCO TONCEL;marthacot@hotmail.com;CL 25 D # 2 C 1 -15 AP 102 TRR 4 URB JARDINES DE SANTA MARIA;0;3116097010;CARTAGO;VALLE DEL CAUCA;9;2;7187;2
31418872;MARTHA MORALES;GONZALEZ;notiene@notiene.com;CL 18 # 5 - 44 BR EL LLANO;0;0;CARTAGO;VALLE DEL CAUCA;0;5;3801;2
31419095;LILIANA MARIA;ZAPATA P;lilianazapatap@gmail.com;CL 93 # 72 - 137 CS 93;0;3155258873;BARRANQUILLA;ATLANTICO;7;0;0329;2
31419529;LINA X;ROMERO TRUJILLO;linaxi63@hotmail.com;CL 21 # 8 - 28;0;3108229154;CARTAGO;VALLE DEL CAUCA;11;1;6970;2
31420818;MARIA CLEMENCIA;OSORIO A;maria1507@gmail.com;AV ROOSVELT CON 39  CENTRO EMPRESARIAL;0;3147633635;CALI;VALLE DEL CAUCA;2;0;5139;2
31420935;GLORIA PATRICIA;LOPERA LOZ;gplopera@hotmail.com;CR 4 C # 21 A - 157;0;3154929863;CARTAGO;VALLE DEL CAUCA;11;5;5003;2
31421706;PAOLA ESTRADA;LEMUS;dgpao@hotmail.com;CR 11 NORTE # 16B - 68 BR BOSQUES DEL  RIO;0;3185313221;CARTAGO;VALLE DEL CAUCA;0;2;1326;2
31422016;LUZ ADRIANA;ARANGO ARIAS;laranguito@hotmail.com;CL 14 # 10 - 76 CS  8 CJ LA CASCADA BR LA LIBERTAD;0;3116059457;CARTAGO;VALLE DEL CAUCA;10;0;1002;2
31423393;ADRIANA M;PABON FRANCO;adrimapa02@hotmail.com;CL 12 # 3 - 66 OF 208;0;3154470361;CARTAGO;VALLE DEL CAUCA;2;0;9081;2
31423489;PAULA ANDREA;MORENO DELGAD;haby76@yahoo.com;CL 93 # 29 - 70 CJRES BULEVAR DE LAS VILLAS MZ 8 CS 17;0;3117467489;PEREIRA;RISARALDA;0;5;7913;2
31423534;LUDIBIA CASTANO;IDARRAGA;LUDICI05@YAHOO.ES;CR 61 # 15 A - 05 BR ZARAGOZA;0;3166851424;CARTAGO;VALLE DEL CAUCA;3;0;7965;2
31423704;CLAUDIA P;OSPINA O;clauospinao@hotmail.com;CR 4 # 12 - 75;0;3103726067;CARTAGO;VALLE DEL CAUCA;0;1;8097;2
31423859;LUZ ENSUENO;HURTADO R;luzehurtador@gmail.com;CR 55 # 151 - 69 TRR 5 AP 803;0;3187156629;BOGOTA;BOGOTA D.C.;3;0;0025;2
31423911;EDILIA RESTREPO;B;edi271@gmail.com;CR 4 # 9 - 45;0;3117624453;CARTAGO;VALLE DEL CAUCA;13;0;2016;2
31423915;DORA M;VASQUEZ CASTANO;doravcorreseguros@gmail.com;CR 7 # 18 - 21 OF 14001;0;3147449068;PEREIRA;RISARALDA;1;0;1005;2
31424575;FRANCY Y;GRANADA GONZALE;FRANCYULI@HOTMAIL.COM;CR 21 # 38 B - 12 AP 104 ED BALCONES  DEL LAGO;0;3166164343;TULUA;VALLE DEL CAUCA;11;0;3006;2
31424697;SILVANA SANZ;ESCUDERO;silvana2820@gmail.com;CR 6 A # 14 - 107 BR EL CENTRO;0;3167442135;CARTAGO;VALLE DEL CAUCA;3;0;6345;2
31425658;MONICA MORALES;LLANOS;monimor77@gmail.com;CL 7 OE  # 1 - 05 AP 301 ED SALON BR SANTA RITA;0;3004005110;CALI;VALLE DEL CAUCA;0;3;5863;2
31425868;LINA LONDONO;VELASQUEZ;linamalondono@hotmail.com;CR 6 CL 9 Y 10 PS 6;0;3185310401;BOGOTA;BOGOTA D.C.;2;1;8986;2
31425938;LUZ MARINA;ARISTIZABAL B;cristaleria-cartago20@hotmail.com;CL 10 B # 20 - 26;0;3146475862;CARTAGO;VALLE DEL CAUCA;5;0;1009;2
31426552;CLAUDIA M;GIRALDO L;milena1569@hotmail.com;MZ 8 CS 9 CONDM VILLA DEL ROBLE;0;3206156254;CARTAGO;VALLE DEL CAUCA;0;3;9995;2
31427623;PAOLA A;SALAZAR BLANDON;alumac@hotmail.com;CR 6 # 14 - 70;0;3013718425;CARTAGO;VALLE DEL CAUCA;2;5;4000;2
31428043;LIANA JOAM;DIAZ CASTRO;carlos.arce@manuelita.com;KM 7 ingenio manuelita VIA cerrito;0;3184936695;PALMIRA;VALLE DEL CAUCA;3;0;1256;2
31428227;MARIA A;GONZALEZ TABORDA;gonzaleztmariaangelica@gmail.com;CR 82 A # 6 - 11 IN 6 AP 222;0;3162650600;BOGOTA;BOGOTA D.C.;1;4;5512;2
31428749;PAULA ANDREA;BUENO ARIAS;bueno_580@hotmail.com;MZ 1 CS 1 BR CIUDADELA CONFANDI;0;3113215279;CARTAGO;VALLE DEL CAUCA;5;0;5097;2
31429213;MARICELA LOAIZA;ARANGO;maricela.loaiza@bbva.com;CL 50 # 50 - 81;0;3117221488;ENVIGADO;ANTIOQUIA;0;5;0687;2
31429466;MARGARITA GUTIERREZ;A;danicmar28@hotmail.com;CL 6 # 7 - 54 BR GUADALUPE;0;3126716038;CARTAGO;VALLE DEL CAUCA;4;0;4000;2
31430708;CAROLINA LOPEZ;OROZCO;carolopezo@hotmail.com;KM 5 VIA La florida san jose ED vitacol de occidente;0;3206717341;PEREIRA;RISARALDA;0;4;5100;2
31431282;LUISA FERNANDA;BOTERO M;lulu8200@hotmail.com;CR 12 # 16A - 46 BR EMPRESAS;0;3174341477;CARTAGO;VALLE DEL CAUCA;11;0;8000;2
31431718;PAOLA MAHECHA;RODAS;paola.mahecha@igac.gov.co;CL 43 # 1 - 351 CS 29 CJ ENTREVERDE LA FLORIDA;0;3108256814;VILLAMARIA;CALDAS;0;3;7523;2
31432688;JENNIFER ORTIZ;AGUDELO;jennort02@gmail.com;CL 55 # 99 - 250 AP 701 TRR 4 UNRES REMANSOS DEL LILI;0;3167470217;CALI;VALLE DEL CAUCA;2;2;4109;2
31432773;SANDRA SALAZAR;CASTRO;samisaca2017@gmail.com;CR 4 N # 16 - 08 BR CENTRO;0;3162789890;CARTAGO;VALLE DEL CAUCA;0;2;2956;2
31433909;FRANCY YULIETH;MARIN;muyulieth@gmail.com;TV 7 CL 26  SANTA ISABEL  DOSQUEBRADAS;0;3127050350;PEREIRA;RISARALDA;2;0;3880;2
31433958;VIVIANA RESTREPO;OSPINA;vivianares31@gmail.com;CR 105 # 11 - 56;0;3187901379;CALI;VALLE DEL CAUCA;1;0;5558;2
31435197;MARTHA C;BLANDON R;mcarob55@hotmail.com;CR 6 # 10 - 21;0;3155575119;CARTAGO;VALLE DEL CAUCA;0;5;7515;2
31435754;LUZ AIDA;PENA VANEGAS;luzaida21@hotmail.com;CR 5 A # 21 A - 134 BR TERRAZA DE LLANO;0;3128966028;CARTAGO;VALLE DEL CAUCA;2;0;4065;2
31445395;MARIANA AYERBE;ARANGO;notiene@notiene.com;CL 7 OE # 2 - 63 STA TERESITA;0;0;CALI;VALLE DEL CAUCA;20;0;4648;2
31445549;MARIA V;ARAGON M;mvam80@hotmail.com;CR 27 # 6A - 45 BR EL CEDRO;0;3128343228;CALI;VALLE DEL CAUCA;0;2;3379;2
31446206;ADRIANA OTOYA;MEJIA;procoa_lida@hotmail.com;CL 72 # 9 - 55;0;3155560510;BOGOTA;BOGOTA D.C.;0;5;2688;2
31446736;PAOLA A;CERTUCHE M;pandrea_maz04@hotmail.com;CL 38 # 8 A - 88;0;3166237472;CALI;VALLE DEL CAUCA;0;4;7049;2
31446771;INES SANABRIA;OSORIO;sanabria08@hotmail.com;CL 11 # 100 - 121 OF 305 ED CAMPESTRE TOWER;0;3113875424;CALI;VALLE DEL CAUCA;0;2;0123;2
31446992;MARTHA CECILIA;MENDOZA B;martamendoza@hotmail.com;CL 12 # 118 - 80 BR PANCE;0;3148903366;CALI;VALLE DEL CAUCA;0;1;4134;2
31447885;ISABEL;TEJADA;isacristeja@hotmail.com;AV 10AN NO 12N - 76 NO REGISTRA;0;3148890458;CALI;VALLE DEL CAUCA;9;0;7003;2
31448336;ANGELICA MARIA;RAMIREZ V;angelicaramirezvanegas@gmail.com;CR 76 # 13 A - 05 AP 110 BR LAS QUINTAS DE DON SIMON;0;3153081235;CALI;VALLE DEL CAUCA;3;0;7887;2
31448439;LINA M;ACOSTA GUTIERREZ;linamaria1281@live.com;CR 98 # 4 - 49  BR MELENDEZ;0;3226493212;CALI;VALLE DEL CAUCA;1;4;1407;2
31448556;JOHANNA LONDONO;C;johanitaloncal@hotmail.com;CL 15 # 7 - 84 BR LIBERTADORES;0;3156347866;JAMUNDI;VALLE DEL CAUCA;1;0;8226;2
31449489;INGRID YOHANNA;RIOS P;inyoripa@hotmail.com;CR 82 A # 48 - 103;0;3154788259;CALI;VALLE DEL CAUCA;7;3;2009;2
31465174;LUZ OSORIO;DE PARRA;notiene@notiene.com;CR 1 C OES # 1 - 70 LAS PIRAS;0;3117485862;CALI;VALLE DEL CAUCA;5;0;1007;2
31465730;FLOR ALBA;SANCHEZ PAEZ;florsan08@hotmail.es;CR 5 # 22 - 73;0;3186538879;CALI;VALLE DEL CAUCA;21;5;5905;2
31465998;LUZ M;LENIS DE;luzmalenis13@hotmail.com;CR 54 # 12 - 45 OE AP 502;0;3206896774;CALI;VALLE DEL CAUCA;24;0;5432;2
31466080;CLARA I;OSPINA R;claraospina@telmex.net.co;CL 10 BIS OESTE # 28 - 265 AP 701 ED alcaraban BR los cristales;0;3108224568;CALI;VALLE DEL CAUCA;27;0;3345;2
31466102;PATRICIA LENIS;MILLAN;politecnico@emcali.net.co;CL 1 # 56 - 70 CS NRO 25;0;3174027006;CALI;VALLE DEL CAUCA;26;4;3012;2
31466210;ROSINA CARBONARI;HERRAN;rosinacarbonari@hotmail.com;CR 61 # 9 - 230 CJ KIMBAYA BR LIMONAR;0;3174271441;CALI;VALLE DEL CAUCA;2;3;9347;2
31466255;MARIA MADRINAN;GUERRERO;mariconny@gmail.com;CL 20 NORTE # 4N - 35 AP 801 BR VERSALLES;0;3104071828;CALI;VALLE DEL CAUCA;0;4;8245;2
31466309;LUZ AIDA;MORALES QUICENO;luz_ayda_m@hotmail.com;CL 59 A # 2 C - 73 PS 1 BR LOS AN;0;3128435456;CALI;VALLE DEL CAUCA;19;0;9006;2
31466366;LEONILCE;JARAMILLO;dicari@hotmail.com;CR 23 # 48 - 05;0;3128881225;CALI;VALLE DEL CAUCA;19;4;0960;2
31466503;ANA MARIA;ANGEL GOMEZ;ayalde_angel@yahoo.es;CR 2 ESTE  # 70 - 20;0;3017752765;BOGOTA;BOGOTA D.C.;1;3;5022;2
31466570;MARTHA C;RUEDA ALVAREZ;notiene@notiene.com;CL 9 C # 53 - 25 AP 308 D;0;3155737983;CALI;VALLE DEL CAUCA;18;0;4007;2
31466690;ELIZABETH LARROCHE;R;elizalarrocher@hotmail.com;CR 24 C # 2 - 56 OE AP 502 ED BOLIVAR;0;3206987995;CALI;VALLE DEL CAUCA;4;1;5140;2
31466777;ANA M;SANDOVAL DE;ansandov@yahoo.com;CL 12A # 52 - 60;0;3155588537;CALI;VALLE DEL CAUCA;16;2;1585;2
31466848;LUZ AIDA;RESTREPO LOAIZA;valantime_2010@hotmail.com;CL 5 # 6 - 40 BR BELALCAZAR;0;3167199488;CALI;VALLE DEL CAUCA;11;0;2925;2
31467096;LENIS S;ROSA M;margaritalenis@hotmail.com;CL 7 OE  # 4 - 10 ED PALMAR DE LOMA;0;3108354742;CALI;VALLE DEL CAUCA;0;5;6331;2
31467137;FANNY REYES;BURBANO;fanlina88@hotmail.com;AV 9 AN # 54 - 63 BR COLINAS DEL BOSQUE;0;3113076997;CALI;VALLE DEL CAUCA;19;0;0939;2
31467158;GLORIA ESPERANZA;FLOREZ BUENO;gflorez27@hotmail.com;CL 6 OE # 6 - 63 AP 603 BR SALVATERRA;0;3167406178;CALI;VALLE DEL CAUCA;7;1;1004;2
31467198;BEATRIZ CALERO;QUINTERO;bettycalero@yahoo.com;CL 12 A # 108 - 30 CS 4;0;3117640072;CALI;VALLE DEL CAUCA;24;0;3254;2
31467278;ADRIANA LUNA;CAICEDO;adluna01@hotmail.com;CR 100 # 11 - 60 LC 165;0;3006084879;CALI;VALLE DEL CAUCA;0;1;5854;2
31467347;MARIA YOLANDA;CARDENAS E;notiene@notiene.com;CL 41 NORTE # 6BN - 34 BR LA CAMPIÑA;0;3012913897;CALI;VALLE DEL CAUCA;17;0;0389;2
31467363;VICTORIA ASSERIAS;FAYAD;VEASSERIAS@YAHOO.COM;CR 101 # 12 - 16 CS 32;0;3167413537;CALI;VALLE DEL CAUCA;17;0;0658;2
31467425;MYRIAM TOBAR;PAZ;tovarmair.@gmail.com;CL 72 BN# 2 BIS  - 74 BR BRISAS DE LOS;0;0;CALI;VALLE DEL CAUCA;1;0;4032;2
31467556;CLARA I;RESTREPO PEREZ;cirestrepo_02@hotmail.com;CR 67 # 1 - 45 BQ 2 AP 401 UN SENDEROS DEL REFUGIO;0;3176440068;CALI;VALLE DEL CAUCA;18;0;5872;2
31467585;VICTORIA E;GALINDO S;vicky512009@hotmail.com;CR 7 # 13 - 55;0;3154939393;CALI;VALLE DEL CAUCA;1;0;8473;2
31467862;DENNY PATRICIA;DEL LOTERO;dennypl@hotmail.com;CR 40 # 5 - C - 118;0;3182403335;CALI;VALLE DEL CAUCA;16;0;9012;2
31467872;LUZ PADILLA;DE NARVAEZ;ESTELLAPADILLA12563@HOTMAIL.COM;CR 13 # 7 - 22 Piso 2;0;3136515769;YUMBO;VALLE DEL CAUCA;0;2;3318;2
31467960;MARTHA YANGUAS;ARAGON;notiene@notiene.com;1690 VICTORIA POINTE CIRCLE;0;0;CALI;VALLE DEL CAUCA;8;0;6026;2
31467963;MARIETTE MARTINEZ;C;mamarticu.mm@gmail.com;CL 13 A # 68 - 25 AP 404;0;3017716771;CALI;VALLE DEL CAUCA;19;0;3005;2
31468385;ADRIANA V;DOMINGUEZ G;adrianavictoria.dominguez@gmail.com;AV 5 B NORTE # 49 - 29 BR LA FLORA;0;3154822733;CALI;VALLE DEL CAUCA;4;0;4007;2
31468592;MARYBEL ECHEVERRI;B;MARIECHEVERI7@HOTMAIL.COM;CR 1 A OES # 6 - 10 AP 701;0;3155407704;CALI;VALLE DEL CAUCA;17;3;4022;2
31468707;LUZ A;SABOGAL PINILLA;luz.sabogal@correounivalle.edu.co;CR 34 # 5 B 2 - 73 PS 1  BR SA;0;3104993113;CALI;VALLE DEL CAUCA;21;0;1002;2
31468799;GLORIA M;RODRIGUEZ S;rosi38@gmail.com;CLL 13C N 75 55;0;3017111913;CALI;VALLE DEL CAUCA;0;1;8683;2
31468848;EMMA L;ROJAS MONEDERO;erojasm@dian.gov.co;CR 68 # 13 B - 61 AP 604D;0;3155698143;CALI;VALLE DEL CAUCA;17;0;8006;2
31468935;MARIA A;ARANA C;aurorarana@hotmail.com;CL 14 NTE  # 6 N - 23 OF 702;0;3187944547;CALI;VALLE DEL CAUCA;1;0;1117;2
31468989;JANETH LOTERO;LOTERO G;jloterog@hotmail.com;CL 10 BIS OSTE # 28 - 31;0;3155528804;CALI;VALLE DEL CAUCA;14;3;4948;2
31469001;ALBA INES;MEZA GUERRERO;albainesmeza@gmail.com;CLL 14 NO 2 - 66;0;3017004123;YUMBO;VALLE DEL CAUCA;22;4;5008;2
31469050;OLGA CECILIA;JARAMILLO B;ocjaramillo@hotmail.com;CR 60 A # 2 A - 167 BR PAMPALINDA;0;3164459887;CALI;VALLE DEL CAUCA;2;0;9729;2
31469102;AMPARO MUNOZ;PIZARRO;notiene@notiene.com;CL 8 A N # 6 N - 13 BARRIO LLERAS;0;3158147447;YUMBO;VALLE DEL CAUCA;8;0;2004;2
31469261;PATRICIA MUNOZ;SILVA;patimumu@hotmail.com;AV 3 FN # 59 - 120 BR FLORA;0;3113219460;CALI;VALLE DEL CAUCA;22;0;2278;2
31469276;MARTHA L;CAICEDO H;garcesyasesores@hotmail.com;CALLE 12A 107 80;0;3122598454;CALI;VALLE DEL CAUCA;22;4;0006;2
31469320;MARGARITA C;SOTO HURTADO;msoto@yahoo.com;CL 8 OE #  36 - 81 ED PENDIRISEO AP 301 BR CRISTALES;0;3136860037;CALI;VALLE DEL CAUCA;1;1;8523;2
31469414;MARIA A;DIAZ ACOSTA;anayjose92@hotmail.com;AV 3 E NOR # 62 - 93 CS 77 B;0;3128666773;CALI;VALLE DEL CAUCA;17;0;4006;2
31469436;MARIA BEATRIZ;OCHOA LOPEZ;bettyochoa7@gmail.com;CL 10 BIS  OE  # 28-155 ED vento 1;0;3165278115;CALI;VALLE DEL CAUCA;28;0;7994;2
31469547;AURA G;VELASCO FREYRE;notiene@notiene.com;CR 4 # 15 - 33 FRAY PE A;0;3113241657;YUMBO;VALLE DEL CAUCA;13;3;5002;2
31469550;MARIA ISABEL;LERMA MONTOYA;mariaisabellerma@hotmail.com;CR 81 A # 45 - 50;0;3148304856;CALI;VALLE DEL CAUCA;23;0;8873;2
31469659;MARIA T;GALINDO D;teregal2@gmail.com;CR 24E OE  # 4 - 90 BR TEJARES DE SAN FERNANDO;0;3108286550;CALI;VALLE DEL CAUCA;0;3;2933;2
31469769;MARIA CRISTINA;VARGAS A;libreriaarcangel_11@hotmail.com;AV 6 AN # 24 AN - 35;0;3165235570;CALI;VALLE DEL CAUCA;24;0;4600;2
31469914;ADRIANA HERNANDEZ;S;adrianita718@hotmail.com;CL 59N # 3E - 63 BR La Flora;0;3135924411;YUMBO;VALLE DEL CAUCA;16;0;2009;2
31470352;CLAUDIA E;GARCIA ALARCON;clagarcia1@hotmail.com;CL 22 # 6 N - 22;0;3104742640;CALI;VALLE DEL CAUCA;0;5;8071;2
31470424;CLAUDIA M;CARDENAS F;ccardenas@hotmail.com.co;CL 19# 100 - 59 CS 16 UN RINCON BR RINC;0;3137170382;CALI;VALLE DEL CAUCA;0;5;7383;2
31470434;BEATRIZ T;ESPINOSA P;BEATRIZESPINOSA@ESPINOSAASOCIADOS.COM;CL 129 B # 46 - 20 CS 50;0;3103001904;BOGOTA;BOGOTA D.C.;19;0;2580;2
31471010;JULIETA ESPERANZA;DORADO;CONTABILIDAD@RECONTRUSTRUCTORAALEMANA.COM;CL 12A # 56 - 04 AP 404 BR SANTA ANITA;0;3173912732;CALI;VALLE DEL CAUCA;1;0;9119;2
31471047;EVELYN BAUER;MORALES;notiene@notiene.com;CL 6 OESTE # 6 - 89 AP 506;0;3128512866;CALI;VALLE DEL CAUCA;1;0;9804;2
31471242;AMANDA L;TREJOS D;amandaluciat3@gmail.com;CL 18 A # 55 - 105 AP 454 TRR N;0;3148883987;CALI;VALLE DEL CAUCA;0;3;5536;2
31471257;MARIA DE;LA BARRERA;pbarrerac@bancoccidente.com.co;CR 4 A # 7 - 61 ED BANCO DE OCCIDENTE PS 3;0;3113203974;CALI;VALLE DEL CAUCA;24;0;5065;2
31471343;ANA M;ARBOLEDA FRANCO;ana.mar63@hotmail.com;AV 4 N # 37 N - 36;0;3104929961;CALI;VALLE DEL CAUCA;0;2;2357;2
31471396;PATRICIA MUNOZ;IZQUIERDO;pattymvelez@hotmail.com;CR 4 # 10 - 67 PS 2 ED ARDILA;0;3174051650;CALI;VALLE DEL CAUCA;17;0;9191;2
31471569;MARIA EUGENIA;CUERO B;mecube64@gmail.com;CR 5 # 12 - 32 AP 202 BR BOLIVAR;0;3117045378;YUMBO;VALLE DEL CAUCA;5;0;8455;2
31471742;JANNINE ESKENAZI;LEVY;jeannine.eskenazi@gmail.com;CL 127 C # 1-40 IN 14 CONDM BOSQUES DEL MIRADOR;0;3213131996;BOGOTA;BOGOTA D.C.;9;0;1612;2
31471782;ADRIANA GARCES;RESTREPO;adrianitagarces1@hotmail.com;CR 5 # 33 - 11;0;3147713757;CALI;VALLE DEL CAUCA;0;4;5379;2
31471997;MARTHA L;LONDONO MARQUEZ;marturi69@yahoo.com;AV 4 A OE # 3 - 77;0;3155276472;CALI;VALLE DEL CAUCA;0;4;6524;2
31472269;CLAUDIA;OSPINA;claudiazulima@hotmail.com;CL 175 #15-20 TR 2 AP 102;0;3102324014;BOGOTA;BOGOTA D.C.;20;0;3102;2
31472927;EMMA HURTADO;LOZANO;ehcontable@gmail.com;CR 11 A # 71 - 44;0;0;CALI;VALLE DEL CAUCA;18;0;1000;2
31473161;MARIA R;VELEZ RAMIREZ;ruvera16@hotmail.com;CL 14 # 3 - 38;0;3206859940;YUMBO;VALLE DEL CAUCA;2;0;6872;2
31473465;ALEJANDRA QUINONEZ;S;aleja.lolita@hotmail.com;CL 11 # 6 - 25 BR URIBE;0;3148879246;YUMBO;VALLE DEL CAUCA;4;4;9500;2
31473528;FLOR ISABEL;MUNOZ ROLDAN;distripanelacampesina@gmail.com;CR 10 A# 8 - 32 BR URIBE;0;3136604556;YUMBO;VALLE DEL CAUCA;0;2;4332;2
31474013;MONICA ARBOLEDA;PASTRANA;gerencia@charriaseguros.com;CR 7 # 19 - 28 OF 501 ED TORRE BOLIVAR;0;3218025856;PEREIRA;RISARALDA;0;1;8026;2
31474830;IRMA L;CHARRIA YUSTI;luisacharria@hotmail.com;CALLE 47 NORTE 2AN 30;0;3164604645;CALI;VALLE DEL CAUCA;14;5;2001;2
31475258;EMMA CECILIA;KURE PERLAZA;emmakure@hotmail.es;CR 2 OESTE # 5 - 60 ED ANDALUCIA AP 301;0;3187119035;CALI;VALLE DEL CAUCA;5;0;8643;2
31475386;BERTHA MARIA;PEREZ GOMEZ;daniolave.p05@hotmail.com;CR 14 A # 18 - 17  BR LA  ESTANCIA;0;3103826578;CALI;VALLE DEL CAUCA;1;0;6317;2
31475513;ADRIANA TORRES;T;torrestaoa@yahoo.com;CL 37 N # 3 C N - 20 BR PRADO DEL NTE;0;3103011911;CALI;VALLE DEL CAUCA;0;1;0368;2
31476714;MARIA CARDENAS;RUIZ;maisabela84@hotmail.com;CL 36 # 42 B - 41 BR REPUBLICA DE ISRAEL;0;3137483220;CALI;VALLE DEL CAUCA;0;3;2834;2
31476859;SANDRA DAZA;GOMEZ;sadazu2010@hotmail.com;CL 12 N 87 - 40 AP 412;0;3192194403;CALI;VALLE DEL CAUCA;2;0;4828;2
31478700;CLAUDIA P;DE LA;claudia18p@hotmail.com;AV 2 norte # 10 - 70 PS 12 TRR ALCADIA VALORIZACION MUNICIPAL;0;3185287258;CALI;VALLE DEL CAUCA;0;4;0926;2