documento;nombre;apellido;email;direccion;telefono;celular;ciudad;depto;master;visa;tarjeta;tipo
8266760;JOAQUIN L;GAVIRIA ADARVE;joaquin.leon.gaviria@hotmail.com;CL 53 # 46 - 09 OF 403;0;3217525710;MEDELLIN;ANTIOQUIA;24;4;2100;2
8266921;JUAN GUILLERMO;VALENCIA;valenciav2@gmail.com;CL 14 # 30  57;0;3108221659;MEDELLIN;ANTIOQUIA;26;5;4481;2
8267073;JAIME A;VELASQUEZ ARANGO;nuvel1@hotmail.com;CR 25 # 10 - 40 AP 707 URB CAMINO DE MOTICHELLE;0;3104623136;MEDELLIN;ANTIOQUIA;26;3;8003;2
8267085;AUGUSTO MORENO;MEJIA;augustojamoreno@hotmail.com;CL 23 # 53 - 64;0;3206373933;BELLO;ANTIOQUIA;14;0;8001;2
8267238;MEJIA PARRA;JESUS DANIEL;notiene@notiene.com;CL 20 SUR # 26 C - 140;0;3117208619;MEDELLIN;ANTIOQUIA;2;0;6924;2
8267250;CARLOS URIBE;URIBE;notiene@notiene.com;DG 93 A # 39 - 61 AP 210;0;3128882241;MEDELLIN;ANTIOQUIA;24;0;4852;2
8268114;MARIO DE;J BEDOYA;panturismo@panturismo.com.co;CL 18 NORTE # 8 N - 27;0;3104984300;CALI;VALLE DEL CAUCA;22;0;2473;2
8268421;JUAN DAVID;MEDINA OCHOA;juandavidmedinao@hotmail.com;CL 1B S  # 38 - 10 AP 701 BR E;0;3122589731;MEDELLIN;ANTIOQUIA;22;0;6015;2
8268433;GONZALO PIZARRO;DIAZ;gpizarrod@hotmail.com;DG 49 A # 72 A - 39 FORQUIME LTDA;0;3168520403;MEDELLIN;ANTIOQUIA;15;1;3114;2
8268716;LUIS A;GIRALDO Y;cagiga770@hotmail.com;CR 96 C # 50 A 280 BR CALAZAN - MONTE PARAISO AP 216;0;3007787860;MEDELLIN;ANTIOQUIA;0;4;5878;2
8268788;SILVIO VILLEGAS;VILLEGAS B;silvio.villegas9@gmail.com;CR 65F # 31 - 40 TRR 3 AP 114 BR BELEN MALIBU;0;3146203740;MEDELLIN;ANTIOQUIA;9;5;8130;2
8268994;ALBERTO ARISTIZABAL;E;albertoae@une.net.co;BR BOSQUES DE ZUNIGA CL 22 S  # 44 - 80 AP 607;0;3007737791;ENVIGADO;ANTIOQUIA;24;0;0005;2
8269134;FLAVIO RICO;ARANGO;flavioricoarango@gmail.com;CL 32 #41-12 ITAGUI;0;3174016705;ITAGUI;ANTIOQUIA;18;0;2071;2
8269257;ALVARO SANTAMARIA;ARANGO;asantama@une.net.co;CR 48 # 19 SUR - 10;0;3104241312;MEDELLIN;ANTIOQUIA;26;0;0008;2
8269419;JAVIER GUTIERREZ;V;JAVIERGU47@HOTMAIL.COM;CL 29 SUR # 46A 51 AP 1507 ED SAUCES DE LA CONCHA;0;3155625675;ENVIGADO;ANTIOQUIA;13;3;1005;2
8269485;HUGO LOPEZ;ARCILA;angelitadelopez@gmail.com;CR 27 B 27 D SUR 99 CASA 276 URB QUEBRAD 0 LA INMACULADA;0;3155039521;ENVIGADO;ANTIOQUIA;16;3;0902;2
8269512;JOHN SOTO;GARCIA;fregreban@aagive.com.co;CR 27 A A # 36 S  - NATIVO FLORA 902;0;3006106799;MEDELLIN;ANTIOQUIA;5;0;9828;2
8269605;FRANCISCO CASTRO;O;GESTIONASESORIASINT@GMAIL.COM;CRA 42 # 75-083;0;3187081484;MEDELLIN;ANTIOQUIA;21;4;2241;2
8269720;GIOVANNI MACIAS;Z;gimcz.19@hotmail.com;CR 5 # 13 - 270 CJRES VILLA DEL MAR CS 1 - 9 BR RODADERO;0;3003080234;SANTA MARTA;MAGDALENA;0;1;5373;2
8269801;ADOLFO CUMPLIDO;POSADA;acumplidop@gmail.com;CR 48 # 18A-126 LC CIMA BR CIUDAD DEL RIO;0;3104492883;MEDELLIN;ANTIOQUIA;24;4;9926;2
8269891;LUIS O;HENAO ARANGO;hluisoctavio@gmail.com;CR 40B # 17 - 188 AP 1012 TRR 2 UNRES EL;0;3207005655;MEDELLIN;ANTIOQUIA;13;0;2015;2
8270015;JULIAN RESTREPO;ARBELAEZ;julianrestrep@hotmail.com;CR 41 B # 30 B - 60 NC 4 AP 510;0;3105179346;MEDELLIN;ANTIOQUIA;24;0;7737;2
8270048;MANUEL J;LOPEZ R;nolo1018@gmail.com;CL 73 A # 77 - 08 AP 201;0;3006627351;MEDELLIN;ANTIOQUIA;0;3;1804;2
8270116;OMAR RIVERA;BRAVO;notiene@notiene.com;CL 50 a #82-125 AP 125 CJRES calasanz;0;3207251995;MEDELLIN;ANTIOQUIA;18;0;1016;2
8270684;SANTIAGO GIRALDO;ISAZA;idalgo_santiago@hotmail.com;CR 75 DA - 1 S  - 140 AP 208;0;3002435920;MEDELLIN;ANTIOQUIA;24;5;4476;2
8271204;NELSON CORTES;CASTANO;NCORTES001@GMAIL.COM;CR 30 # 5 F - 185  UN PLAZA MANZANARES AP 804 BR EL POBLADO;0;3105491909;MEDELLIN;ANTIOQUIA;18;0;9005;2
8271216;RAUL H;CADAVID GIRALDO;raulcad@une.net.co;L 36 D S A # 27 D - 166 CS 257 URB GASCU;0;3103892303;ENVIGADO;ANTIOQUIA;17;0;4011;2
8271496;JORGE ACEVEDO;VASQUEZ;JORGEHUMBERTO82@UNE.NET.CO;TV 39 B # 75 - 09;0;3108298183;MEDELLIN;ANTIOQUIA;4;2;9019;2
8271512;OLMEDO GIRALDO;MORENO;arbelaezt@une.net.co;CR 73 # C4 - 38 OF 101;0;3122964013;MEDELLIN;ANTIOQUIA;22;0;6022;2
8272442;JUAN J;AGUDELO CADAVID;juanjagudelo@hotmail.com;CL 11 B # 41 - 89 AP 502;0;3006203866;MEDELLIN;ANTIOQUIA;0;3;3692;2
8272725;ALVARO DIAZ;JESUS DIAZ;adiaz147@gmail.com;CR 48 # 26 S  - 181 LC 129;0;3147907239;MEDELLIN;ANTIOQUIA;14;3;6809;2
8272755;JAIRO LOPEZ;ORTIZ;jailorti@une.net.co;CL 18 # 81 - 39 BR BELEN LA NUBIA;0;3104658562;MEDELLIN;ANTIOQUIA;9;0;3002;2
8273475;VICENTE LOPERA;LOPERA;vicente.lopera@hotmail.com;CL 10 EST # 52 - 370 AP 405;0;3155662481;CALI;VALLE DEL CAUCA;23;5;7017;2
8273494;LEON OVIDIO;MEDINA PEREZ;dora.lujan@yahoo.com;CR 69 # 42 A - 40 AP 502;0;3137608887;MEDELLIN;ANTIOQUIA;6;0;5007;2
8273787;GABRIEL H;ROJO F;prospectiva21@gmail.com;CR 24 DD # 41 sur 190 AP 1218 CJRES Colors sector las antillas;0;3104629481;ENVIGADO;ANTIOQUIA;0;4;9494;2
8273849;PEDRO LUIS;RODRIGUEZ RUA;peterlouis47@gmail.com;CL 14 #55AC-138 AP 914;0;3007897642;RIONEGRO;ANTIOQUIA;12;0;0001;2
8273913;HENRY GIRALDO;PINEDA;henrygiraldop@yahoo.com;CL 6C 23 21;0;3186298936;NEIVA;HUILA;11;0;9531;2
8274165;IVAN A;MARIACA CARTAGENA;valen.cardonamariaca@gmail.com;CL 17 # 43 F - 23;0;3104147062;MEDELLIN;ANTIOQUIA;24;0;8118;2
8274389;NORMAN ISAZA;ISAZA;niisaza@une.net.co;CR 49 # 61 S - 540 BG 123 PQ BODEGAS LA REGIONAL;0;3113498118;SABANETA;ANTIOQUIA;26;0;1176;2
8274490;EDGAR FIGUEROA;RESTREPO;elviajaramillodisenos@cable.net.co;CL 101 # 70 B - 38;0;3002121297;BOGOTA;BOGOTA D.C.;21;0;7287;2
8274623;OCTAVIO E;PRADA SUAREZ;octaprada@gmail.com;CL 34 # 82 A - 15 AP 501;0;3156975254;MEDELLIN;ANTIOQUIA;0;4;1824;2
8274654;HUMBERTO PEREZ;ADARVE;notiene@notiene.com;JARDIN I ETAPA MZ 25 CS 5;0;3154356171;PEREIRA;RISARALDA;26;0;2598;2
8275080;MARCO A;MONTEJO C;mamc47@hotmail.com;CR 101 # 17-50 APTO 401 BR CIUDAD JARDIN;0;3006149785;CALI;VALLE DEL CAUCA;0;5;9158;2
8275503;MARIO MUNERA;JARAMILLO;mariomunera@marllantas.com;CL 42 C # 63 C - 145;0;3104260037;MEDELLIN;ANTIOQUIA;19;5;8825;2
8275725;EDUARDO MUNOZ;RUEDA;notiene@notiene.com;CR 47 # 20 sur 84 BR ZUÑIGA ED MONTREAL AP 703;0;3105076326;ENVIGADO;ANTIOQUIA;7;0;4007;2
8276100;HUMBERTO VELEZ;GONZALEZ;huvego1947@hotmail.com;CR 18 # 22 - 85 CS 25 RETIRO;0;3104266118;MEDELLIN;ANTIOQUIA;0;5;0655;2
8276329;MAURICIO SALDRRIAGA;P;maurosalda@hotmail.com;CR 25 # 3 - 45 OFICINA 536 CC DE ESTE;0;3104244762;MEDELLIN;ANTIOQUIA;25;0;2014;2
8276756;JOSE I;RONCALLO C;alvaroroncallo@hotmail.com;CL 50 NOR # 3 FN - 07;0;3135440819;CALI;VALLE DEL CAUCA;0;5;2919;2
8277185;ALVARO RAMIREZ;FADUL;arf1@une.net.co;CL 10 # 30 A - 55 AP 301;0;3008169276;MEDELLIN;ANTIOQUIA;0;2;3910;2
8277305;ALVARO A;ISAZA MEJIA;aisaza@unicorsa.com;CR 42 # 53 - 26 AUT S;0;3104240040;ITAGUI;ANTIOQUIA;18;0;7399;2
8277343;JAIME LOPEZ;TOBON;lopeztjaime@gmail.com;calle 69 sur # 45-40 apto 1703;0;3116452516;SABANETA;ANTIOQUIA;5;4;9615;2
8277415;HENRY B;BURGOS MORENO;burgosh_col@yahoo.com;CR 12 # 90 - 19;0;0;BOGOTA;BOGOTA D.C.;0;2;7750;2
8277777;OCTAVIO BEDOYA;OSORIO;tavio91@hotmail.com;CIRC 2 # 66 B - 128 AP 1001 ED PALERMO;0;3216192017;MEDELLIN;ANTIOQUIA;11;0;7000;2
8277900;GUILLERMO CARDONA;MONTOYA;guicamo64@hotmail.com;CR 42 # 54 A - 35;0;3006188470;ITAGUI;ANTIOQUIA;26;0;3251;2
8278075;ORLANDO MUNOZ;CASTANO;orlando4600@gmail.com.co;CL 53 # 52 - 16;0;3004741644;BOGOTA;BOGOTA D.C.;20;5;0032;2
8278077;ADOLFO L;PEREZ MUNOZ;CENTRALSECURITY@HOTMAIL.COM;AV CR 20 # 83 A - 25  CJ COLPATRIA  BQ 1;0;3153166072;BOGOTA;BOGOTA D.C.;0;4;4791;2
8278376;ALFONSO MOLINA;VASQUEZ;alfonsemiliomolina@gmail.com;KM 2 VER PERICO;0;3108382561;ENVIGADO;ANTIOQUIA;24;0;6103;2
8278452;OSCAR JIMENEZ;SALGADO;oscarjimenez.oj27@gmail.com;CR 99a # 48a - 13 AP 1806 ED torreon de santa lucia BR san javier;0;3163904968;MEDELLIN;ANTIOQUIA;0;2;2194;2
8278477;GUSTAVO LOPEZ;H;gal7800@hotmail.com;AV 30 DE AGOSTO # 81 - 05 MZ 3 CS 33;0;3108495485;PEREIRA;RISARALDA;0;1;5057;2
8278578;JORGE E;SALCEDO GOMEZ;lujor1946@gmail.com;CR 76 # 53 - 79 IN 1614 TRR 4 URB PARAISO DE COLORES BR LOS COLORES;0;3137305517;MEDELLIN;ANTIOQUIA;26;0;4009;2
8278625;LUIS F;OCHOA RAMIREZ;lfer8a@hotmail.com;CL 20 SUR # 35 - 15 AP 502;0;3108291673;MEDELLIN;ANTIOQUIA;21;0;7292;2
8279014;GUILLERMO ARBELAEZ;R;guillermo.arbelaez@une.net.co;OF 415 CR 70  ANTES LAURELES;0;3003466537;MEDELLIN;ANTIOQUIA;22;0;8237;2
8279111;LUIS C;ALVAREZ GAVIRIA;notiene@notiene.com;CL 42 # 81 A 60 AP 301 ED LOS GEMELOS BR SIMON BOLIVAR;0;3162576185;MEDELLIN;ANTIOQUIA;24;0;1004;2
8279239;PEDRO JUAN;NAVARRO PATRON;pnavarro46@hotmail.com;CR 56 # 80 - 227;0;3157231319;BARRANQUILLA;ATLANTICO;0;2;9710;2
8279252;JUAN MANUEL;JARAMILLO U;jaramillo.juanmanuel@gmail.com;CL 94 # 33 - 58 CS 20 B;0;3185229990;MANIZALES;CALDAS;8;0;4014;2
8279287;FRANCISCO L;MOORE DUQUE;franciscomoore.duque@hotmail.com;CL 26 A # 43 F - 95;0;3015810407;GIRARDOTA;ANTIOQUIA;22;4;8049;2
8279591;FRANCISCO R;GOMEZ G;rodrigo.gomez-gallon@hotmail.com;CR 1 A # 55 - 35 CS C 6 CJ JARDIN DEL VIENTO;0;3113113579;CALI;VALLE DEL CAUCA;14;5;6684;2
8279741;JOHN F;SUAREZ GALEANO;notiene@notiene.com;CR 73# C 4 - 56 BR LAURELES;0;3193051493;MEDELLIN;ANTIOQUIA;0;3;9643;2
8280183;ALVARO MARULANDA;QUIROZ;alvaromq@une.net.co;TR 34 SUR # 39 - 51 AP 401;0;3155116602;MEDELLIN;ANTIOQUIA;14;0;5016;2
8280415;CARLOS FIGUEROA;AGUILAR;notiene@notiene.com;CR 47 # 1 - 95 AP 402;0;3147720878;MEDELLIN;ANTIOQUIA;21;0;4237;2
8280465;SAMUEL VARELA;HOLGUIN;sv-47@hotmail.com;CL 11 C # 72 A - 49;0;3167793957;BOGOTA;BOGOTA D.C.;15;0;0005;2
8280502;ARTURO HERNANDEZ;AGUDELO;arturojha@hotmail.com;CL 15 # 8 - 49 TERR CAMPO HERMOSO;0;3007776569;MANIZALES;CALDAS;21;1;7072;2
8280548;ADOLFO LEON;VELEZ VELEZ;adolfo.lvelez@gmail.com;INGENIO MANUELITA;0;3154988171;PALMIRA;VALLE DEL CAUCA;16;0;4006;2
8280610;HUGO L;BETANCUR SANTAMARIA;hubesa2@yahoo.es;TV 32 A SUR # 31 D - 58;0;3163435893;ENVIGADO;ANTIOQUIA;27;0;7002;2
8280649;JESUS MARIA;ROLDAN B;jmroldanb@hotmail.com;CR 45 A # 34 SUR - 57;0;3105207627;ENVIGADO;ANTIOQUIA;0;1;3865;2
8280702;HERNANDO MAYA;POSADA;notiene@notiene.com;CL 41 # 52 - 28;0;3147895656;MEDELLIN;ANTIOQUIA;25;0;7587;2
8280816;OCTAVIO CARDONA;QUICENO;notiene@notiene.com;CR 75 # 42 - 59;0;3052911778;MEDELLIN;ANTIOQUIA;24;4;2918;2
8280832;JORGE R;DORADO ALVAREZ;notiene@notiene.com;CR 43 A # 1 SUR - 31 OF 310;0;3104050992;MEDELLIN;ANTIOQUIA;0;1;4550;2
8280849;RODRIGO OROZCO;MONTOYA;rodrigorozco48@gmail.com;CR 72 # 31 - 81;0;3104246721;MEDELLIN;ANTIOQUIA;20;0;9044;2
8280935;EDUARDO E;CARDENAS C;educarca@hotmail.com;CR 14 # 127 - 10 ED PIRAMIDE PS 5;0;3108591468;BOGOTA;BOGOTA D.C.;1;0;5639;2
8281149;RICHARD STEPHENS;TOLEDO;richstephens24@yahoo.com;CL 43# 83 - 47 AP 401;0;3153034515;MEDELLIN;ANTIOQUIA;0;1;1435;2
8281170;JESUS M;AGUDELO GAMBOA;jm_agudelo@yahoo.com;CL 145 # 7 C - 75 Apto607;0;3186306499;BOGOTA;BOGOTA D.C.;0;5;4444;2
8281318;CARLOS A;MARTINEZ HENAO;caofomh@gmail.com;CL 51 # 82 - 190;0;3136394455;MEDELLIN;ANTIOQUIA;19;3;1433;2
8281370;JOSE JAIME;MEJIA RAMIREZ;notiene@notiene.com;CR 47 # 74 - 23 PS 2 BR CAMPOVALDES;0;3117487342;MEDELLIN;ANTIOQUIA;0;2;2496;2
8281537;LUIS JAVIER;TOBON SANIN;lujatosa10@gmail.com;CL 32 # 61 - 230 URB POBLADO DEL SUR 118;0;3016210613;ITAGUI;ANTIOQUIA;5;4;7278;2
8281573;FERNANDO MOLINA;H;notiene@notiene.com;CL 14 # 30 - 175 URB LAS LOMAS  BR POBLADO;0;3117199622;MEDELLIN;ANTIOQUIA;11;3;8709;2
8281636;JOSE W;GIRALDO ZULUAGA;williamgiraldo-zuluaga@hotmail.com;CL 18 #54-07;0;3108452380;RIONEGRO;ANTIOQUIA;18;0;6033;2
8281739;MAGNO MURILLO;RENTERIA;MAGONOMURILLO.MED30@GMAIL.COM;TV 32 CC SUR # 31 B A - 46  BQ 19 IN 103 URB VILLA NUEVA DE AYURA;0;3103814273;ENVIGADO;ANTIOQUIA;26;4;6018;2
8281871;RUBEN DARIO;HENAO JARAMILLO;rubenhenaoj@gmail.com;CL 11 # 30 A - 39;0;3104242764;MEDELLIN;ANTIOQUIA;22;0;1537;2
8282486;BERNARDO RIVERA;CHAVEZ;RIVERAS6512@HOTMAIL.COM;CL 2 C # 65 - 12 MANZANARES;0;3007674292;MEDELLIN;ANTIOQUIA;22;0;8266;2
8282492;JORGE E;VASQUEZ ALVAREZ;jorgev1505@gmail.com;Cra 29 # 4B - 118 Casa 112;0;3117062072;LA CEJA;ANTIOQUIA;21;0;5006;2
8282700;MAXIMO E;WIRTH VARELA;notiene@notiene.com;CR 81 # 32 - 63 MZ H AP 402 CJ NUEVA VILLA DE ABURRA;0;0;MEDELLIN;ANTIOQUIA;12;0;8004;2
8282931;URIAS PARRA;RODRIGUEZ;DIAZPARRA@HOTMAIL.COM;CR 16 # 83 - 106;0;3218120803;PEREIRA;RISARALDA;3;3;6744;2
8282978;JORGE HERNANDO;MEJIA U;gerencia@bonmarche.com.co;CERRITOS ENTRADA 2 FINCA EL POSO CERRITO;0;3006121448;PEREIRA;RISARALDA;7;0;0016;2
8283011;SERGIO ESCOBAR;ISAZA;sergioescobar48@hotmail.com;CL 23 SUR # 25 B - 79;0;3006508100;ENVIGADO;ANTIOQUIA;8;4;4015;2
8283264;RODRIGO DE;VIVERO V;marymar.ltda@gmail.com;CL 131 A # 9- 59 AP 302A CJ EL VERJEL DEL COUNTRY;0;3106800360;BOGOTA;BOGOTA D.C.;21;2;5023;2
8283396;JOSE PALACIO;PELAEZ;jpalaciopelaez@gmail.com;CL 15 SUR # 46-10 AP 104 CJ TORRES DE SANTA MARIA BR EL POBLADO;0;3206839913;MEDELLIN;ANTIOQUIA;4;5;0006;2
8283414;JOSE JAVIER;BOTERO VELEZ;boteroyepes@une.net.co;CL 32F # 76 - 35 OF 201;0;3104145534;MEDELLIN;ANTIOQUIA;20;0;8000;2
8283485;HORACIO LONGAS;MUNERA;HORONGAS20@HOTMAIL.COM;CR 28 C NO37 SUR 14  APTO 401;0;3108364198;ENVIGADO;ANTIOQUIA;13;0;8523;2
8283494;NELSON CARDONA;VELASQUEZ;notiene@notiene.com;CR 27 # 7B - 145 AP 1402 BR EL POBLADO;0;3176563423;MEDELLIN;ANTIOQUIA;10;3;2854;2
8283654;JAIRO L;LONDONO P;rb.botero@hotmail.com;CL 10 # 30 - 160 AP 507;0;3104694268;MEDELLIN;ANTIOQUIA;0;1;6849;2
8283675;GUSTAVO;ECHEVERRI;gustavoecheverry8@hotmail.com;CR 2 # 5 - 53;0;3155705983;BUGA;VALLE DEL CAUCA;16;0;7019;2
8283726;CARLOS BURITICA;GIRALDO;buriticacarlos@gmail.com;CR 13 # 119 - 46 ED LIVI  AP 101  BR SANTA BARBARA CENTRAL;0;3102991854;BOGOTA;BOGOTA D.C.;22;0;6063;2
8284003;GUILERMO LEON;GAVIRIA Z;guillermogaviria60@hotmail.com;CR 23 # 10 B - 120 CS 108;0;3106677184;MEDELLIN;ANTIOQUIA;9;0;4434;2
8284669;ABELARDO MARIN;RESTREPO;abelmr47@hotmail.com;TRANSV 32 SUR 31D 64 APTO 501 0 ENVIGADO;0;3004601897;ENVIGADO;ANTIOQUIA;8;0;8004;2
8284873;JAIME A;RODAS DUQUE;jarodas@ccc.com.co;CL 52 # 47 - 42 PS 6 ED COLTEJER BR CENTRO;0;3218173460;MEDELLIN;ANTIOQUIA;26;5;0100;2
8284898;GABRIEL JORGE;MEJIA O;carloss.mejia@asesorsura.com;CR 73 a # 38 - 20 AP 402 URB santa teresita;0;3206512090;MEDELLIN;ANTIOQUIA;20;0;7491;2
8284974;RAUL CUERVO;GONZALEZ;distryser1@une.net.co;CL 34 B # 65 D - 38;0;3007808025;MEDELLIN;ANTIOQUIA;24;5;8024;2
8285043;REMBERTO SERNA;Z;raserna@une.net.co;CR 42 # 49 - 95;0;3006097354;MEDELLIN;ANTIOQUIA;0;5;7370;2
8285047;MIGUEL ZAPATA;RODRIGUEZ;notiene@notiene.com;CR 16 # 127 - 81 IN 5 AP 404;0;3003456281;BOGOTA;BOGOTA D.C.;26;0;7201;2
8285131;ALVARO OROZCO;JARAMILLO;aorozcojaramillo@outlook.com;CR 38 # 7 A SUR - 83 AP 201;0;3186788666;MEDELLIN;ANTIOQUIA;0;1;9146;2
8285195;OSCAR NARANJO;H;onaranjoh2010@hotmail.com;CR 25 # 36 S  - 150 TRR 3 AP 301 BR LOMA DEL CHOCHO;0;3117475493;ENVIGADO;ANTIOQUIA;0;1;2816;2
8285272;GUSTAVO ISAZA;PELAEZ;ijesus@une.net.co;CL 53 # 50 - 20 OF 410 ED RODANO;0;3117481238;MEDELLIN;ANTIOQUIA;21;4;5632;2
8285351;JAIME URIBE;ESPITIA;jaimeuribe@une.net.co;CR 41A NO 22S 87 AP 1010;0;3103736473;ENVIGADO;ANTIOQUIA;0;1;9680;2
8285583;CARLOS C;MOLINA ANGEL;kangelmo@yahoo.com.ar;CLL 20 B SUR 38 36 0 0;0;3006525047;MEDELLIN;ANTIOQUIA;15;0;8000;2
8285769;ALVARO ARAQUE;VILLA;araque.alvaro@hotmail.com;CR 38 # 7 A SUR - 40 AP 1303 U;0;3208515546;MEDELLIN;ANTIOQUIA;11;4;8005;2
8285829;JAIRO POSADA;MEJIA;jposada2009@hotmail.com;CR 82 C 30 A 105 AP 1010 TO 8;0;3182211513;MEDELLIN;ANTIOQUIA;19;5;9007;2
8285850;GILDARDO ARROYAVE;C;tecnicentrola15@hotmail.com;CL 41 # 12 - 58 BR EL PRADO;0;3142191962;BUCARAMANGA;SANTANDER;0;1;8101;2
8286258;JAIME JARAMILLO;PEREZ;JAIMEJARAMILLO04@HOTMAIL.COM;ENKA PLANTA;0;3137994324;GIRARDOTA;ANTIOQUIA;19;3;4212;2
8286640;LUIS GALLON;BETANCUR;gigabe@hotmail.com;CR 43 A # 16 A S 38 OF 803;0;3117196102;MEDELLIN;ANTIOQUIA;14;0;5002;2
8286817;JOSE GERARDO;SALAZAR J;gerardosalaj@gmail.com;CL 39 S 27 - 55 AP 11-04 ENVIGADO CAMINO VERDE;0;3127362502;MEDELLIN;ANTIOQUIA;19;5;7819;2
8286907;JORGE LEON;GIL FRANCO;leogil501@yahoo.es;CL 6# 43C 64 AP 1304;0;3155074250;MEDELLIN;ANTIOQUIA;0;5;2552;2
8286962;RAFAEL CORREA;CASTRILLON;racocas@hotmail.com;CR 64 #38 100 AP 1011 TRR 3;0;3155037564;MEDELLIN;ANTIOQUIA;17;5;4160;2
8287033;DARIO DE;J MARIN;notiene@notiene.com;CR 92 # 34 E 22 BR SANTA MONICA;0;3007858944;MEDELLIN;ANTIOQUIA;17;0;1009;2
8287051;MIGUEL G;URIBE OLARTE;tuequipo@une.net.co;CL 38 # 59 - 156;0;3113335219;RIONEGRO;ANTIOQUIA;18;0;6060;2
8287332;OSCAR OCTAVIO;PAREJA SOSSA;OSCARPAREJA47@HOTMAIL.COM;CL 75 # 75 - 130;0;3128305448;MEDELLIN;ANTIOQUIA;16;2;4007;2
8288114;MARCO AURELIO;CADAVID A;macadavid@emcali.net.co;CR 127 # 9 - 200;0;3117463201;CALI;VALLE DEL CAUCA;3;3;4321;2
8288187;JOHN MARIO;ALVAREZ ACOSTA;gerencia@atlantisonline.co;CL 45 B # D 77 - A 38;0;3116094884;MEDELLIN;ANTIOQUIA;0;1;6148;2
8288669;JESUS GOMEZ;JARAMILLO;jemilio_gomez@hotmail.com;CL 146 # 6 - 24 TRR 4 AP 201 BR SIERRAS DEL MORAL;0;3102855109;BOGOTA;BOGOTA D.C.;0;1;1055;2
8289109;RODRIGO MUNOZ;SALINAS;rodmusal@gmail.com;CL 48 # 49 - 34;0;3122598063;MEDELLIN;ANTIOQUIA;1;0;7476;2
8289352;LUIS URIBE;RESTREPO;luisuriberpo@gmail.com;CR 69 B # 24 - 10 IN  33 AP 402;0;3124491887;BOGOTA;BOGOTA D.C.;0;5;2339;2
8289509;JOHN LUIS;ARANGO ORTIZ;joarolu@hotmail.es;DG 79 # 9 51 BQ 4 AP 315 UN SORRENTO 2;0;3184509148;MEDELLIN;ANTIOQUIA;19;4;0713;2
8289655;JORGE L;LONDONO H;jorgel1348@hotmail.com;CR 81 # 48 B - 03 AP 601;0;3002016759;MEDELLIN;ANTIOQUIA;22;5;4332;2
8289741;LUIS CARMONA;ZAPATA;angelacar0221@hotmail.com;CR 56 # 48 - 25;0;3007907032;COPACABANA;ANTIOQUIA;19;0;3010;2
8289875;CARLOS BARRENECHE;HENAO;cabarhe@gmail.com;CR 27 # 20 S  - 181 AP 181;0;3186155100;MEDELLIN;ANTIOQUIA;26;5;4243;2
8289952;SAUL SANCHEZ;TORO;ssancheztoro@gmail.com;CL 67 # 3 - 12 PUERTA DE ALCALA BR LA FLORIDA;0;3137375062;VILLAMARIA;CALDAS;11;0;9100;2
8290029;SAMUEL LOPEZ;SALAZAR;smuel48@gmail.com;CL 24 # 58 C - 03;0;3114629083;BELLO;ANTIOQUIA;0;4;3532;2
8290101;CARLOS GUTIERREZ;L;comacril@onc.net.co;CL 51 # 54 - 45 BR CENTRO;0;3007805680;MEDELLIN;ANTIOQUIA;25;0;3016;2
8290122;FRANCISCO VELEZ;GIL;fernandovelezgil@hotmail.com;CR 42 # 1 SUR - 48 AP 301 BR POBLADO;0;3116093892;MEDELLIN;ANTIOQUIA;19;0;1025;2
8290152;LUIS URIBE;TOBON;LUISFERNANDOONBETOBON@HOTMAIL.COM;CR 61A # 9 - 266 ED IBIZA II AP 202;0;3154109572;CALI;VALLE DEL CAUCA;3;0;0002;2
8290692;MANUEL H;MARULANDA;hucama@gmail.com;CL 25 B # 33 - 62 RECUERDO;0;3106984529;BOGOTA;BOGOTA D.C.;16;5;8610;2
8290917;HECTOR R;CORDOBA;quijano13@yumbo.com;CR 78 # 52 A - 16;0;3166327648;MEDELLIN;ANTIOQUIA;0;1;4818;2
8290957;JAIME URIBE;VELEZ;MARTAJIMENEZP@HOTMAIL.COM;URB AGUA LUNA CS 25  LLANO GRANDE VER TRES PUERTAS;0;3006203118;RIONEGRO;ANTIOQUIA;19;1;7013;2
8291118;RENE JARAMILLO;HERNANDEZ;rejahe17@hotmail.com;CR 29 A # 7 B 50 APT 1302 CJRES SANTA SOFIA RIO TINTO;0;3013550768;MEDELLIN;ANTIOQUIA;0;4;0294;2
8291198;IVAN DARIO;ARANGO MUNOZ;ivandarango@yahoo.es;CR 27 A # 37 SUR - 07 AP 807;0;3104737680;MEDELLIN;ANTIOQUIA;25;5;7003;2
8291216;MARIO GIL;CARDONA;ESTRUCTURASYAGUAS@GMAIL.COM;CR 51 # 51 - 17 OF 700;0;3113900973;MEDELLIN;ANTIOQUIA;2;2;3342;2
8291956;JUAN DIEGO;BOTERO GOMEZ;diegobotero@une.net.co;CL 7 # 18 - 115 CJRES AZUL PACIFICO PS 13 AP 1301;0;3183123102;MEDELLIN;ANTIOQUIA;16;0;1807;2
8292009;CARLOS LONDONO;QUINTERO;notiene@notiene.com;CL 7 # 83 - 31 CJ SIEMPREVERDE AP 820 TRR 5;0;3154878232;MEDELLIN;ANTIOQUIA;22;0;2869;2
8292130;RICARDO VAYDA;ADLER;ricardovayda@une.net.co;CR 43 A # 19 - 17 OF 607;0;3104247619;MEDELLIN;ANTIOQUIA;21;0;8272;2
8292238;JESUS ELIAS;ARROYAVE S;eliasar2009@hotmail.com;MZ 4 CS 12 BR CORALES;0;3128311357;PEREIRA;RISARALDA;11;3;0007;2
8292492;HECTOR ZAPATA;ALZATE;heczap1969@gmail.com;CR 84 B # 9 102 BR BELEN ALIADAS;0;3006186460;MEDELLIN;ANTIOQUIA;2;0;3377;2
8292532;MANUEL OSORIO;ARBELAEZ;manuelsosorio@gmail.com;DIAG 75 B 6  110 APTO 804 BELEN LA MOTA 0;0;3128494758;MEDELLIN;ANTIOQUIA;12;0;8220;2
8292642;LUIS FERNANDO;ZAPATA A;solaranjo@gmail.com;CL 11 S  # 29D - 27 AP 1402;0;3108372558;MEDELLIN;ANTIOQUIA;22;2;7486;2
8292767;DARIO LONDONO;AVENDANO;dlondonoa@une.net.co;CL 1 SUR # 35 - 170 AP 703;0;3116343430;MEDELLIN;ANTIOQUIA;23;5;5001;2
8292980;EFREN A;MONTOYA GOMEZ;efren.montoya@gmail.com;CL 38 B S # 26 - 02 CJRES MONTE VENTO AP 1311 BR CAMINO VERDE;0;3116232452;ENVIGADO;ANTIOQUIA;0;1;4342;2
8292985;ANTONIO JOSE;SUAREZ ORTEGA;ANSUOR17@YAHOO.ES;CL 34 # 26 - 11 COROZAL;0;3116573379;SINCELEJO;SUCRE;7;0;9009;2
8293028;JOSE ALFREDO;RAVE Q;grecos@epm.net.co;CR 21 # 10A - 12 AP 301;0;3108953878;BARBOSA;ANTIOQUIA;15;2;0074;2
8293347;MARIO JESUS;MARIACA CANO;beatrizrestrepovelez@hotmail.com;CL 7 # 83 - 31 TRR 2 AP 1407;0;3155714999;MEDELLIN;ANTIOQUIA;8;0;5036;2
8293578;CARLOS A;ROBLEDO ARANGO;heladoscolos@hotmail.com;CL 10 # 30 A - 55 AP 403  ED SAN FELIPE BR POBLADO;0;3147007557;MEDELLIN;ANTIOQUIA;0;4;5651;2
8294043;FERMIN DE;JS TAMAYO;LUCILAVILLA27@GMAIL.COM;CR 45 Q 1-59 AP 1208 URB TRR DEL FUTURO;0;3206891822;MEDELLIN;ANTIOQUIA;20;0;5004;2
8294290;HERNAN I;SALAZAR V;notiene@notiene.com;CR 82 # 49 - 42;0;3104264766;MEDELLIN;ANTIOQUIA;19;0;1612;2
8294842;PEDRO NEL;YEPES GOMEZ;graficaslafrontera@hotmail.com;CR 84 # 32 B - 49 BR BELEN LAS MERCEDES;0;0;MEDELLIN;ANTIOQUIA;0;2;1632;2
8294862;JULIAN A;URIBE A;notiene@notiene.com;PENSIONADO EPM;0;3124173515;MEDELLIN;ANTIOQUIA;0;1;5147;2
8295186;ARMANDO E;SANCHEZ ZU#IGA;armandoe@une.net.co;DG 93 A # 39 B - 50;0;3006010770;MEDELLIN;ANTIOQUIA;0;5;9795;2
8295287;NESTOR AGUDELO;Q;nagudelo1979@gmail.com;CR 41 # 24 - 131 AP 1202;0;3104697942;MEDELLIN;ANTIOQUIA;0;5;4760;2
8295367;EDGAR JOSE;PENA H;edgarph2008@hotmail.com;CL 50 # 53 - 44 OF 511;0;3104425900;MEDELLIN;ANTIOQUIA;0;4;8557;2
8295883;FERNANDO ARANGO;PEREZ;fernando.arangop@gmail.com;CR 43 B # 1 A S  - 119  EL POBLADO AP 206;0;3105134685;MEDELLIN;ANTIOQUIA;9;0;9216;2
8296046;JOAQUIN A;URIBE GOMEZ;quinjua60@hotmail.com;TV 4 A # 75 D - 52 BL 24 AP 208;0;3128838725;MEDELLIN;ANTIOQUIA;25;0;4016;2
8296161;JORGE ARIAS;PUERTA;jorarias@une.net.co;CL 18B SUR # 38 - 51 AP 401 ED ANGEL  LA;0;3117485193;MEDELLIN;ANTIOQUIA;14;2;6019;2
8296345;GABRIEL J;SUAREZ GARCIA;gabriel.suarez.g@hotmail.com;CIRC 75 # 39 - 33 AP 101;0;3007836279;MEDELLIN;ANTIOQUIA;23;4;0000;2
8296607;HUMBERTO;CASTRILLON;hbtocastrillon@hotmail.com;CR 27 # 23 SUR 145 MURATTO AP 1205;0;3147709387;MEDELLIN;ANTIOQUIA;22;0;1005;2
8297248;FRANCISCO J;GARCIA MUNOZ;javiergarciam@hotmail.com;KM Vereda San Juan Km 3 casa # 9 - La Vega Cundinamarca;0;3102325522;BOGOTA;BOGOTA D.C.;12;5;8029;2
8297479;JORGE E;ESCOBAR VALENCIA;jorgeescobar1950@hotmail.com;CR 24 C # 41 SUR - 70 AP 504 UNRES SANTA CANTALINA BQ 2;0;3004108202;ENVIGADO;ANTIOQUIA;0;2;8775;2
8297524;HUMBERTO DURANGO;CANO;humbertodurango3@gmail.com;CR 57 B # 69 B - 05 VILLA VENTURA;0;3017701903;ITAGUI;ANTIOQUIA;5;0;4972;2
8297811;JORGE GOMEZ;LICASALE;th_ltda@hottmail.com;CL 44 A # 58 - 23;0;3108252108;MEDELLIN;ANTIOQUIA;13;4;7523;2
8298380;RUBEN DARIO;OSPINA ORTIZ;dariospina1949@hotmail.com;CL 5 A # 35 - 87 AP 1601;0;3007864562;MEDELLIN;ANTIOQUIA;8;0;1688;2
8298492;JOSE A;MARTINEZ ARANGO;joseamtzarango@hotmail.com;CR 46 # 52 - 140 OF 802 ED BANCO CAJA SOCIAL;0;3167541940;MEDELLIN;ANTIOQUIA;27;0;2005;2
8298546;JUAN G;GONZALEZ ORTIZ;jggo85@hotmail.com;CL 79 B # 29 B - 14;0;3156441568;BOGOTA;BOGOTA D.C.;23;0;2005;2
8298697;JORGE LUIS;OCHOA VASQUEZ;edisoncaicedo08@hotmail.com;CR 38 # 10 - 36 OF 500;0;3104242221;MEDELLIN;ANTIOQUIA;0;5;8812;2
8299247;JOSE;PENARANDA;jomapemo@hotmail.com;TV 10 A # 130 - 00 AP 102;0;3158813000;ZIPAQUIRA;CUNDINAMARCA;22;5;7011;2
8299321;IVAN ALVAREZ;CASTANO;globalconsultores@gmail.com;CL 141 # 14 - 11 IN 4;0;3153395235;BOGOTA;BOGOTA D.C.;24;0;0989;2
8299745;PASTOR I;H;pastorivan@une.net.co;CR 80 # 44 B - 5 AP 101  ED PILATUS BR LAS AMERICAS;0;3006005472;MEDELLIN;ANTIOQUIA;5;3;5041;2
8300039;ALFONSO ORTIZ;LAGUNA;aortizlag@yahoo.es;CL 21 S  # 41 A - 73 BR ZUNIGA;0;3014369679;ENVIGADO;ANTIOQUIA;2;3;8007;2
8300214;JAIRO DE;J GOMEZ;jairo0902@hotmail.com;CR 50 A # 50 A - 025 AP 302;0;3003595914;COPACABANA;ANTIOQUIA;6;0;8012;2
8300358;GUSTAVO A;VILLEGAS M;gavillas@une.net.co;CL 10 # 42 - 45 OF 405  ED LA PLAZA DEL;0;3004437342;MEDELLIN;ANTIOQUIA;22;0;1006;2
8300610;GERMAN CUJAR;CHAMORRO;cujarg@hotmail.com;CR 17 # 48n-128 CONDM campoalegre CS 42;0;3108315444;POPAYAN;CAUCA;19;3;4006;2
8300689;CARLOS BYRON;HERNANDEZ C;cbyronhc@gmail.com;CL 38 # 66 A - 44 AP 702 BR BARRIO CONQU;0;3104431755;MEDELLIN;ANTIOQUIA;27;0;2437;2
8300876;MARIO D;RAMIREZ Z;mario.ramirez.arbelaez49@gmail.com;CR 75 D A # 2B SUR - 320 TRR 9  AP 734 URB LOS CABOS BR BELEN  LA MOTA;0;3147907543;MEDELLIN;ANTIOQUIA;0;4;2486;2
8301156;JORGE RENDON;VALENCIA;jorgerendendov@hotmail.com;CL 7 # 37 - 50 AP 704;0;3006156639;MEDELLIN;ANTIOQUIA;0;4;4995;2
8301819;FIDEL NARANJO;ESTRADA;fidelnaranjoestrada@yahoo.com;CL 43 S # 47 - 17 AP 415 BR ALCALA;0;3154844846;MEDELLIN;ANTIOQUIA;2;0;8335;2
8302322;JOSE GUILLERMO;TORO M;elviahrendon@hotmail.com;CR 70 # 78 A - 18;0;3012814588;MEDELLIN;ANTIOQUIA;15;2;9576;2
8302697;VICTOR L;ZULUAGA S;vzuluagasalazar@gmail.com;CRA 27AA # 36SUR-160 APTO1507;0;3007849948;ENVIGADO;ANTIOQUIA;0;5;8638;2
8302738;FERNANDO VARGAS;YEPES;fevaye01@yahoo.com.co;CR 79 # 37 - 07 AP 301;0;3113989754;MEDELLIN;ANTIOQUIA;15;5;2013;2
8302932;LEON JAIME;VELASQUEZ PATIN;leonjaimeve@hotmail.com;CL 15 A # 30 - 80;0;3155003157;MEDELLIN;ANTIOQUIA;10;5;9555;2
8303329;LUIS C;MEDINA RAMIREZ;luiscarlos.medina@live.com;CR 70 A # 4 - 34;0;3146190312;MEDELLIN;ANTIOQUIA;26;0;8143;2
8303606;GONZALO AGUILAR;G;gonzaloa@une.net.co;CR 36# 10 B - 48;0;3113001521;MEDELLIN;ANTIOQUIA;0;5;2025;2
8303730;CARLOS E;SUESCUN DIAZ;notiene@notiene.com;CR 90 A # 35 A - 69 B STA MONI;0;3108277499;MEDELLIN;ANTIOQUIA;23;5;6017;2
8303977;JORGE HERNANDO;UPEGUI R;jur@disex.com.co;CL 71 sur No 35 180 ap 509  ed saltamontes;0;3137330870;SABANETA;ANTIOQUIA;0;2;9284;2
8304014;WILLIAM PAVONY;C;williampavony@hotmail.com;CR 67 A # 42 S 109 TRR 2 AP 512;0;3122395365;MEDELLIN;ANTIOQUIA;8;0;1006;2
8304217;JAIME OSORIO;GOMEZ;josorio2001@hotmail.com;TV 38 # 71 - 147 BR LAURELES;0;3104658264;MEDELLIN;ANTIOQUIA;0;4;8860;2
8304343;JOSE V;PATINO FRANCO;patinos11@hotmail.com;CR 34 A # 18 BM - 110 AP 402;0;3104258830;MEDELLIN;ANTIOQUIA;25;0;2009;2
8305006;VELEZ PASOS;VELEZ P;cvelez20@gmail.com;CR 117 # 10-140 AP 301 B UNRES BOREAL;0;3216412822;CALI;VALLE DEL CAUCA;12;3;1063;2
8305424;LUIS A;BEDOYA MONA;angelbedoya@une.net.co;CR 73 # 42 - 29;0;3006094116;MEDELLIN;ANTIOQUIA;25;2;8791;2
8305506;RAUL E;ZAPATA R;raza1907@yahoo.com;AV 46 B # 63 - 03;0;3117882306;BELLO;ANTIOQUIA;21;0;7475;2
8305579;CARLOS A;HERRERA VILLA;carlos.herrera1804@hotmail.com;CL 91 NO 54-55 1A ED MARIBU CL 91 NO 54-55 ED MALIBU AP 1A ALTOS DE RIOMAR;0;3168762035;BARRANQUILLA;ATLANTICO;0;3;3917;2
8305649;JOSE MONTOYA;GUTIERREZ;fernandomontoyag@hotmail.com;CR 13 # 12- 85 CS 9;0;3006522007;CHIA;CUNDINAMARCA;5;0;6007;2
8305704;JORGE ALONSO;ARANGO M;arangojorge1@hotmail.com;CL 6B SUR # 37 - 45 AP 409 ED SANTA FE;0;3122577708;MEDELLIN;ANTIOQUIA;0;4;4714;2
8305733;OSCAR SANTA;JESUS SANTA;osacarsa@hotmail.com;CR 48 # 12 S  - 161 AP 333 BQ;0;3108240992;MEDELLIN;ANTIOQUIA;25;2;5007;2
8305826;RICARDO VELEZ;MUNOZ;ricardoanibal.velez@hotmail.com;CL 45 SUR # 41 - 130 AP 122;0;3155636262;ENVIGADO;ANTIOQUIA;24;5;6953;2
8305999;JORGE ELIECER;GALLEGO;copibysfacturas@gmail.com;CL 42 E S  # 62 A - 28 IN 401;0;3116448082;MEDELLIN;ANTIOQUIA;21;0;3013;2
8306308;JHONNY TABARES;ARROYAVE;johnnyta07@gmail.com;CR 63 A  # 34 - 91 ED GALEON  AP 302 BR CONQUISTADORES;0;3113142608;MEDELLIN;ANTIOQUIA;24;0;0007;2
8306401;ARIEL CALLEJAS;MARTINEZ;ariel.callejas@hotmail.com;AA 51973 CASILLERO 99;0;3168728411;BARRANQUILLA;ATLANTICO;15;0;7366;2
8306603;HECTOR RESTREPO;ROLDAN;hectoramon2450@gmail.com;CR 12 # 16 - 15 BR CENTRO;0;3102092899;CHIA;CUNDINAMARCA;25;5;1019;2
8307618;LUIS GUILLERMO;MENDEZ;SMENDEZ40@YAHOO.COM;CR 30 # 3 B SUR 131 AP 802 ED TRRE DE LA IGLESIA;0;3013706449;MEDELLIN;ANTIOQUIA;19;0;5008;2
8307651;JORGE A;MOLINA LOPEZ;jorge.art.m@gmail.com;CR 42 # 7A S  - 92 AP 1305 EL POBLADO;0;3002435821;MEDELLIN;ANTIOQUIA;0;2;9277;2
8307736;RAFAEL GUILLERMO;GUTIERREZ;rgutierrezsierra@gmail.com;CL 17 # 37 A - 135 AP 602  BR;0;3104656324;MEDELLIN;ANTIOQUIA;12;0;1317;2
8308214;BERNARDO GALVIS;MUNETON;bernardo_galvis0409@yahoo.es;CL 6A # 16-45 AP 1803 TRR 1 UNRES GUAYACAN DE LA CALERA;0;3176570994;MEDELLIN;ANTIOQUIA;0;4;7595;2
8308244;GUSTAVO BOTERO;PALACIO;gusbopa@gmail.com;CR 44 # 60 sur- 35 INT 1312 SEC MAYORCA;0;3128506793;SABANETA;ANTIOQUIA;0;2;4520;2
8308320;JOSE F;POSADA OSORIO;josedpq@hotmail.com;CL 6 A # 18 - 97 AP 701 BR LA CALERA;0;3136149728;MEDELLIN;ANTIOQUIA;0;5;5837;2
8308509;CARLOS A;DURAN HERRERA;REPLEXUS@UNE.NET.CO;CRA 43C NO 4SUR-143;0;3108484578;MEDELLIN;ANTIOQUIA;19;0;6283;2
8309009;ELMER BARAHONA;GUTIERREZ;ebarahonaco@yahoo.com;DG 31 BA # 32 C SUR-28 BQ 05  AP 502;0;3136843915;ENVIGADO;ANTIOQUIA;27;0;7970;2
8309170;HUGO A;GONZALEZ INFANTE;hagigo2004@yahoo.es;CR 114 # 9 - 50  CONDM LA ALAMEDITA;0;3155768654;CALI;VALLE DEL CAUCA;21;0;5752;2
8309179;ALBEIRO GIRALDO;TORO;notiene@notiene.com;CR 35 # 29-81 AP 1011 BQ 3;0;3007877279;MEDELLIN;ANTIOQUIA;12;4;8002;2
8309245;JUAN M;MORENO OSORIO;juanmmoreno5001@gmail.com;CR 46 A # 29 SUR 20 BR ENVIGADO UN URBANZACION PALO DE ROSA AP 207;0;3192587545;MEDELLIN;ANTIOQUIA;25;0;7320;2
8309491;JUAN MARULANDA;ECHEVERRI;jmarulan@gmail.com;CL 49 # 50 - 59 LC 211  CC GANADERO RIONEGRO  BR PARQUE PRINCIPAL;0;3128431460;RIONEGRO;ANTIOQUIA;9;0;1007;2
8310285;OCTAVIO DE;J PULGARIN;oviorinca@gmail.com;CL 67 B # 46 - 39 BR SIMON BOLIVAR;0;3105157521;ITAGUI;ANTIOQUIA;0;1;9932;2
8311415;BENJAMIN BURITICA;TRUJILLO;benjaminburitica@yahoo.es;CR 83 A # 48 BB - 81 AP 518;0;3104446599;MEDELLIN;ANTIOQUIA;27;2;5634;2
8311902;JORGE MARIO;GOMEZ V;jormago1@une.net.co;CL 54  64 B  30 BL 38 AP 402 SIERRA GRANDE;0;3104241070;MEDELLIN;ANTIOQUIA;23;0;5004;2
8311948;FERNANDO A;ESTRADA TOBON;faet1948@gmail.com;CL 114 A # 21 - 55 AP 104 ED EL PORTON;0;3114434616;BOGOTA;BOGOTA D.C.;18;5;7887;2
8312154;LUIS G;ESCOBAR NARANJO;gescobarn@hotmail.com;CR 40 # 49 - 24 AP 1003;0;3164821038;MEDELLIN;ANTIOQUIA;28;0;4181;2
8312247;AURELIO HURTADO;MONTOYA;aureliohurtado10@hotmail.com;CL 48 A # 99 A - 89 BR SAN  JAVIER;0;3148358075;MEDELLIN;ANTIOQUIA;19;0;4016;2
8312275;HUMBERTO SALAZAR;GUZMAN;auditar@une.net.co;CL 1 sur # 43 G - 161;0;3004402665;MEDELLIN;ANTIOQUIA;10;0;1007;2
8312368;FABIO DE;J GOMEZ;faviodjg@gmail.com;CR 33 # 28 - 64;0;3156617549;PALMIRA;VALLE DEL CAUCA;16;0;8430;2
8312446;JOSE I;MOLINA S;joseignacio@ciiblu.com;ZFC RIONEGRO;0;3206322310;RIONEGRO;ANTIOQUIA;10;2;9008;2
8312457;SANTIAGO VILLA;VELILLA;santivilla@hotmail.com;CR 42 B # 25 SUR - 91 AP 401;0;3206922841;ENVIGADO;ANTIOQUIA;27;5;9964;2
8312491;CARLOS PINEDA;UPEGUI;juristas@une.net.co;CL 46 DD SUR # 39 - 55;0;3052250584;ENVIGADO;ANTIOQUIA;1;0;1001;2
8312558;FRANCISCO L;MEJIA DUQUE;aisaza@ingeomega.com;CR 42 # 3 SUR - 81 TRR 2 OF 1418 MILLA DE ORO;0;3113679411;MEDELLIN;ANTIOQUIA;11;0;7020;2
8312683;JORGE LEAL;LEAL ALVAREZ;amigoleal99@yahoo.com.mx;CL 56 # 47 - 12;0;3163965284;RIONEGRO;ANTIOQUIA;21;2;2092;2
8312985;HECTOR J;GUZMAN PACHECO;lacasonadelusado@hotmail.com;CL 28S # 36 - 48;0;3177217713;ENVIGADO;ANTIOQUIA;0;4;6566;2
8312998;LUIS U;GUERRA MESA;luisgueme@gmail.com;CL 7 SUR # 23 - 91 AP 1602 ED;0;3006681783;MEDELLIN;ANTIOQUIA;12;0;9011;2
8313125;JOSE LUIS;LONDONO GARCIA;jlondono@gmail.com;DG 75DD 4-11 BL 52 AP 202;0;3104588359;MEDELLIN;ANTIOQUIA;19;0;6091;2
8313990;PEDRO P;URIBE BETANCURTH;donpp50@gmail.com;CL 11 S  # 29D - 220 BQ 8 AP 1101;0;3104149179;MEDELLIN;ANTIOQUIA;20;5;3073;2
8314156;JUSTINIANO;CORDOBA V;juscoval@gmail.com;CR 59 # 27b 510 TRR 2 apto 510 CJ amazonia;0;3137301333;BELLO;ANTIOQUIA;13;3;9015;2
3347588;MIGUEL RODRIGUEZ;S;miguelangelorfebre@gmail.com;CR 27 # 22 S - 51 IN 118 BR SUÑIGA;0;3006122948;ENVIGADO;ANTIOQUIA;0;2;3082;2